(module DIP-14-300 (layer F.Cu) (tedit 58DD8B1A)
  (fp_text reference REF** (at 0 0 90) (layer F.SilkS)
    (effects (font (size 0.7 0.7) (thickness 0.15)))
  )
  (fp_text value DIP-14-300 (at 1 0 90) (layer F.Fab)
    (effects (font (size 0.5 0.5) (thickness 0.075)))
  )
  (fp_line (start -1 -9.9) (end -3.5 -9.9) (layer F.Fab) (width 0.05))
  (fp_line (start 1 -9.9) (end 3.5 -9.9) (layer F.Fab) (width 0.05))
  (fp_arc (start 0 -9.9) (end 1 -9.9) (angle 180) (layer F.Fab) (width 0.05))
  (fp_line (start -1 -9.9) (end -3.5 -9.9) (layer F.SilkS) (width 0.15))
  (fp_line (start 1 -9.9) (end 3.5 -9.9) (layer F.SilkS) (width 0.15))
  (fp_arc (start 0 -9.9) (end 1 -9.9) (angle 180) (layer F.SilkS) (width 0.15))
  (fp_line (start 3.5 -6.8) (end 3.5 -5.9) (layer F.SilkS) (width 0.15))
  (fp_line (start -3.5 -6.8) (end -3.5 -5.9) (layer F.SilkS) (width 0.15))
  (fp_line (start -3.5 -3.4) (end -3.5 -4.2) (layer F.SilkS) (width 0.15))
  (fp_line (start 3.5 -3.4) (end 3.5 -4.2) (layer F.SilkS) (width 0.15))
  (fp_line (start -3.5 -0.9) (end -3.5 -1.7) (layer F.SilkS) (width 0.15))
  (fp_line (start 3.5 -1.7) (end 3.5 -0.9) (layer F.SilkS) (width 0.15))
  (fp_line (start 3.5 1.7) (end 3.5 0.8) (layer F.SilkS) (width 0.15))
  (fp_line (start 3.5 4.2) (end 3.5 3.4) (layer F.SilkS) (width 0.15))
  (fp_line (start -3.5 1.7) (end -3.5 0.8) (layer F.SilkS) (width 0.15))
  (fp_line (start -3.5 4.2) (end -3.5 3.4) (layer F.SilkS) (width 0.15))
  (fp_line (start -3.5 6.8) (end -3.5 5.9) (layer F.SilkS) (width 0.15))
  (fp_line (start 3.5 6.8) (end 3.5 5.9) (layer F.SilkS) (width 0.15))
  (fp_line (start -3.5 8.5) (end -3.5 9.9) (layer F.SilkS) (width 0.15))
  (fp_line (start -3.5 9.9) (end 3.5 9.9) (layer F.SilkS) (width 0.15))
  (fp_line (start 3.5 9.9) (end 3.5 8.5) (layer F.SilkS) (width 0.15))
  (fp_line (start -3.5 -8.5) (end -3.5 -9.9) (layer F.SilkS) (width 0.15))
  (fp_line (start 3.5 -9.9) (end 3.5 -8.5) (layer F.SilkS) (width 0.15))
  (fp_line (start -2.6 -8.32) (end -2.6 -6.92) (layer B.CrtYd) (width 0.1))
  (fp_line (start -5 -8.32) (end -5 -6.92) (layer B.CrtYd) (width 0.1))
  (fp_line (start 5.1 -10.1) (end 5.1 10.1) (layer F.CrtYd) (width 0.1))
  (fp_line (start 5.1 10.1) (end -5.1 10.1) (layer F.CrtYd) (width 0.1))
  (fp_line (start -5.1 10.1) (end -5.1 -10.1) (layer F.CrtYd) (width 0.1))
  (fp_line (start -5.1 -10.1) (end 5.1 -10.1) (layer F.CrtYd) (width 0.1))
  (fp_line (start -3.5 -9.9) (end -3.5 9.9) (layer F.Fab) (width 0.05))
  (fp_line (start 3.5 9.9) (end 3.5 -9.9) (layer F.Fab) (width 0.05))
  (fp_line (start -3.5 9.9) (end 3.5 9.9) (layer F.Fab) (width 0.05))
  (fp_line (start -5 -8.32) (end -2.6 -8.32) (layer B.CrtYd) (width 0.1))
  (fp_line (start -5 -6.92) (end -2.6 -6.92) (layer B.CrtYd) (width 0.1))
  (fp_line (start -3.3 -5.78) (end -4.3 -5.78) (layer B.CrtYd) (width 0.1))
  (fp_line (start -3.3 -3.24) (end -4.3 -3.24) (layer B.CrtYd) (width 0.1))
  (fp_line (start -3.3 -0.7) (end -4.3 -0.7) (layer B.CrtYd) (width 0.1))
  (fp_line (start -3.3 1.84) (end -4.3 1.84) (layer B.CrtYd) (width 0.1))
  (fp_line (start -3.3 4.38) (end -4.3 4.38) (layer B.CrtYd) (width 0.1))
  (fp_line (start -3.3 6.92) (end -4.3 6.92) (layer B.CrtYd) (width 0.1))
  (fp_line (start 4.32 6.92) (end 3.32 6.92) (layer B.CrtYd) (width 0.1))
  (fp_line (start 4.32 4.38) (end 3.32 4.38) (layer B.CrtYd) (width 0.1))
  (fp_line (start 4.32 1.84) (end 3.32 1.84) (layer B.CrtYd) (width 0.1))
  (fp_line (start 4.32 -0.7) (end 3.32 -0.7) (layer B.CrtYd) (width 0.1))
  (fp_line (start 4.32 -3.24) (end 3.32 -3.24) (layer B.CrtYd) (width 0.1))
  (fp_line (start 4.32 -5.78) (end 3.32 -5.78) (layer B.CrtYd) (width 0.1))
  (fp_line (start 4.32 -8.32) (end 3.32 -8.32) (layer B.CrtYd) (width 0.1))
  (fp_line (start -4.3 -4.38) (end -3.3 -4.38) (layer B.CrtYd) (width 0.1))
  (fp_line (start -4.3 -1.84) (end -3.3 -1.84) (layer B.CrtYd) (width 0.1))
  (fp_line (start -4.3 0.7) (end -3.3 0.7) (layer B.CrtYd) (width 0.1))
  (fp_line (start -4.3 3.24) (end -3.3 3.24) (layer B.CrtYd) (width 0.1))
  (fp_line (start -4.3 5.78) (end -3.3 5.78) (layer B.CrtYd) (width 0.1))
  (fp_line (start -4.3 8.32) (end -3.3 8.32) (layer B.CrtYd) (width 0.1))
  (fp_line (start 3.32 8.32) (end 4.32 8.32) (layer B.CrtYd) (width 0.1))
  (fp_line (start 3.32 5.78) (end 4.32 5.78) (layer B.CrtYd) (width 0.1))
  (fp_line (start 3.32 3.24) (end 4.32 3.24) (layer B.CrtYd) (width 0.1))
  (fp_line (start 3.32 0.7) (end 4.32 0.7) (layer B.CrtYd) (width 0.1))
  (fp_line (start 3.32 -1.84) (end 4.32 -1.84) (layer B.CrtYd) (width 0.1))
  (fp_line (start 3.32 -4.38) (end 4.32 -4.38) (layer B.CrtYd) (width 0.1))
  (fp_line (start 3.32 -6.92) (end 4.32 -6.92) (layer B.CrtYd) (width 0.1))
  (fp_arc (start -3.3 -5.08) (end -3.3 -5.78) (angle 180) (layer B.CrtYd) (width 0.1))
  (fp_arc (start -3.3 -2.54) (end -3.3 -3.24) (angle 180) (layer B.CrtYd) (width 0.1))
  (fp_arc (start -3.3 0) (end -3.3 -0.7) (angle 180) (layer B.CrtYd) (width 0.1))
  (fp_arc (start -3.3 2.54) (end -3.3 1.84) (angle 180) (layer B.CrtYd) (width 0.1))
  (fp_arc (start -3.3 5.08) (end -3.3 4.38) (angle 180) (layer B.CrtYd) (width 0.1))
  (fp_arc (start -3.3 7.62) (end -3.3 6.92) (angle 180) (layer B.CrtYd) (width 0.1))
  (fp_arc (start 4.32 7.62) (end 4.32 6.92) (angle 180) (layer B.CrtYd) (width 0.1))
  (fp_arc (start 4.32 5.08) (end 4.32 4.38) (angle 180) (layer B.CrtYd) (width 0.1))
  (fp_arc (start 4.32 2.54) (end 4.32 1.84) (angle 180) (layer B.CrtYd) (width 0.1))
  (fp_arc (start 4.32 0) (end 4.32 -0.7) (angle 180) (layer B.CrtYd) (width 0.1))
  (fp_arc (start 4.32 -2.54) (end 4.32 -3.24) (angle 180) (layer B.CrtYd) (width 0.1))
  (fp_arc (start 4.32 -5.08) (end 4.32 -5.78) (angle 180) (layer B.CrtYd) (width 0.1))
  (fp_arc (start 4.32 -7.62) (end 4.32 -8.32) (angle 180) (layer B.CrtYd) (width 0.1))
  (fp_arc (start -4.3 -5.08) (end -4.3 -4.38) (angle 180) (layer B.CrtYd) (width 0.1))
  (fp_arc (start -4.3 -2.54) (end -4.3 -1.84) (angle 180) (layer B.CrtYd) (width 0.1))
  (fp_arc (start -4.3 0) (end -4.3 0.7) (angle 180) (layer B.CrtYd) (width 0.1))
  (fp_arc (start -4.3 2.54) (end -4.3 3.24) (angle 180) (layer B.CrtYd) (width 0.1))
  (fp_arc (start -4.3 5.08) (end -4.3 5.78) (angle 180) (layer B.CrtYd) (width 0.1))
  (fp_arc (start -4.3 7.62) (end -4.3 8.32) (angle 180) (layer B.CrtYd) (width 0.1))
  (fp_arc (start 3.32 7.62) (end 3.32 8.32) (angle 180) (layer B.CrtYd) (width 0.1))
  (fp_arc (start 3.32 5.08) (end 3.32 5.78) (angle 180) (layer B.CrtYd) (width 0.1))
  (fp_arc (start 3.32 2.54) (end 3.32 3.24) (angle 180) (layer B.CrtYd) (width 0.1))
  (fp_arc (start 3.32 0) (end 3.32 0.7) (angle 180) (layer B.CrtYd) (width 0.1))
  (fp_arc (start 3.32 -2.54) (end 3.32 -1.84) (angle 180) (layer B.CrtYd) (width 0.1))
  (fp_arc (start 3.32 -5.08) (end 3.32 -4.38) (angle 180) (layer B.CrtYd) (width 0.1))
  (fp_arc (start 3.32 -7.62) (end 3.32 -6.92) (angle 180) (layer B.CrtYd) (width 0.1))
  (pad 1 thru_hole rect (at -3.81 -7.62) (size 2.2 1.2) (drill 0.7) (layers *.Cu *.Mask))
  (pad 2 thru_hole oval (at -3.81 -5.08) (size 2.2 1.2) (drill 0.7) (layers *.Cu *.Mask))
  (pad 3 thru_hole oval (at -3.81 -2.54) (size 2.2 1.2) (drill 0.7) (layers *.Cu *.Mask))
  (pad 4 thru_hole oval (at -3.81 0) (size 2.2 1.2) (drill 0.7) (layers *.Cu *.Mask))
  (pad 5 thru_hole oval (at -3.81 2.54) (size 2.2 1.2) (drill 0.7) (layers *.Cu *.Mask))
  (pad 6 thru_hole oval (at -3.81 5.08) (size 2.2 1.2) (drill 0.7) (layers *.Cu *.Mask))
  (pad 7 thru_hole oval (at -3.81 7.62) (size 2.2 1.2) (drill 0.7) (layers *.Cu *.Mask))
  (pad 8 thru_hole oval (at 3.81 7.62) (size 2.2 1.2) (drill 0.7) (layers *.Cu *.Mask))
  (pad 9 thru_hole oval (at 3.81 5.08) (size 2.2 1.2) (drill 0.7) (layers *.Cu *.Mask))
  (pad 10 thru_hole oval (at 3.81 2.54) (size 2.2 1.2) (drill 0.7) (layers *.Cu *.Mask))
  (pad 11 thru_hole oval (at 3.81 0) (size 2.2 1.2) (drill 0.7) (layers *.Cu *.Mask))
  (pad 12 thru_hole oval (at 3.81 -2.54) (size 2.2 1.2) (drill 0.7) (layers *.Cu *.Mask))
  (pad 13 thru_hole oval (at 3.81 -5.08) (size 2.2 1.2) (drill 0.7) (layers *.Cu *.Mask))
  (pad 14 thru_hole oval (at 3.81 -7.62) (size 2.2 1.2) (drill 0.7) (layers *.Cu *.Mask))
)
