(module HC-49 (layer F.Cu) (tedit 58873682)
  (fp_text reference REF** (at 0 -1) (layer F.SilkS)
    (effects (font (size 0.7 0.7) (thickness 0.15)))
  )
  (fp_text value HC-49 (at 0 1) (layer F.Fab)
    (effects (font (size 0.4 0.4) (thickness 0.075)))
  )
  (fp_line (start 3.25 2.55) (end -3.25 2.55) (layer F.CrtYd) (width 0.1))
  (fp_line (start 3.25 -2.55) (end -3.25 -2.55) (layer F.CrtYd) (width 0.1))
  (fp_arc (start 3.25 0) (end 3.25 -2.55) (angle 180) (layer F.CrtYd) (width 0.1))
  (fp_arc (start -3.25 0) (end -3.25 2.55) (angle 180) (layer F.CrtYd) (width 0.1))
  (fp_line (start -3.25 2.4) (end 3.25 2.4) (layer F.SilkS) (width 0.15))
  (fp_line (start 3.25 -2.4) (end -3.25 -2.4) (layer F.SilkS) (width 0.15))
  (fp_arc (start 3.25 0) (end 3.25 -2.4) (angle 180) (layer F.SilkS) (width 0.15))
  (fp_arc (start -3.25 0) (end -3.25 2.4) (angle 180) (layer F.SilkS) (width 0.15))
  (fp_line (start 3.25 2.25) (end -3.25 2.25) (layer F.Fab) (width 0.05))
  (fp_line (start -3.25 -2.25) (end 3.25 -2.25) (layer F.Fab) (width 0.05))
  (fp_arc (start 3.25 0) (end 3.25 -2.25) (angle 180) (layer F.Fab) (width 0.05))
  (fp_arc (start -3.25 0) (end -3.25 2.25) (angle 180) (layer F.Fab) (width 0.05))
  (fp_line (start 3.15 -0.2) (end 3.15 0.2) (layer B.CrtYd) (width 0.1))
  (fp_line (start 1.75 -0.2) (end 1.75 0.2) (layer B.CrtYd) (width 0.1))
  (fp_line (start -3.15 -0.2) (end -3.15 0.2) (layer B.CrtYd) (width 0.1))
  (fp_line (start -1.75 -0.2) (end -1.75 0.2) (layer B.CrtYd) (width 0.1))
  (fp_arc (start 2.45 0.2) (end 3.15 0.2) (angle 180) (layer B.CrtYd) (width 0.1))
  (fp_arc (start 2.45 -0.2) (end 1.75 -0.2) (angle 180) (layer B.CrtYd) (width 0.1))
  (fp_arc (start -2.45 0.2) (end -1.75 0.2) (angle 180) (layer B.CrtYd) (width 0.1))
  (fp_arc (start -2.45 -0.2) (end -3.15 -0.2) (angle 180) (layer B.CrtYd) (width 0.1))
  (pad 1 thru_hole oval (at -2.45 0) (size 1.2 1.6) (drill 0.6) (layers *.Cu *.Mask F.SilkS))
  (pad 2 thru_hole oval (at 2.45 0) (size 1.2 1.6) (drill 0.6) (layers *.Cu *.Mask F.SilkS))
)
