(footprint "SM7343_todo" (version 20211014) (generator pcbnew)
  (layer "F.Cu")
  (tedit 61E2FAA0)
  (attr through_hole)
  (fp_text reference "REF**" (at 0.075 -8.225) (layer "F.SilkS")
    (effects (font (size 0.6 0.6) (thickness 0.15)))
    (tstamp 59a4dc33-016c-4cea-b648-6fe1c8836f68)
  )
  (fp_text value "SM7343_CAP" (at 0.075 -9.225) (layer "F.Fab")
    (effects (font (size 0.4 0.4) (thickness 0.075)))
    (tstamp e91ad237-6778-4565-a41c-5451c22b839e)
  )
  (fp_line (start -2.25 -3.75) (end -2.25 3.75) (layer "F.SilkS") (width 0.15) (tstamp 49edae70-5dd4-4020-bb66-e19aaf00297f))
  (fp_line (start 2.25 -3.75) (end 2.25 3.75) (layer "F.SilkS") (width 0.15) (tstamp d26a8420-78a3-4a9e-b4f4-5a9910f59c4d))
  (fp_line (start 1.2 -3.7) (end 1.2 -2.35) (layer "F.Fab") (width 0.05) (tstamp 09dffe2f-119c-4acf-b279-934de0a0dda7))
  (fp_line (start -1.2 -2.35) (end 1.2 -2.35) (layer "F.Fab") (width 0.05) (tstamp 24c732be-56c7-40ff-a440-789a73d66281))
  (fp_line (start 2.15 3.65) (end 1.2 3.65) (layer "F.Fab") (width 0.05) (tstamp 8de39313-d6b3-49d5-879e-e7c755da7625))
  (fp_line (start 2.15 -3.65) (end 2.15 3.65) (layer "F.Fab") (width 0.05) (tstamp 8e0527a1-64cc-4c21-af5a-5910f4c387cc))
  (fp_line (start 1.2 3.7) (end 1.2 2.35) (layer "F.Fab") (width 0.05) (tstamp 90871ced-792e-45f5-b74e-584f9a150cb4))
  (fp_line (start -1.2 -3.7) (end 1.2 -3.7) (layer "F.Fab") (width 0.05) (tstamp 999a9de1-b184-4a7a-88ce-e26d61a272e3))
  (fp_line (start -1.2 -2.35) (end -1.2 -3.7) (layer "F.Fab") (width 0.05) (tstamp 9c08e9bc-2359-4642-8957-cdc10638112d))
  (fp_line (start 2.15 -3.65) (end 1.2 -3.65) (layer "F.Fab") (width 0.05) (tstamp 9c221d52-946b-4b75-8659-2771c7e549f2))
  (fp_line (start -1.2 2.35) (end 1.2 2.35) (layer "F.Fab") (width 0.05) (tstamp aed766cc-c8d5-45cf-84bc-1c29216ccceb))
  (fp_line (start -1.2 2.35) (end -1.2 3.7) (layer "F.Fab") (width 0.05) (tstamp b0ef56f0-51f0-42df-b28a-72491f7f6bb8))
  (fp_line (start -2.15 -3.65) (end -2.15 3.65) (layer "F.Fab") (width 0.05) (tstamp d6dd0f16-8940-44d4-96ec-2f3144e7eef5))
  (fp_line (start -1.2 3.7) (end 1.2 3.7) (layer "F.Fab") (width 0.05) (tstamp de119e3e-b85f-435d-9e15-bdebccebd1c5))
  (fp_line (start -2.15 3.65) (end -1.2 3.65) (layer "F.Fab") (width 0.05) (tstamp fa837821-0cb5-4c2d-b2ac-2376f32f5c33))
  (fp_line (start -2.15 -3.65) (end -1.2 -3.65) (layer "F.Fab") (width 0.05) (tstamp fe7aa45c-11dc-4d1a-9253-27a0da27aa34))
  (fp_poly (pts
      (xy -2.15 -3.65)
      (xy -1.2 -3.65)
      (xy -1.2 -2.35)
      (xy 1.2 -2.35)
      (xy 1.2 -3.65)
      (xy 2.15 -3.65)
      (xy 2.15 -2.05)
      (xy -2.15 -2.05)
    ) (layer "F.Fab") (width 0.05) (fill solid) (tstamp 1afdd221-608b-420b-8eb2-861de263adb5))
  (pad "1" smd roundrect (at 0 -3.025) (size 2.75 1.7) (layers "F.Cu" "F.Paste" "F.Mask") (roundrect_rratio 0.05)
    (solder_mask_margin 0.05) (solder_paste_margin -0.075) (tstamp 16010e58-8aee-45c1-99df-d1cc2bd80779))
  (pad "2" smd roundrect (at 0 3.025) (size 2.75 1.7) (layers "F.Cu" "F.Paste" "F.Mask") (roundrect_rratio 0.05)
    (solder_mask_margin 0.05) (solder_paste_margin -0.075) (tstamp 76973292-11cb-4c20-8b65-30d05bb4f01c))
)
