(module 30pin-0.5mm-01 (layer F.Cu) (tedit 56F3F56A)
  (fp_text reference REF** (at 0 2) (layer F.SilkS)
    (effects (font (size 1 1) (thickness 0.1)))
  )
  (fp_text value VAL** (at 0 3.5) (layer F.Fab) hide
    (effects (font (size 0.7 0.7) (thickness 0.1)))
  )
  (fp_circle (center -5 2) (end -5 1.9) (layer F.Adhes) (width 0.1))
  (fp_circle (center 5 2) (end 5 1.9) (layer F.Adhes) (width 0.1))
  (fp_line (start -7.7 -0.3) (end -9.7 -0.3) (layer F.SilkS) (width 0.1))
  (fp_line (start 9.7 0.6) (end 9.7 -0.3) (layer F.SilkS) (width 0.1))
  (fp_line (start 9.7 -0.3) (end 7.7 -0.3) (layer F.SilkS) (width 0.1))
  (fp_line (start -10.3 4) (end -10.3 4.4) (layer F.SilkS) (width 0.1))
  (fp_line (start -10.3 4.4) (end 10.3 4.4) (layer F.SilkS) (width 0.1))
  (fp_line (start 10.3 4.4) (end 10.3 4.1) (layer F.SilkS) (width 0.1))
  (fp_line (start -9.7 -0.3) (end -9.7 0.6) (layer F.SilkS) (width 0.1))
  (fp_line (start -10.3 3) (end -9.7 3) (layer F.Fab) (width 0.05))
  (fp_line (start 9.7 -0.3) (end -9.7 -0.3) (layer F.Fab) (width 0.05))
  (fp_line (start -9.7 -0.3) (end -9.7 3) (layer F.Fab) (width 0.05))
  (fp_line (start 9.7 -0.3) (end 9.7 3) (layer F.Fab) (width 0.05))
  (fp_line (start 9.7 3) (end 10.3 3) (layer F.Fab) (width 0.05))
  (fp_line (start -10.3 3) (end -10.3 4.4) (layer F.Fab) (width 0.05))
  (fp_line (start -10.3 4.4) (end 10.3 4.4) (layer F.Fab) (width 0.05))
  (fp_line (start 10.3 4.4) (end 10.3 3) (layer F.Fab) (width 0.05))
  (pad 30 smd rect (at -7.25 0) (size 0.3 1.25) (layers F.Cu F.Paste F.Mask))
  (pad 29 smd rect (at -6.75 0) (size 0.3 1.25) (layers F.Cu F.Paste F.Mask))
  (pad 28 smd rect (at -6.25 0) (size 0.3 1.25) (layers F.Cu F.Paste F.Mask))
  (pad 27 smd rect (at -5.75 0) (size 0.3 1.25) (layers F.Cu F.Paste F.Mask))
  (pad 26 smd rect (at -5.25 0) (size 0.3 1.25) (layers F.Cu F.Paste F.Mask))
  (pad 25 smd rect (at -4.75 0) (size 0.3 1.25) (layers F.Cu F.Paste F.Mask))
  (pad 24 smd rect (at -4.25 0) (size 0.3 1.25) (layers F.Cu F.Paste F.Mask))
  (pad 23 smd rect (at -3.75 0) (size 0.3 1.25) (layers F.Cu F.Paste F.Mask))
  (pad 22 smd rect (at -3.25 0) (size 0.3 1.25) (layers F.Cu F.Paste F.Mask))
  (pad 21 smd rect (at -2.75 0) (size 0.3 1.25) (layers F.Cu F.Paste F.Mask))
  (pad 20 smd rect (at -2.25 0) (size 0.3 1.25) (layers F.Cu F.Paste F.Mask))
  (pad 19 smd rect (at -1.75 0) (size 0.3 1.25) (layers F.Cu F.Paste F.Mask))
  (pad 18 smd rect (at -1.25 0) (size 0.3 1.25) (layers F.Cu F.Paste F.Mask))
  (pad 17 smd rect (at -0.75 0) (size 0.3 1.25) (layers F.Cu F.Paste F.Mask))
  (pad 16 smd rect (at -0.25 0) (size 0.3 1.25) (layers F.Cu F.Paste F.Mask))
  (pad 15 smd rect (at 0.25 0) (size 0.3 1.25) (layers F.Cu F.Paste F.Mask))
  (pad 14 smd rect (at 0.75 0) (size 0.3 1.25) (layers F.Cu F.Paste F.Mask))
  (pad 13 smd rect (at 1.25 0) (size 0.3 1.25) (layers F.Cu F.Paste F.Mask))
  (pad 12 smd rect (at 1.75 0) (size 0.3 1.25) (layers F.Cu F.Paste F.Mask))
  (pad 11 smd rect (at 2.25 0) (size 0.3 1.25) (layers F.Cu F.Paste F.Mask))
  (pad 10 smd rect (at 2.75 0) (size 0.3 1.25) (layers F.Cu F.Paste F.Mask))
  (pad 9 smd rect (at 3.25 0) (size 0.3 1.25) (layers F.Cu F.Paste F.Mask))
  (pad 8 smd rect (at 3.75 0) (size 0.3 1.25) (layers F.Cu F.Paste F.Mask))
  (pad 7 smd rect (at 4.25 0) (size 0.3 1.25) (layers F.Cu F.Paste F.Mask))
  (pad 6 smd rect (at 4.75 0) (size 0.3 1.25) (layers F.Cu F.Paste F.Mask))
  (pad 5 smd rect (at 5.25 0) (size 0.3 1.25) (layers F.Cu F.Paste F.Mask))
  (pad 4 smd rect (at 5.75 0) (size 0.3 1.25) (layers F.Cu F.Paste F.Mask))
  (pad 3 smd rect (at 6.25 0) (size 0.3 1.25) (layers F.Cu F.Paste F.Mask))
  (pad 2 smd rect (at 6.75 0) (size 0.3 1.25) (layers F.Cu F.Paste F.Mask))
  (pad 1 smd rect (at 7.25 0) (size 0.3 1.25) (layers F.Cu F.Paste F.Mask))
  (pad 31 smd rect (at 9.29 2.325) (size 2.5 3.2) (layers F.Cu F.Paste F.Mask))
  (pad 31 smd rect (at -9.29 2.325) (size 2.5 3.2) (layers F.Cu F.Paste F.Mask))
)
