(module MQ2 (layer F.Cu) (tedit 5979D25E)
  (fp_text reference REF** (at 0 0) (layer F.SilkS)
    (effects (font (size 0.7 0.7) (thickness 0.15)))
  )
  (fp_text value MQ2 (at 0 0.9) (layer F.Fab)
    (effects (font (size 0.4 0.4) (thickness 0.075)))
  )
  (fp_circle (center -3.35 3.35) (end -3.35 2.25) (layer B.CrtYd) (width 0.1))
  (fp_circle (center 3.5 3.35) (end 3.5 2.25) (layer B.CrtYd) (width 0.1))
  (fp_circle (center 4.7 0) (end 4.7 -1.1) (layer B.CrtYd) (width 0.1))
  (fp_circle (center 3.35 -3.35) (end 3.35 -4.45) (layer B.CrtYd) (width 0.1))
  (fp_circle (center -4.7 0) (end -4.7 -1.1) (layer B.CrtYd) (width 0.1))
  (fp_circle (center -3.35 -3.35) (end -3.35 -4.45) (layer B.CrtYd) (width 0.1))
  (fp_circle (center 0 0) (end 0 -9.9) (layer F.SilkS) (width 0.15))
  (fp_circle (center 0 0) (end 0 -9.9) (layer F.CrtYd) (width 0.1))
  (fp_circle (center 0 0) (end 0 -9.8) (layer F.Fab) (width 0.05))
  (pad 1 thru_hole circle (at -3.35 -3.35) (size 2 2) (drill 1.2) (layers *.Cu *.Mask))
  (pad 2 thru_hole circle (at -4.7 0) (size 2 2) (drill 1.2) (layers *.Cu *.Mask))
  (pad 3 thru_hole circle (at -3.35 3.35) (size 2 2) (drill 1.2) (layers *.Cu *.Mask))
  (pad 4 thru_hole circle (at 3.35 -3.35) (size 2 2) (drill 1.2) (layers *.Cu *.Mask))
  (pad 5 thru_hole circle (at 4.7 0) (size 2 2) (drill 1.2) (layers *.Cu *.Mask))
  (pad 6 thru_hole circle (at 3.5 3.35) (size 2 2) (drill 1.2) (layers *.Cu *.Mask))
)
