(module PurposeSilkS (layer F.Cu) (tedit 5B968270)
  (fp_text reference REF** (at 0 -1.5) (layer F.SilkS) hide
    (effects (font (size 0.6 0.6) (thickness 0.15)))
  )
  (fp_text value PurposeSilkS (at 0 2.5) (layer F.Fab) hide
    (effects (font (size 0.6 0.6) (thickness 0.12)))
  )
  (fp_text user "ADDITIVE MANUFACTURING SYSTEMS" (at 2.5 1.7) (layer F.SilkS)
    (effects (font (size 0.38 0.45) (thickness 0.09)))
  )
  (fp_arc (start -8.3 -0.6086) (end -8.3159 -0.656) (angle -71.3) (layer F.SilkS) (width 0.1))
  (fp_arc (start -6.0245 -1.3756) (end -5.9745 -1.3756) (angle -108.6) (layer F.SilkS) (width 0.1))
  (fp_arc (start -6.0245 0.8544) (end -6.0086 0.9018) (angle -71.3) (layer F.SilkS) (width 0.1))
  (fp_arc (start -8.3 1.6214) (end -8.35 1.6214) (angle -108.6) (layer F.SilkS) (width 0.1))
  (fp_arc (start -6.7569 1.5851) (end -6.8069 1.5851) (angle -108.6) (layer F.SilkS) (width 0.1))
  (fp_arc (start -4.4531 0.8085) (end -4.4371 0.8559) (angle -71.3) (layer F.SilkS) (width 0.1))
  (fp_arc (start -4.4531 -1.4215) (end -4.4031 -1.4215) (angle -108.6) (layer F.SilkS) (width 0.1))
  (fp_arc (start -2.5739 -0.3417) (end -2.5739 0.2179) (angle -180) (layer F.SilkS) (width 0.1))
  (fp_arc (start -2.5739 -0.3417) (end -2.5739 -0.1179) (angle -180) (layer F.SilkS) (width 0.1))
  (fp_arc (start -0.9817 0.1065) (end -1.3765 0.1065) (angle -180) (layer F.SilkS) (width 0.1))
  (fp_arc (start -0.9817 0.1065) (end -1.7765 0.1065) (angle -180) (layer F.SilkS) (width 0.1))
  (fp_arc (start 1.0281 -0.3417) (end 1.1681 0.2001) (angle -165.5) (layer F.SilkS) (width 0.1))
  (fp_arc (start 1.0281 -0.3417) (end 1.0281 -0.1179) (angle -180) (layer F.SilkS) (width 0.1))
  (fp_arc (start 2.701 -0.3417) (end 2.701 0.2179) (angle -180) (layer F.SilkS) (width 0.1))
  (fp_arc (start 2.701 -0.3417) (end 2.701 -0.1179) (angle -180) (layer F.SilkS) (width 0.1))
  (fp_arc (start 4.3588 -0.05) (end 4.88 -0.05) (angle -180) (layer F.SilkS) (width 0.1))
  (fp_arc (start 4.3588 0.05) (end 3.8377 0.05) (angle -180) (layer F.SilkS) (width 0.1))
  (fp_arc (start 4.3539 -0.05) (end 5.2052 -0.05) (angle -180) (layer F.SilkS) (width 0.1))
  (fp_arc (start 4.3539 0.05) (end 3.5025 0.05) (angle -180) (layer F.SilkS) (width 0.1))
  (fp_arc (start 6.1758 -0.1472) (end 5.6208 0.3449) (angle -30.8) (layer F.SilkS) (width 0.1))
  (fp_arc (start 5.9532 0.1712) (end 5.483 0.7297) (angle -40) (layer F.SilkS) (width 0.1))
  (fp_arc (start 6.2808 0.3913) (end 6.2808 0.5599) (angle -163.6) (layer F.SilkS) (width 0.1))
  (fp_arc (start 5.8823 -0.3651) (end 5.4556 -0.2237) (angle -63.4) (layer F.SilkS) (width 0.1))
  (fp_arc (start 6.3091 0.3489) (end 6.4261 0.9013) (angle -57.7) (layer F.SilkS) (width 0.1))
  (fp_arc (start 6.0048 -0.3371) (end 5.9399 -0.9013) (angle -68.7) (layer F.SilkS) (width 0.1))
  (fp_arc (start 6.3073 -0.2438) (end 6.7308 -0.7468) (angle -40) (layer F.SilkS) (width 0.1))
  (fp_arc (start 6.2852 -0.096) (end 6.6341 -0.4107) (angle -45.2) (layer F.SilkS) (width 0.1))
  (fp_arc (start 6.0065 -0.4002) (end 6.0065 -0.5654) (angle -163.6) (layer F.SilkS) (width 0.1))
  (fp_arc (start 6.4191 0.3523) (end 6.8386 0.2176) (angle -55.8) (layer F.SilkS) (width 0.1))
  (fp_line (start -8.3159 -0.656) (end -6.0405 -1.423) (layer F.SilkS) (width 0.1))
  (fp_line (start -3.4246 -0.9013) (end -3.4246 0.9013) (layer F.SilkS) (width 0.1))
  (fp_line (start -5.9745 -1.3756) (end -5.9745 0.85442) (layer F.SilkS) (width 0.1))
  (fp_line (start -3.4246 0.9013) (end -3.0246 0.9013) (layer F.SilkS) (width 0.1))
  (fp_line (start -6.0086 0.9018) (end -8.284 1.6687) (layer F.SilkS) (width 0.1))
  (fp_line (start -3.0246 0.9013) (end -3.0246 0.2179) (layer F.SilkS) (width 0.1))
  (fp_line (start -8.35 1.6214) (end -8.35 -0.6086) (layer F.SilkS) (width 0.1))
  (fp_line (start -3.0246 0.2179) (end -2.5739 0.2179) (layer F.SilkS) (width 0.1))
  (fp_line (start -5.8245 -1.0119) (end -4.469 -1.4688) (layer F.SilkS) (width 0.1))
  (fp_line (start -1.7765 -0.9013) (end -1.7765 0.1065) (layer F.SilkS) (width 0.1))
  (fp_line (start -4.4031 -1.4215) (end -4.4031 0.8085) (layer F.SilkS) (width 0.1))
  (fp_line (start -2.5739 -0.9013) (end -3.4246 -0.9013) (layer F.SilkS) (width 0.1))
  (fp_line (start -4.4371 0.8559) (end -6.7409 1.6325) (layer F.SilkS) (width 0.1))
  (fp_line (start -3.0246 -0.5654) (end -3.0246 -0.1179) (layer F.SilkS) (width 0.1))
  (fp_line (start -6.8069 1.5851) (end -6.8069 1.3292) (layer F.SilkS) (width 0.1))
  (fp_line (start -3.0246 -0.1179) (end -2.5739 -0.1179) (layer F.SilkS) (width 0.1))
  (fp_line (start 0.1773 0.9013) (end 0.1773 -0.9013) (layer F.SilkS) (width 0.1))
  (fp_line (start -2.5739 -0.5654) (end -3.0246 -0.5654) (layer F.SilkS) (width 0.1))
  (fp_line (start -1.3765 0.1065) (end -1.3765 -0.9013) (layer F.SilkS) (width 0.1))
  (fp_line (start -1.3765 -0.9013) (end -1.7765 -0.9013) (layer F.SilkS) (width 0.1))
  (fp_line (start -0.5869 -0.9013) (end -0.1869 -0.9013) (layer F.SilkS) (width 0.1))
  (fp_line (start -0.1869 -0.9013) (end -0.1869 0.1065) (layer F.SilkS) (width 0.1))
  (fp_line (start 0.1773 -0.9013) (end 1.0281 -0.9013) (layer F.SilkS) (width 0.1))
  (fp_line (start -0.5869 0.1065) (end -0.5869 -0.9013) (layer F.SilkS) (width 0.1))
  (fp_line (start 0.5773 -0.5654) (end 0.5773 -0.1179) (layer F.SilkS) (width 0.1))
  (fp_line (start 1.1681 0.2001) (end 1.5903 0.9013) (layer F.SilkS) (width 0.1))
  (fp_line (start 0.5773 -0.1179) (end 1.0281 -0.1179) (layer F.SilkS) (width 0.1))
  (fp_line (start 1.5903 0.9013) (end 1.1903 0.9013) (layer F.SilkS) (width 0.1))
  (fp_line (start 1.1903 0.9013) (end 0.8056 0.2624) (layer F.SilkS) (width 0.1))
  (fp_line (start 0.8056 0.2624) (end 0.5773 0.2624) (layer F.SilkS) (width 0.1))
  (fp_line (start 0.5773 0.2624) (end 0.5773 0.9013) (layer F.SilkS) (width 0.1))
  (fp_line (start 0.5773 0.9013) (end 0.1773 0.9013) (layer F.SilkS) (width 0.1))
  (fp_line (start 1.8503 -0.9013) (end 1.8503 0.9013) (layer F.SilkS) (width 0.1))
  (fp_line (start 1.0281 -0.5654) (end 0.5773 -0.5654) (layer F.SilkS) (width 0.1))
  (fp_line (start 1.8503 0.9013) (end 2.2503 0.9013) (layer F.SilkS) (width 0.1))
  (fp_line (start 2.2503 0.9013) (end 2.2503 0.2179) (layer F.SilkS) (width 0.1))
  (fp_line (start 2.2503 0.2179) (end 2.701 0.2179) (layer F.SilkS) (width 0.1))
  (fp_line (start 2.701 -0.9013) (end 1.8503 -0.9013) (layer F.SilkS) (width 0.1))
  (fp_line (start 2.2503 -0.5654) (end 2.2503 -0.1179) (layer F.SilkS) (width 0.1))
  (fp_line (start 2.2503 -0.1179) (end 2.701 -0.1179) (layer F.SilkS) (width 0.1))
  (fp_line (start 2.701 -0.5654) (end 2.2503 -0.5654) (layer F.SilkS) (width 0.1))
  (fp_line (start 3.5025 -0.05) (end 3.5025 0.05) (layer F.SilkS) (width 0.1))
  (fp_line (start 6.8397 -0.6551) (end 6.6341 -0.4107) (layer F.SilkS) (width 0.1))
  (fp_line (start 3.8377 -0.05) (end 3.8377 0.05) (layer F.SilkS) (width 0.1))
  (fp_line (start 5.4556 -0.4815) (end 5.4556 -0.2237) (layer F.SilkS) (width 0.1))
  (fp_line (start 4.88 -0.05) (end 4.88 0.05) (layer F.SilkS) (width 0.1))
  (fp_line (start 5.6208 0.3449) (end 5.3741 0.638) (layer F.SilkS) (width 0.1))
  (fp_line (start 5.2052 -0.05) (end 5.2052 0.05) (layer F.SilkS) (width 0.1))
  (fp_line (start 5.9399 -0.9013) (end 6.3073 -0.9013) (layer F.SilkS) (width 0.1))
  (fp_line (start 6.8386 0.2176) (end 6.8386 0.545) (layer F.SilkS) (width 0.1))
  (fp_line (start 5.9532 0.9013) (end 6.4261 0.9013) (layer F.SilkS) (width 0.1))
  (fp_line (start 6.8397 -0.6551) (end 6.7308 -0.7468) (layer F.SilkS) (width 0.1))
  (fp_line (start 5.3741 0.638) (end 5.483 0.7297) (layer F.SilkS) (width 0.1))
  (fp_line (start 5.9517 0.5599) (end 6.2808 0.5599) (layer F.SilkS) (width 0.1))
  (fp_line (start 6.3283 0.2296) (end 5.8183 0.0798) (layer F.SilkS) (width 0.1))
  (fp_line (start 6.0065 -0.5654) (end 6.3073 -0.5654) (layer F.SilkS) (width 0.1))
  (fp_line (start 5.96 -0.2416) (end 6.5433 -0.07) (layer F.SilkS) (width 0.1))
  (fp_line (start 8.3548 -0.9013) (end 7.0995 -0.9013) (layer F.SilkS) (width 0.1))
  (fp_line (start 7.0995 -0.9013) (end 7.0995 0.9013) (layer F.SilkS) (width 0.1))
  (fp_line (start 7.0995 0.9013) (end 8.3548 0.9013) (layer F.SilkS) (width 0.1))
  (fp_line (start 8.3548 0.9013) (end 8.3548 0.545) (layer F.SilkS) (width 0.1))
  (fp_line (start 8.3548 0.545) (end 7.4822 0.545) (layer F.SilkS) (width 0.1))
  (fp_line (start 7.4822 0.545) (end 7.4822 0.1197) (layer F.SilkS) (width 0.1))
  (fp_line (start 7.4822 0.1197) (end 8.3037 0.1197) (layer F.SilkS) (width 0.1))
  (fp_line (start 8.3037 0.1197) (end 8.3037 -0.1911) (layer F.SilkS) (width 0.1))
  (fp_line (start 8.3037 -0.1911) (end 7.4822 -0.1911) (layer F.SilkS) (width 0.1))
  (fp_line (start 7.4822 -0.1911) (end 7.4822 -0.5654) (layer F.SilkS) (width 0.1))
  (fp_line (start 7.4822 -0.5654) (end 8.3548 -0.5654) (layer F.SilkS) (width 0.1))
  (fp_line (start 8.3548 -0.5654) (end 8.3548 -0.9013) (layer F.SilkS) (width 0.1))
)
