(module V23061-B1007-A401 (layer F.Cu) (tedit 583849FF)
  (fp_text reference REF** (at 0 0) (layer F.SilkS)
    (effects (font (size 0.7 0.7) (thickness 0.15)))
  )
  (fp_text value V23061-B1007-A401 (at 0 0.9) (layer F.Fab)
    (effects (font (size 0.5 0.5) (thickness 0.075)))
  )
  (fp_line (start 15.05 5) (end -15.05 5) (layer F.SilkS) (width 0.15))
  (fp_line (start -15.05 5) (end -15.05 -5) (layer F.SilkS) (width 0.15))
  (fp_line (start 15.05 -5) (end 15.05 5) (layer F.SilkS) (width 0.15))
  (fp_line (start -15.05 -5) (end 15.05 -5) (layer F.SilkS) (width 0.15))
  (fp_line (start 9.6 4.8) (end 10.6 4.8) (layer B.CrtYd) (width 0.1))
  (fp_line (start 9.6 2.6) (end 10.6 2.6) (layer B.CrtYd) (width 0.1))
  (fp_line (start 7.4 -2.6) (end 6.4 -2.6) (layer B.CrtYd) (width 0.1))
  (fp_line (start 6.4 -4.8) (end 7.4 -4.8) (layer B.CrtYd) (width 0.1))
  (fp_line (start 13.8 -2.6) (end 12.8 -2.6) (layer B.CrtYd) (width 0.1))
  (fp_line (start 12.8 -4.8) (end 13.8 -4.8) (layer B.CrtYd) (width 0.1))
  (fp_arc (start 10.6 3.7) (end 10.6 2.6) (angle 180) (layer B.CrtYd) (width 0.1))
  (fp_arc (start 9.6 3.7) (end 9.6 4.8) (angle 180) (layer B.CrtYd) (width 0.1))
  (fp_arc (start 13.8 -3.7) (end 13.8 -4.8) (angle 180) (layer B.CrtYd) (width 0.1))
  (fp_arc (start 12.8 -3.7) (end 12.8 -2.6) (angle 180) (layer B.CrtYd) (width 0.1))
  (fp_arc (start 7.4 -3.7) (end 7.4 -4.8) (angle 180) (layer B.CrtYd) (width 0.1))
  (fp_arc (start 6.4 -3.7) (end 6.4 -2.6) (angle 180) (layer B.CrtYd) (width 0.1))
  (fp_line (start -12.5 4.6) (end -11.7 4.6) (layer B.CrtYd) (width 0.1))
  (fp_line (start -11.7 2.8) (end -12.5 2.8) (layer B.CrtYd) (width 0.1))
  (fp_arc (start -11.7 3.7) (end -11.7 2.8) (angle 180) (layer B.CrtYd) (width 0.1))
  (fp_arc (start -12.5 3.7) (end -12.5 4.6) (angle 180) (layer B.CrtYd) (width 0.1))
  (fp_line (start -12.5 -2.8) (end -11.7 -2.8) (layer B.CrtYd) (width 0.1))
  (fp_line (start -12.5 -4.6) (end -11.7 -4.6) (layer B.CrtYd) (width 0.1))
  (fp_arc (start -11.7 -3.7) (end -11.7 -4.6) (angle 180) (layer B.CrtYd) (width 0.1))
  (fp_arc (start -12.5 -3.7) (end -12.5 -2.8) (angle 180) (layer B.CrtYd) (width 0.1))
  (fp_line (start 15.05 -5) (end 15.05 5) (layer F.CrtYd) (width 0.1))
  (fp_line (start 15.05 5) (end -15.05 5) (layer F.CrtYd) (width 0.1))
  (fp_line (start -15.05 5) (end -15.05 -5) (layer F.CrtYd) (width 0.1))
  (fp_line (start -15.05 -5) (end 15.05 -5) (layer F.CrtYd) (width 0.1))
  (fp_line (start 15 -4.95) (end -15 -4.95) (layer F.Fab) (width 0.05))
  (fp_line (start -15 4.95) (end 15 4.95) (layer F.Fab) (width 0.05))
  (fp_line (start 15 -4.95) (end 15 4.95) (layer F.Fab) (width 0.05))
  (fp_line (start -15 -4.95) (end -15 4.95) (layer F.Fab) (width 0.05))
  (pad 1 thru_hole oval (at -12.1 -3.7) (size 2.4 1.6) (drill 0.8) (layers *.Cu *.Mask F.SilkS))
  (pad 2 thru_hole oval (at -12.1 3.7) (size 2.4 1.6) (drill 0.8) (layers *.Cu *.Mask F.SilkS))
  (pad 5 thru_hole oval (at 6.9 -3.7) (size 3 2) (drill 1.1) (layers *.Cu *.Mask F.SilkS))
  (pad 3 thru_hole oval (at 10.1 3.7) (size 3 2) (drill 1.1) (layers *.Cu *.Mask F.SilkS))
  (pad 4 thru_hole oval (at 13.3 -3.7) (size 3 2) (drill 1.1) (layers *.Cu *.Mask F.SilkS))
)
