(footprint "MLCC_0603" (version 20211014) (generator pcbnew)
  (layer "F.Cu")
  (tedit 61E2E936)
  (descr "Multilayer ceramic capacitor, classic 0603 footprint")
  (tags "C 0603")
  (autoplace_cost90 10)
  (autoplace_cost180 10)
  (attr smd)
  (fp_text reference "REF**" (at -1.175 0 90) (layer "F.SilkS")
    (effects (font (size 0.5 0.5) (thickness 0.12)))
    (tstamp a690fc6c-55d9-47e6-b533-faa4b67e20f3)
  )
  (fp_text value "MLCC_0603" (at 0 0 90) (layer "F.Fab")
    (effects (font (size 0.28 0.28) (thickness 0.05)))
    (tstamp c144caa5-b0d4-4cef-840a-d4ad178a2102)
  )
  (fp_line (start -0.58 -1.175) (end 0.58 -1.175) (layer "F.SilkS") (width 0.12) (tstamp 127679a9-3981-4934-815e-896a4e3ff56e))
  (fp_line (start 0.58 -1.175) (end 0.58 -0.675) (layer "F.SilkS") (width 0.12) (tstamp 48ab88d7-7084-4d02-b109-3ad55a30bb11))
  (fp_line (start -0.58 1.175) (end 0.58 1.175) (layer "F.SilkS") (width 0.12) (tstamp 6a45789b-3855-401f-8139-3c734f7f52f9))
  (fp_line (start -0.58 0.675) (end -0.58 1.175) (layer "F.SilkS") (width 0.12) (tstamp 6c9b793c-e74d-4754-a2c0-901e73b26f1c))
  (fp_line (start -0.58 -1.175) (end -0.58 -0.675) (layer "F.SilkS") (width 0.12) (tstamp 716e31c5-485f-40b5-88e3-a75900da9811))
  (fp_line (start 0.58 1.175) (end 0.58 0.675) (layer "F.SilkS") (width 0.12) (tstamp b1086f75-01ba-4188-8d36-75a9e2828ca9))
  (fp_rect (start -0.5 -1.1) (end 0.5 1.1) (layer "F.CrtYd") (width 0.01) (fill none) (tstamp daba0f73-1e08-4d76-8c87-1e91e114c8cb))
  (fp_line (start -0.425 0.775) (end 0.425 0.775) (layer "F.Fab") (width 0.01) (tstamp 0eaa98f0-9565-4637-ace3-42a5231b07f7))
  (fp_line (start -0.425 -0.775) (end 0.425 -0.775) (layer "F.Fab") (width 0.01) (tstamp 181abe7a-f941-42b6-bd46-aaa3131f90fb))
  (fp_line (start -0.425 -0.475) (end -0.35 -0.475) (layer "F.Fab") (width 0.01) (tstamp 704d6d51-bb34-4cbf-83d8-841e208048d8))
  (fp_line (start 0.425 -0.475) (end 0.35 -0.475) (layer "F.Fab") (width 0.01) (tstamp 8174b4de-74b1-48db-ab8e-c8432251095b))
  (fp_line (start -0.425 -0.775) (end -0.425 0.775) (layer "F.Fab") (width 0.01) (tstamp c41b3c8b-634e-435a-b582-96b83bbd4032))
  (fp_line (start 0.425 -0.775) (end 0.425 0.775) (layer "F.Fab") (width 0.01) (tstamp ce83728b-bebd-48c2-8734-b6a50d837931))
  (fp_line (start 0.425 0.475) (end 0.35 0.475) (layer "F.Fab") (width 0.01) (tstamp f71da641-16e6-4257-80c3-0b9d804fee4f))
  (fp_line (start -0.425 0.475) (end -0.35 0.475) (layer "F.Fab") (width 0.01) (tstamp fd470e95-4861-44fe-b1e4-6d8a7c66e144))
  (pad "1" smd roundrect (at 0 -0.725) (size 0.95 0.7) (layers "F.Cu" "F.Paste" "F.Mask") (roundrect_rratio 0.1)
    (solder_paste_margin -0.05) (tstamp efeac2a2-7682-4dc7-83ee-f6f1b23da506))
  (pad "2" smd roundrect (at 0 0.725) (size 0.95 0.7) (layers "F.Cu" "F.Paste" "F.Mask") (roundrect_rratio 0.1)
    (solder_paste_margin -0.05) (tstamp 5fc27c35-3e1c-4f96-817c-93b5570858a6))
  (model "${MY_3DOBJECT}/Generic/SMD_0603_C.STEP"
    (offset (xyz 0 0 0))
    (scale (xyz 1 1 1))
    (rotate (xyz 0 0 -90))
  )
)
