(footprint "TAN_3216" (version 20211014) (generator pcbnew)
  (layer "F.Cu")
  (tedit 0)
  (descr "Tantalum capacitor, classic 3216 footprint, case A")
  (tags "C 3216 Case-A")
  (autoplace_cost90 10)
  (autoplace_cost180 10)
  (attr smd)
  (fp_text reference "REF**" (at -1.6 0 90 unlocked) (layer "F.SilkS")
    (effects (font (size 0.6 0.6) (thickness 0.15)))
    (tstamp c3d355e2-5a2e-4900-90d5-2140e7b8830b)
  )
  (fp_text value "TAN_3216" (at 0 0 90 unlocked) (layer "F.Fab")
    (effects (font (size 0.28 0.28) (thickness 0.05)))
    (tstamp e3961296-b4c5-459d-a7b6-a37ca9fc9b04)
  )
  (fp_text user "Model: www.3dcontentcentral.com by Vladislav Sagunov" (at 1.1 0 90) (layer "Cmts.User") hide
    (effects (font (size 0.08 0.08) (thickness 0.01)))
    (tstamp d63b32b0-907f-42de-9478-0d4948991aa6)
  )
  (fp_line (start -0.9 -1.2) (end -0.9 1.6) (layer "F.SilkS") (width 0.12) (tstamp 25c97741-d0da-4efc-a99f-bd32e98fef10))
  (fp_line (start -1 -1.5) (end -1 -1.9) (layer "F.SilkS") (width 0.12) (tstamp 3ca9ce70-655c-4b2f-bb51-a75d4fcfb275))
  (fp_line (start -0.8 -1.7) (end -1.2 -1.7) (layer "F.SilkS") (width 0.12) (tstamp 92f759df-e7f5-4cd6-b760-c1a61545e330))
  (fp_line (start 0.9 1.6) (end 0.9 -1.6) (layer "F.SilkS") (width 0.12) (tstamp e7ea2ad9-9842-46b4-b0c6-448b93eaa4d0))
  (fp_rect (start -0.6 0.7) (end 0.6 1.6) (layer "Dwgs.User") (width 0.01) (fill none) (tstamp 003769a2-1c9b-453d-a885-fc8bd30eea19))
  (fp_rect (start -0.6 -1.6) (end 0.6 -0.7) (layer "Dwgs.User") (width 0.01) (fill none) (tstamp 9680b06e-8bd5-49a6-9f23-ef9a640c5e60))
  (fp_rect (start -0.65 -0.55) (end 0.65 0.55) (layer "Dwgs.User") (width 0.01) (fill none) (tstamp b0cdfefb-6573-4f05-8ff9-3d77beb0003f))
  (fp_poly (pts
      (xy 0.7 -1.55)
      (xy 0.85 -1.55)
      (xy 0.85 1.55)
      (xy 0.7 1.55)
      (xy 0.7 2.05)
      (xy -0.7 2.05)
      (xy -0.7 1.55)
      (xy -0.85 1.55)
      (xy -0.85 -1.55)
      (xy -0.7 -1.55)
      (xy -0.7 -2.05)
      (xy 0.7 -2.05)
    ) (layer "F.CrtYd") (width 0.01) (fill none) (tstamp 50e375c4-e710-45d7-9f12-67035b7382c7))
  (fp_line (start 0.6 -1.6) (end 0.6 -1.5) (layer "F.Fab") (width 0.01) (tstamp 20cf0c08-e332-4a8c-b3c4-79dc756d878b))
  (fp_line (start 0.6 1.6) (end -0.6 1.6) (layer "F.Fab") (width 0.01) (tstamp 43cc368e-4915-491d-a959-587ee1a58f20))
  (fp_line (start 0.6 1.5) (end 0.6 1.6) (layer "F.Fab") (width 0.01) (tstamp 531073ef-6d5c-421e-b8f5-49e402c33432))
  (fp_line (start -0.6 -1.6) (end 0.6 -1.6) (layer "F.Fab") (width 0.01) (tstamp 6a48d0b8-0f65-4f63-bab3-30726f0b768c))
  (fp_line (start -0.6 -1.5) (end -0.6 -1.6) (layer "F.Fab") (width 0.01) (tstamp 99ad4273-f643-44c1-b5af-850a553fee20))
  (fp_line (start -0.6 1.6) (end -0.6 1.5) (layer "F.Fab") (width 0.01) (tstamp 9bee20ca-f928-4382-a0a3-ea84cc6f7ab5))
  (fp_rect (start -0.8 -1.3) (end 0.8 -1.1) (layer "F.Fab") (width 0.01) (fill solid) (tstamp 543eca2b-0423-4325-b9e6-4b173022a60a))
  (fp_rect (start -0.8 -1.5) (end 0.8 1.5) (layer "F.Fab") (width 0.01) (fill none) (tstamp b594cf00-c46f-44a2-bd88-8d9301ac717c))
  (pad "1" smd roundrect (at 0 -1.3) (size 1.3 1.4) (layers "F.Cu" "F.Paste" "F.Mask") (roundrect_rratio 0.07692307692)
    (solder_paste_margin -0.05) (tstamp e4cfcdc3-a72b-4bc9-9839-3b7ced13c35a))
  (pad "2" smd roundrect (at 0 1.3) (size 1.3 1.4) (layers "F.Cu" "F.Paste" "F.Mask") (roundrect_rratio 0.07692307692)
    (solder_paste_margin -0.05) (tstamp f19d9769-1603-4d69-89b3-a18763e14ed0))
  (model "${MY_3DOBJECT}/Capacitor/TAN_3216-18_CaseA.step"
    (offset (xyz 0 0 0))
    (scale (xyz 1 1 1))
    (rotate (xyz -90 0 90))
  )
)
