(module THD_V6.3x11_2.5mm (layer F.Cu) (tedit 5C6409B9)
  (fp_text reference REF** (at 0 -4.05) (layer F.SilkS)
    (effects (font (size 0.7 0.7) (thickness 0.15)))
  )
  (fp_text value THD_V6.3x11_2.5mm (at 0 3.9) (layer F.Fab)
    (effects (font (size 0.4 0.4) (thickness 0.075)))
  )
  (fp_circle (center 0 0) (end 3.15 0) (layer F.Fab) (width 0.05))
  (fp_circle (center 0 0) (end 0 -3.26) (layer F.SilkS) (width 0.15))
  (fp_arc (start 1.25 -0.3) (end 1.95 -0.3) (angle -180) (layer F.SilkS) (width 0.15))
  (fp_arc (start 1.25 0.3) (end 0.55 0.3) (angle -180) (layer F.SilkS) (width 0.15))
  (fp_line (start 1.95 0.3) (end 1.95 -0.3) (layer F.SilkS) (width 0.15))
  (fp_line (start 0.55 -0.3) (end 0.55 0.3) (layer F.SilkS) (width 0.15))
  (fp_poly (pts (xy 0 -3.25) (xy 0 0) (xy 0.55 0) (xy 0.55 -0.35)
    (xy 0.65 -0.65) (xy 0.85 -0.85) (xy 1.15 -1) (xy 1.35 -1)
    (xy 1.6 -0.9) (xy 1.85 -0.7) (xy 1.95 -0.35) (xy 1.95 0.4)
    (xy 1.85 0.65) (xy 1.7 0.85) (xy 1.45 1) (xy 1.2 1)
    (xy 0.95 0.95) (xy 0.75 0.8) (xy 0.6 0.6) (xy 0.55 0.35)
    (xy 0.55 0) (xy 0 0) (xy 0 3.25) (xy 0.6 3.2)
    (xy 1.15 3.05) (xy 1.7 2.8) (xy 2.15 2.45) (xy 2.5 2.1)
    (xy 2.75 1.75) (xy 2.95 1.4) (xy 3.15 0.85) (xy 3.25 0.35)
    (xy 3.25 -0.35) (xy 3.2 -0.7) (xy 3 -1.3) (xy 2.7 -1.85)
    (xy 2.4 -2.2) (xy 1.9 -2.65) (xy 1.45 -2.9) (xy 0.9 -3.15)
    (xy 0.4 -3.25)) (layer F.SilkS) (width 0.001))
  (fp_circle (center 0 0) (end 0 -3.39) (layer F.CrtYd) (width 0.1))
  (fp_arc (start -1.25 -0.3) (end -0.6 -0.3) (angle -180) (layer B.CrtYd) (width 0.1))
  (fp_arc (start -1.25 0.3) (end -1.9 0.3) (angle -180) (layer B.CrtYd) (width 0.1))
  (fp_line (start -0.6 -0.3) (end -0.6 0.3) (layer B.CrtYd) (width 0.1))
  (fp_line (start -1.9 -0.3) (end -1.9 0.3) (layer B.CrtYd) (width 0.1))
  (fp_arc (start 1.25 -0.3) (end 1.9 -0.3) (angle -180) (layer B.CrtYd) (width 0.1))
  (fp_arc (start 1.25 0.3) (end 0.6 0.3) (angle -180) (layer B.CrtYd) (width 0.1))
  (fp_line (start 1.9 -0.3) (end 1.9 0.3) (layer B.CrtYd) (width 0.1))
  (fp_line (start 0.6 -0.3) (end 0.6 0.3) (layer B.CrtYd) (width 0.1))
  (pad 1 thru_hole oval (at -1.25 0) (size 1 1.6) (drill 0.6) (layers *.Cu *.Mask)
    (solder_mask_margin 0.1))
  (pad 2 thru_hole oval (at 1.25 0) (size 1 1.6) (drill 0.6) (layers *.Cu *.Mask)
    (solder_mask_margin 0.1))
  (model ${MY3DMOD}/CAPACITOR_THD_V6-3x11-2-5mm.step
    (offset (xyz 0 0 0.15))
    (scale (xyz 1 1 1))
    (rotate (xyz 0 0 0))
  )
)
