(module EVQ_Series (layer F.Cu) (tedit 5C113463)
  (descr http://www.farnell.com/datasheets/2244376.pdf)
  (tags "tactile switch")
  (attr smd)
  (fp_text reference REF** (at 0 0) (layer F.SilkS)
    (effects (font (size 0.7 0.7) (thickness 0.15)))
  )
  (fp_text value EVQ_Series (at 0 2.025) (layer F.Fab)
    (effects (font (size 0.4 0.4) (thickness 0.075)))
  )
  (fp_line (start -2.45 -2.45) (end 2.45 -2.45) (layer F.Fab) (width 0.05))
  (fp_line (start 2.45 -2.45) (end 2.45 2.45) (layer F.Fab) (width 0.05))
  (fp_line (start 2.45 2.45) (end -2.45 2.45) (layer F.Fab) (width 0.05))
  (fp_line (start -2.45 2.45) (end -2.45 -2.45) (layer F.Fab) (width 0.05))
  (fp_circle (center 0 0) (end 0 -1.2) (layer F.Fab) (width 0.05))
  (fp_line (start -2.1 -2.45) (end -2.1 -2.575) (layer F.Fab) (width 0.05))
  (fp_line (start -1.6 -2.45) (end -1.6 -2.575) (layer F.Fab) (width 0.05))
  (fp_line (start -2.1 -2.575) (end -1.6 -2.575) (layer F.Fab) (width 0.05))
  (fp_line (start 1.6 -2.45) (end 1.6 -2.575) (layer F.Fab) (width 0.05))
  (fp_line (start 2.1 -2.45) (end 2.1 -2.575) (layer F.Fab) (width 0.05))
  (fp_line (start 1.6 -2.575) (end 2.1 -2.575) (layer F.Fab) (width 0.05))
  (fp_line (start -2.1 2.575) (end -2.1 2.45) (layer F.Fab) (width 0.05))
  (fp_line (start -1.6 2.575) (end -1.6 2.45) (layer F.Fab) (width 0.05))
  (fp_line (start -2.1 2.575) (end -1.6 2.575) (layer F.Fab) (width 0.05))
  (fp_line (start 1.6 2.45) (end 1.6 2.575) (layer F.Fab) (width 0.05))
  (fp_line (start 2.1 2.45) (end 2.1 2.575) (layer F.Fab) (width 0.05))
  (fp_line (start 1.6 2.575) (end 2.1 2.575) (layer F.Fab) (width 0.05))
  (fp_line (start -1.25 -2.55) (end 1.25 -2.55) (layer F.SilkS) (width 0.15))
  (fp_line (start 2.475 -2.55) (end 2.55 -2.55) (layer F.SilkS) (width 0.15))
  (fp_line (start 2.55 -2.55) (end 2.55 2.55) (layer F.SilkS) (width 0.15))
  (fp_line (start 2.55 2.55) (end 2.45 2.55) (layer F.SilkS) (width 0.15))
  (fp_line (start 1.25 2.55) (end -1.25 2.55) (layer F.SilkS) (width 0.15))
  (fp_line (start -2.45 2.55) (end -2.55 2.55) (layer F.SilkS) (width 0.15))
  (fp_line (start -2.55 2.55) (end -2.55 -2.55) (layer F.SilkS) (width 0.15))
  (fp_line (start -2.55 -2.55) (end -2.45 -2.55) (layer F.SilkS) (width 0.15))
  (fp_line (start -2.675 -2.75) (end 2.675 -2.75) (layer F.CrtYd) (width 0.1))
  (fp_line (start 2.675 -2.75) (end 2.675 2.75) (layer F.CrtYd) (width 0.1))
  (fp_line (start 2.675 2.75) (end -2.675 2.75) (layer F.CrtYd) (width 0.1))
  (fp_line (start -2.675 2.75) (end -2.675 -2.75) (layer F.CrtYd) (width 0.1))
  (pad 1 smd roundrect (at -1.85 -2.2) (size 0.6 1) (layers F.Cu F.Paste F.Mask) (roundrect_rratio 0.1)
    (solder_mask_margin 0.05) (solder_paste_margin -0.075) (clearance 0.1))
  (pad 2 smd roundrect (at -1.85 2.2) (size 0.6 1) (layers F.Cu F.Paste F.Mask) (roundrect_rratio 0.1)
    (solder_mask_margin 0.05) (solder_paste_margin -0.075) (clearance 0.1))
  (pad 3 smd roundrect (at 1.85 2.2) (size 0.6 1) (layers F.Cu F.Paste F.Mask) (roundrect_rratio 0.1)
    (solder_mask_margin 0.05) (solder_paste_margin -0.075) (clearance 0.1))
  (pad 4 smd roundrect (at 1.85 -2.2) (size 0.6 1) (layers F.Cu F.Paste F.Mask) (roundrect_rratio 0.1)
    (solder_mask_margin 0.05) (solder_paste_margin -0.075) (clearance 0.1))
)
