(module MSxxASx40 (layer F.Cu) (tedit 5C13E2F1)
  (fp_text reference REF** (at 0 6.096) (layer F.SilkS)
    (effects (font (size 0.7 0.7) (thickness 0.15)))
  )
  (fp_text value MSxxASx40 (at 0 6.985) (layer F.Fab)
    (effects (font (size 0.4 0.4) (thickness 0.075)))
  )
  (fp_line (start -3.302 10.16) (end 3.302 10.16) (layer F.Fab) (width 0.05))
  (fp_line (start -3.302 3.81) (end 3.302 3.81) (layer F.Fab) (width 0.05))
  (fp_line (start -3.302 10.16) (end -3.302 3.81) (layer F.Fab) (width 0.05))
  (fp_line (start 3.302 10.16) (end 3.302 3.81) (layer F.Fab) (width 0.05))
  (fp_line (start -3.302 9.652) (end -3.81 9.652) (layer F.Fab) (width 0.05))
  (fp_line (start -3.81 9.652) (end -3.81 4.318) (layer F.Fab) (width 0.05))
  (fp_line (start -3.81 4.318) (end -3.302 4.318) (layer F.Fab) (width 0.05))
  (fp_line (start -0.635 3.175) (end -0.635 -8.001) (layer F.Fab) (width 0.05))
  (fp_line (start 0.635 -8.001) (end 0.635 3.175) (layer F.Fab) (width 0.05))
  (fp_line (start -0.635 -8.001) (end 0.635 -8.001) (layer F.Fab) (width 0.05))
  (fp_arc (start 1.016 3.175) (end 0.635 3.175) (angle -90) (layer F.Fab) (width 0.05))
  (fp_arc (start -1.016 3.175) (end -1.016 3.556) (angle -90) (layer F.Fab) (width 0.05))
  (fp_arc (start 1.27 3.81) (end 1.524 3.81) (angle -90) (layer F.Fab) (width 0.05))
  (fp_arc (start -1.27 3.81) (end -1.27 3.556) (angle -90) (layer F.Fab) (width 0.05))
  (fp_line (start -1.27 3.556) (end -1.016 3.556) (layer F.Fab) (width 0.05))
  (fp_line (start 1.016 3.556) (end 1.27 3.556) (layer F.Fab) (width 0.05))
  (fp_line (start -1.905 10.16) (end -1.905 15.24) (layer F.Fab) (width 0.05))
  (fp_line (start 1.905 10.16) (end 1.905 15.24) (layer F.Fab) (width 0.05))
  (fp_line (start -1.905 15.24) (end 1.905 15.24) (layer F.Fab) (width 0.05))
  (fp_line (start -1.778 15.113) (end 1.778 15.113) (layer F.Fab) (width 0.05))
  (fp_line (start -1.778 14.986) (end 1.778 14.986) (layer F.Fab) (width 0.05))
  (fp_line (start -1.778 14.859) (end 1.778 14.859) (layer F.Fab) (width 0.05))
  (fp_line (start -1.778 14.605) (end 1.778 14.605) (layer F.Fab) (width 0.05))
  (fp_line (start -1.778 14.351) (end 1.778 14.351) (layer F.Fab) (width 0.05))
  (fp_line (start -1.778 13.97) (end 1.778 13.97) (layer F.Fab) (width 0.05))
  (fp_line (start -3.429 3.683) (end 3.429 3.683) (layer F.SilkS) (width 0.15))
  (fp_line (start 3.429 3.683) (end 3.429 9.271) (layer F.SilkS) (width 0.15))
  (fp_line (start -3.429 3.683) (end -3.429 9.271) (layer F.SilkS) (width 0.15))
  (fp_line (start -0.762 -2.54) (end -0.762 -1.27) (layer F.CrtYd) (width 0.1))
  (fp_line (start 0.762 -2.54) (end 0.762 -1.27) (layer F.CrtYd) (width 0.1))
  (fp_line (start -0.762 -6.35) (end -0.762 -5.08) (layer F.CrtYd) (width 0.1))
  (fp_line (start 0.762 -6.35) (end 0.762 -5.08) (layer F.CrtYd) (width 0.1))
  (fp_arc (start 0 -7.62) (end 0.761999 -6.350001) (angle -298.0724869) (layer F.CrtYd) (width 0.1))
  (fp_arc (start 0 -3.81) (end -0.761999 -5.079999) (angle -118.0724869) (layer F.CrtYd) (width 0.1))
  (fp_arc (start 0 -3.81) (end 0.761999 -2.540001) (angle -118.0724869) (layer F.CrtYd) (width 0.1))
  (fp_line (start -0.762 1.27) (end -0.762 3.175) (layer F.CrtYd) (width 0.1))
  (fp_line (start 0.762 1.27) (end 0.762 3.175) (layer F.CrtYd) (width 0.1))
  (fp_line (start 1.524 3.556) (end 3.556 3.556) (layer F.CrtYd) (width 0.1))
  (fp_line (start 3.556 3.556) (end 3.556 9.2075) (layer F.CrtYd) (width 0.1))
  (fp_line (start -1.524 3.556) (end -3.937 3.556) (layer F.CrtYd) (width 0.1))
  (fp_line (start -3.937 3.556) (end -3.937 10.16) (layer F.CrtYd) (width 0.1))
  (fp_arc (start -2.54 10.16) (end -3.937 10.16) (angle -90) (layer F.CrtYd) (width 0.1))
  (fp_line (start 2.032 11.557) (end 2.54 11.557) (layer F.CrtYd) (width 0.1))
  (fp_arc (start 2.54 10.16) (end 2.54 11.557) (angle -133.1523804) (layer F.CrtYd) (width 0.1))
  (fp_line (start -2.54 11.557) (end -2.032 11.557) (layer F.CrtYd) (width 0.1))
  (fp_line (start -2.032 11.557) (end -2.032 15.367) (layer F.CrtYd) (width 0.1))
  (fp_line (start -2.032 15.367) (end 2.032 15.367) (layer F.CrtYd) (width 0.1))
  (fp_line (start 2.032 15.367) (end 2.032 11.557) (layer F.CrtYd) (width 0.1))
  (fp_arc (start -1.016 3.175) (end -1.016 3.429) (angle -90) (layer F.CrtYd) (width 0.1))
  (fp_arc (start -1.397 3.556) (end -1.397 3.429) (angle -90) (layer F.CrtYd) (width 0.1))
  (fp_arc (start 1.016 3.175) (end 0.762 3.175) (angle -90) (layer F.CrtYd) (width 0.1))
  (fp_arc (start 1.397 3.556) (end 1.524 3.556) (angle -90) (layer F.CrtYd) (width 0.1))
  (fp_line (start 1.397 3.429) (end 1.016 3.429) (layer F.CrtYd) (width 0.1))
  (fp_line (start -1.397 3.429) (end -1.016 3.429) (layer F.CrtYd) (width 0.1))
  (fp_arc (start 0 0) (end 0.761999 1.269999) (angle -118.0724869) (layer F.CrtYd) (width 0.1))
  (fp_arc (start 0 0) (end -0.761999 -1.269999) (angle -118.0724869) (layer F.CrtYd) (width 0.1))
  (fp_circle (center 0 0) (end -0.762 -1.27) (layer B.CrtYd) (width 0.1))
  (fp_circle (center 0 -3.81) (end -0.762 -5.08) (layer B.CrtYd) (width 0.1))
  (fp_circle (center 0 -7.62) (end -0.762 -6.35) (layer B.CrtYd) (width 0.1))
  (fp_arc (start 2.54 10.16) (end 2.54 11.303) (angle -180) (layer B.CrtYd) (width 0.1))
  (fp_arc (start 1.905 10.16) (end 1.905 9.017) (angle -180) (layer B.CrtYd) (width 0.1))
  (fp_line (start 2.54 11.303) (end 1.905 11.303) (layer B.CrtYd) (width 0.1))
  (fp_line (start 1.905 9.017) (end 2.54 9.017) (layer B.CrtYd) (width 0.1))
  (fp_arc (start -1.905 10.16) (end -1.905 11.303) (angle -180) (layer B.CrtYd) (width 0.1))
  (fp_arc (start -2.54 10.16) (end -2.54 9.017) (angle -180) (layer B.CrtYd) (width 0.1))
  (fp_line (start -2.54 11.303) (end -1.905 11.303) (layer B.CrtYd) (width 0.1))
  (fp_line (start -1.905 9.017) (end -2.54 9.017) (layer B.CrtYd) (width 0.1))
  (fp_line (start -0.508 3.683) (end -0.508 1.651) (layer F.SilkS) (width 0.15))
  (fp_line (start 0.508 1.651) (end 0.508 3.683) (layer F.SilkS) (width 0.15))
  (fp_line (start -0.508 -2.159) (end -0.508 -1.651) (layer F.SilkS) (width 0.15))
  (fp_line (start 0.508 -2.159) (end 0.508 -1.651) (layer F.SilkS) (width 0.15))
  (fp_line (start -0.508 -5.969) (end -0.508 -5.461) (layer F.SilkS) (width 0.15))
  (fp_line (start 0.508 -5.969) (end 0.508 -5.461) (layer F.SilkS) (width 0.15))
  (fp_line (start -0.635 10.287) (end 0.635 10.287) (layer F.SilkS) (width 0.15))
  (pad 1 thru_hole circle (at 0 0) (size 2.6 2.6) (drill 1.6) (layers *.Cu *.Mask)
    (solder_mask_margin 0.05) (clearance 0.1))
  (pad 2 thru_hole circle (at 0 -3.81) (size 2.6 2.6) (drill 1.6) (layers *.Cu *.Mask)
    (solder_mask_margin 0.05) (clearance 0.1))
  (pad 3 thru_hole circle (at 0 -7.62) (size 2.6 2.6) (drill 1.6) (layers *.Cu *.Mask)
    (solder_mask_margin 0.05) (clearance 0.1))
  (pad 4 thru_hole oval (at -2.225 10.16) (size 2.6 2) (drill oval 1.6 1) (layers *.Cu *.Mask)
    (solder_mask_margin 0.05) (clearance 0.1))
  (pad 4 thru_hole oval (at 2.225 10.16) (size 2.6 2) (drill oval 1.6 1) (layers *.Cu *.Mask)
    (solder_mask_margin 0.05) (clearance 0.1))
)
