(module SLS121RA04 (layer F.Cu) (tedit 5C1231C1)
  (descr https://eu.mouser.com/datasheet/2/418/NG_CD_1825116_B3-660044.pdf)
  (tags switch)
  (fp_text reference REF** (at 0 -5.4) (layer F.SilkS)
    (effects (font (size 0.7 0.7) (thickness 0.15)))
  )
  (fp_text value SLS121RA04 (at 0 -3.9) (layer F.Fab)
    (effects (font (size 0.4 0.4) (thickness 0.075)))
  )
  (fp_line (start -5.5 -7.5) (end 5.5 -7.5) (layer F.Fab) (width 0.05))
  (fp_line (start -5.5 -7.5) (end -5.5 -2.6) (layer F.Fab) (width 0.05))
  (fp_line (start 5.5 -7.5) (end 5.5 -2.6) (layer F.Fab) (width 0.05))
  (fp_line (start -3.6 0) (end -3.6 -2.8) (layer F.Fab) (width 0.05))
  (fp_line (start -2.8 0) (end -2.8 -2.8) (layer F.Fab) (width 0.05))
  (fp_arc (start -3.2 0) (end -3.6 0) (angle -180) (layer F.Fab) (width 0.05))
  (fp_line (start -0.4 0) (end -0.4 -2.8) (layer F.Fab) (width 0.05))
  (fp_line (start 2.8 0) (end 2.8 -2.8) (layer F.Fab) (width 0.05))
  (fp_line (start 0.4 0) (end 0.4 -2.8) (layer F.Fab) (width 0.05))
  (fp_line (start 3.6 0) (end 3.6 -2.8) (layer F.Fab) (width 0.05))
  (fp_arc (start 0 0) (end -0.4 0) (angle -180) (layer F.Fab) (width 0.05))
  (fp_arc (start 3.2 0) (end 2.8 0) (angle -180) (layer F.Fab) (width 0.05))
  (fp_line (start 2.4 -2.8) (end 2.4 -2.1) (layer F.Fab) (width 0.05))
  (fp_line (start 2.4 -2.1) (end 1.8 -2.1) (layer F.Fab) (width 0.05))
  (fp_line (start 1.8 -2.1) (end 1.8 -2.8) (layer F.Fab) (width 0.05))
  (fp_line (start -2.4 -2.8) (end -2.4 -2.1) (layer F.Fab) (width 0.05))
  (fp_line (start -2.4 -2.1) (end -1.8 -2.1) (layer F.Fab) (width 0.05))
  (fp_line (start -1.8 -2.1) (end -1.8 -2.8) (layer F.Fab) (width 0.05))
  (fp_line (start -5.5 -2.6) (end -4 -2.6) (layer F.Fab) (width 0.05))
  (fp_line (start -4 -2.6) (end -4 -2.8) (layer F.Fab) (width 0.05))
  (fp_line (start -4 -2.8) (end -2.4 -2.8) (layer F.Fab) (width 0.05))
  (fp_line (start 5.5 -2.6) (end 4 -2.6) (layer F.Fab) (width 0.05))
  (fp_line (start 4 -2.6) (end 4 -2.8) (layer F.Fab) (width 0.05))
  (fp_line (start 4 -2.8) (end 2.4 -2.8) (layer F.Fab) (width 0.05))
  (fp_line (start -1.8 -2.8) (end 1.8 -2.8) (layer F.Fab) (width 0.05))
  (fp_line (start -3.2 -7.5) (end -3.2 -11.6) (layer F.Fab) (width 0.05))
  (fp_line (start 0.2 -11.6) (end 0.2 -7.5) (layer F.Fab) (width 0.05))
  (fp_line (start -2.3 -12.5) (end -3.2 -11.6) (layer F.Fab) (width 0.05))
  (fp_line (start -2.3 -12.5) (end -1.5 -11.7) (layer F.Fab) (width 0.05))
  (fp_line (start -1.5 -11.7) (end -0.7 -12.5) (layer F.Fab) (width 0.05))
  (fp_line (start -0.7 -12.5) (end 0.2 -11.6) (layer F.Fab) (width 0.05))
  (fp_line (start -5.5 -7.2) (end 5.5 -7.2) (layer F.Fab) (width 0.05))
  (fp_line (start -5.6 -2) (end 5.6 -2) (layer F.SilkS) (width 0.15))
  (fp_line (start 5.6 -2) (end 5.6 -7.45) (layer F.SilkS) (width 0.15))
  (fp_line (start -5.6 -2) (end -5.6 -7.45) (layer F.SilkS) (width 0.15))
  (fp_line (start -5.725 -12.575) (end -5.725 1.1) (layer F.CrtYd) (width 0.1))
  (fp_line (start -5.725 1.1) (end 5.725 1.1) (layer F.CrtYd) (width 0.1))
  (fp_line (start 5.725 1.1) (end 5.725 -12.575) (layer F.CrtYd) (width 0.1))
  (fp_line (start 5.725 -12.575) (end -5.725 -12.575) (layer F.CrtYd) (width 0.1))
  (fp_circle (center -3.2 0) (end -3.2 -1.1) (layer B.CrtYd) (width 0.1))
  (fp_circle (center 0 0) (end 0 -1.1) (layer B.CrtYd) (width 0.1))
  (fp_circle (center 3.2 0) (end 3.2 -1.1) (layer B.CrtYd) (width 0.1))
  (pad 1 thru_hole circle (at -3.2 0) (size 1.8 1.8) (drill 1.07) (layers *.Cu *.Mask)
    (solder_mask_margin 0.075) (clearance 0.15))
  (pad 2 thru_hole circle (at 0 0) (size 1.8 1.8) (drill 1.07) (layers *.Cu *.Mask)
    (solder_mask_margin 0.075) (clearance 0.15))
  (pad 3 thru_hole circle (at 3.2 0) (size 1.8 1.8) (drill 1.07) (layers *.Cu *.Mask)
    (solder_mask_margin 0.075) (clearance 0.15))
)
