(kicad_symbol_lib (version 20211014) (generator kicad_symbol_editor)
  (symbol "A4950" (in_bom yes) (on_board yes)
    (property "Reference" "U" (id 0) (at -5.08 8.255 0)
      (effects (font (size 1.016 1.016)) (justify left))
    )
    (property "Value" "A4950" (id 1) (at -5.08 6.985 0)
      (effects (font (size 0.762 0.762)) (justify left))
    )
    (property "Footprint" "IC:SOP-8N" (id 2) (at 0 1.27 90)
      (effects (font (size 0.381 0.381) italic) hide)
    )
    (property "Datasheet" "${MY_PDF}\\Motor control\\DC\\A4950.pdf" (id 3) (at -5.08 -8.255 0)
      (effects (font (size 0.381 0.381)) (justify left) hide)
    )
    (property "Name" "A4950" (id 4) (at -5.08 -6.985 0)
      (effects (font (size 0.381 0.381)) (justify left))
    )
    (property "Description" "Motor driver, 40V/3.5A, 6Ap" (id 5) (at -5.08 -7.62 0)
      (effects (font (size 0.381 0.381)) (justify left))
    )
    (property "ki_keywords" "motor driver" (id 6) (at 0 0 0)
      (effects (font (size 1.27 1.27)) hide)
    )
    (property "ki_description" "Full-Bridge DMOS PWM motor driver, 40V/3.5A, 6Ap" (id 7) (at 0 0 0)
      (effects (font (size 1.27 1.27)) hide)
    )
    (property "ki_fp_filters" "*SO*8*" (id 8) (at 0 0 0)
      (effects (font (size 1.27 1.27)) hide)
    )
    (symbol "A4950_0_1"
      (rectangle (start -5.08 6.35) (end 5.08 -6.35)
        (stroke (width 0) (type default) (color 0 0 0 0))
        (fill (type background))
      )
    )
    (symbol "A4950_1_1"
      (pin power_in line (at -7.62 -5.08 0) (length 2.54)
        (name "GND" (effects (font (size 0.762 0.762))))
        (number "1" (effects (font (size 0.762 0.762))))
      )
      (pin input line (at -7.62 2.54 0) (length 2.54)
        (name "IN2" (effects (font (size 0.762 0.762))))
        (number "2" (effects (font (size 0.762 0.762))))
      )
      (pin input line (at -7.62 5.08 0) (length 2.54)
        (name "IN1" (effects (font (size 0.762 0.762))))
        (number "3" (effects (font (size 0.762 0.762))))
      )
      (pin input line (at -7.62 0 0) (length 2.54)
        (name "Vref" (effects (font (size 0.762 0.762))))
        (number "4" (effects (font (size 0.762 0.762))))
      )
      (pin power_in line (at 7.62 5.08 180) (length 2.54)
        (name "Vcc" (effects (font (size 0.762 0.762))))
        (number "5" (effects (font (size 0.762 0.762))))
      )
      (pin bidirectional line (at 7.62 2.54 180) (length 2.54)
        (name "OUT1" (effects (font (size 0.762 0.762))))
        (number "6" (effects (font (size 0.762 0.762))))
      )
      (pin passive line (at 7.62 -2.54 180) (length 2.54)
        (name "Lss" (effects (font (size 0.762 0.762))))
        (number "7" (effects (font (size 0.762 0.762))))
      )
      (pin bidirectional line (at 7.62 0 180) (length 2.54)
        (name "OUT2" (effects (font (size 0.762 0.762))))
        (number "8" (effects (font (size 0.762 0.762))))
      )
      (pin passive line (at 7.62 -5.08 180) (length 2.54)
        (name "PAD" (effects (font (size 0.762 0.762))))
        (number "9" (effects (font (size 0.762 0.762))))
      )
    )
  )
  (symbol "A4952" (pin_names (offset 1.016)) (in_bom yes) (on_board yes)
    (property "Reference" "U" (id 0) (at -6.35 10.16 0)
      (effects (font (size 0.889 0.889)) (justify left))
    )
    (property "Value" "A4952" (id 1) (at -6.35 8.89 0)
      (effects (font (size 0.762 0.762)) (justify left))
    )
    (property "Footprint" "SMD:MSOP-10_0.5mm_TP" (id 2) (at 0 0 90)
      (effects (font (size 0.508 0.508) italic))
    )
    (property "Datasheet" "${MYPDF}/A4952-A4953.pdf" (id 3) (at -6.35 -11.43 0)
      (effects (font (size 0.508 0.508)) (justify left) hide)
    )
    (property "Name" "Allegro A4952" (id 4) (at -6.35 -8.89 0)
      (effects (font (size 0.635 0.635)) (justify left))
    )
    (property "Description" "Full-bridge DMOS motor driver" (id 5) (at -6.35 -10.16 0)
      (effects (font (size 0.508 0.508)) (justify left))
    )
    (property "ki_keywords" "allegro motor driver PWM" (id 6) (at 0 0 0)
      (effects (font (size 1.27 1.27)) hide)
    )
    (property "ki_description" "Full-bridge DMOS PWM motor driver, 40V/2A (5A peek)," (id 7) (at 0 0 0)
      (effects (font (size 1.27 1.27)) hide)
    )
    (property "ki_fp_filters" "*SOP-10*" (id 8) (at 0 0 0)
      (effects (font (size 1.27 1.27)) hide)
    )
    (symbol "A4952_0_1"
      (rectangle (start -6.35 7.62) (end 6.35 -7.62)
        (stroke (width 0) (type default) (color 0 0 0 0))
        (fill (type background))
      )
    )
    (symbol "A4952_1_1"
      (pin open_collector inverted (at -8.89 5.08 0) (length 2.54)
        (name "~{FLT}" (effects (font (size 0.762 0.762))))
        (number "1" (effects (font (size 0.762 0.762))))
      )
      (pin power_in line (at 8.89 -3.81 180) (length 2.54)
        (name "GND" (effects (font (size 0.762 0.762))))
        (number "10" (effects (font (size 0.762 0.762))))
      )
      (pin passive line (at 8.89 -6.35 180) (length 2.54)
        (name "PAD" (effects (font (size 0.762 0.762))))
        (number "11" (effects (font (size 0.762 0.762))))
      )
      (pin input line (at -8.89 2.54 0) (length 2.54)
        (name "RTRY" (effects (font (size 0.762 0.762))))
        (number "2" (effects (font (size 0.762 0.762))))
      )
      (pin input line (at -8.89 0 0) (length 2.54)
        (name "IN2" (effects (font (size 0.762 0.762))))
        (number "3" (effects (font (size 0.762 0.762))))
      )
      (pin input line (at -8.89 -2.54 0) (length 2.54)
        (name "IN1" (effects (font (size 0.762 0.762))))
        (number "4" (effects (font (size 0.762 0.762))))
      )
      (pin input line (at -8.89 -5.08 0) (length 2.54)
        (name "VREF" (effects (font (size 0.762 0.762))))
        (number "5" (effects (font (size 0.762 0.762))))
      )
      (pin power_in line (at 8.89 6.35 180) (length 2.54)
        (name "VCC" (effects (font (size 0.762 0.762))))
        (number "6" (effects (font (size 0.762 0.762))))
      )
      (pin bidirectional line (at 8.89 3.81 180) (length 2.54)
        (name "OUT1" (effects (font (size 0.762 0.762))))
        (number "7" (effects (font (size 0.762 0.762))))
      )
      (pin passive line (at 8.89 -1.27 180) (length 2.54)
        (name "LSS" (effects (font (size 0.762 0.762))))
        (number "8" (effects (font (size 0.762 0.762))))
      )
      (pin bidirectional line (at 8.89 1.27 180) (length 2.54)
        (name "OUT2" (effects (font (size 0.762 0.762))))
        (number "9" (effects (font (size 0.762 0.762))))
      )
    )
  )
)
