(kicad_symbol_lib (version 20211014) (generator kicad_symbol_editor)
  (symbol "SE82XX" (pin_names (offset 0.762)) (in_bom yes) (on_board yes)
    (property "Reference" "U" (id 0) (at -5.08 6.35 0)
      (effects (font (size 1.016 1.016)) (justify left))
    )
    (property "Value" "SE82XX" (id 1) (at -5.08 5.08 0)
      (effects (font (size 0.762 0.762)) (justify left))
    )
    (property "Footprint" "IC:SOT-23-3" (id 2) (at 0 0 0)
      (effects (font (size 0.381 0.381) italic))
    )
    (property "Datasheet" "${MY_PDF}\\Power\\LDO\\SE82XX.pdf" (id 3) (at -5.08 -6.35 0)
      (effects (font (size 0.381 0.381)) (justify left) hide)
    )
    (property "Name" "SE82XX" (id 4) (at -5.08 -5.08 0)
      (effects (font (size 0.381 0.381)) (justify left))
    )
    (property "Description" "LDO 30V/100mA" (id 5) (at -5.08 -5.715 0)
      (effects (font (size 0.381 0.381)) (justify left))
    )
    (property "ki_keywords" "linear LDO" (id 6) (at 0 0 0)
      (effects (font (size 1.27 1.27)) hide)
    )
    (property "ki_description" "Ultra-low quiescent current LDO, 30V/100mA" (id 7) (at 0 0 0)
      (effects (font (size 1.27 1.27)) hide)
    )
    (property "ki_fp_filters" "*SOT*23*" (id 8) (at 0 0 0)
      (effects (font (size 1.27 1.27)) hide)
    )
    (symbol "SE82XX_1_1"
      (rectangle (start -5.08 3.81) (end 5.08 -3.81)
        (stroke (width 0) (type default) (color 0 0 0 0))
        (fill (type background))
      )
      (pin passive line (at 7.62 -2.54 180) (length 2.54)
        (name "GND" (effects (font (size 0.762 0.762))))
        (number "1" (effects (font (size 0.762 0.762))))
      )
      (pin power_out line (at 7.62 2.54 180) (length 2.54)
        (name "Vout" (effects (font (size 0.762 0.762))))
        (number "2" (effects (font (size 0.762 0.762))))
      )
      (pin power_in line (at -7.62 2.54 0) (length 2.54)
        (name "Vin" (effects (font (size 0.762 0.762))))
        (number "3" (effects (font (size 0.762 0.762))))
      )
    )
  )
)
