(kicad_symbol_lib (version 20211014) (generator kicad_symbol_editor)
  (symbol "CH340N" (in_bom yes) (on_board yes)
    (property "Reference" "U" (id 0) (at -3.81 6.985 0)
      (effects (font (size 1.016 1.016)) (justify left))
    )
    (property "Value" "CH340N" (id 1) (at -3.81 5.715 0)
      (effects (font (size 0.762 0.762)) (justify left))
    )
    (property "Footprint" "IC:SOP-8N" (id 2) (at 0 0 90)
      (effects (font (size 0.381 0.381) italic))
    )
    (property "Datasheet" "${MY_DATASHEET}\\Interface\\USB-UART\\CH340_3A.pdf" (id 3) (at -3.81 -6.985 0)
      (effects (font (size 0.381 0.381)) (justify left) hide)
    )
    (property "Name" "CH340N" (id 4) (at -3.81 -5.715 0)
      (effects (font (size 0.381 0.381)) (justify left))
    )
    (property "Description" "USB-UART interface" (id 5) (at -3.81 -6.35 0)
      (effects (font (size 0.381 0.381)) (justify left))
    )
    (property "ki_keywords" "usb uart interface" (id 6) (at 0 0 0)
      (effects (font (size 1.27 1.27)) hide)
    )
    (property "ki_description" "USB-UART interface" (id 7) (at 0 0 0)
      (effects (font (size 1.27 1.27)) hide)
    )
    (property "ki_fp_filters" "*SOP*8*" (id 8) (at 0 0 0)
      (effects (font (size 1.27 1.27)) hide)
    )
    (symbol "CH340N_0_1"
      (rectangle (start -3.81 5.08) (end 3.81 -5.08)
        (stroke (width 0) (type default) (color 0 0 0 0))
        (fill (type background))
      )
    )
    (symbol "CH340N_1_1"
      (pin bidirectional line (at 6.35 1.27 180) (length 2.54)
        (name "D+" (effects (font (size 0.762 0.762))))
        (number "1" (effects (font (size 0.762 0.762))))
      )
      (pin bidirectional line (at 6.35 -1.27 180) (length 2.54)
        (name "D-" (effects (font (size 0.762 0.762))))
        (number "2" (effects (font (size 0.762 0.762))))
      )
      (pin power_in line (at 6.35 -3.81 180) (length 2.54)
        (name "GND" (effects (font (size 0.762 0.762))))
        (number "3" (effects (font (size 0.762 0.762))))
      )
      (pin input line (at -6.35 -3.81 0) (length 2.54)
        (name "RTS#" (effects (font (size 0.762 0.762))))
        (number "4" (effects (font (size 0.762 0.762))))
      )
      (pin power_in line (at 6.35 3.81 180) (length 2.54)
        (name "Vcc" (effects (font (size 0.762 0.762))))
        (number "5" (effects (font (size 0.762 0.762))))
      )
      (pin output line (at -6.35 1.27 0) (length 2.54)
        (name "TXD" (effects (font (size 0.762 0.762))))
        (number "6" (effects (font (size 0.762 0.762))))
      )
      (pin input line (at -6.35 -1.27 0) (length 2.54)
        (name "RXD" (effects (font (size 0.762 0.762))))
        (number "7" (effects (font (size 0.762 0.762))))
      )
      (pin passive line (at -6.35 3.81 0) (length 2.54)
        (name "V3" (effects (font (size 0.762 0.762))))
        (number "8" (effects (font (size 0.762 0.762))))
      )
    )
  )
)
