(module BGA-64_5x5_0.5mm (layer F.Cu) (tedit 5F564ABE)
  (descr "64pin BGA, 0.5mm pin pitch, 5x5mm package")
  (tags "bga 64")
  (solder_mask_margin 0.045)
  (solder_paste_margin -0.04225)
  (clearance 0.06)
  (zone_connect 1)
  (attr smd)
  (fp_text reference REF** (at 0 -3) (layer F.SilkS)
    (effects (font (size 0.6 0.6) (thickness 0.15)))
  )
  (fp_text value BGA-64_5x5_0.5mm (at 0 2.3) (layer F.Fab)
    (effects (font (size 0.25 0.25) (thickness 0.05)))
  )
  (fp_line (start -2.5 -2.5) (end 2.5 -2.5) (layer F.Fab) (width 0.01))
  (fp_line (start 2.5 -2.5) (end 2.5 2.5) (layer F.Fab) (width 0.01))
  (fp_line (start 2.5 2.5) (end -2.5 2.5) (layer F.Fab) (width 0.01))
  (fp_line (start -2.5 2.5) (end -2.5 -2.5) (layer F.Fab) (width 0.01))
  (fp_line (start 2.075 -2.575) (end 2.575 -2.575) (layer F.SilkS) (width 0.15))
  (fp_line (start 2.575 -2.575) (end 2.575 -2.075) (layer F.SilkS) (width 0.15))
  (fp_line (start 2.575 2.075) (end 2.575 2.575) (layer F.SilkS) (width 0.15))
  (fp_line (start 2.575 2.575) (end 2.075 2.575) (layer F.SilkS) (width 0.15))
  (fp_line (start -2.575 2.575) (end -2.575 2.075) (layer F.SilkS) (width 0.15))
  (fp_line (start -2.075 2.575) (end -2.575 2.575) (layer F.SilkS) (width 0.15))
  (fp_circle (center -2.4 -2.4) (end -2.3 -2.4) (layer F.SilkS) (width 0.3))
  (fp_line (start -2.65 2.65) (end 2.65 2.65) (layer F.CrtYd) (width 0.01))
  (fp_line (start 2.65 2.65) (end 2.65 -2.65) (layer F.CrtYd) (width 0.01))
  (fp_line (start 2.65 -2.65) (end -2.65 -2.65) (layer F.CrtYd) (width 0.01))
  (fp_line (start -2.65 -2.65) (end -2.65 2.65) (layer F.CrtYd) (width 0.01))
  (fp_circle (center -1.75 -1.75) (end -1.61 -1.75) (layer F.Fab) (width 0.01))
  (fp_circle (center -1.75 -1.25) (end -1.61 -1.25) (layer F.Fab) (width 0.01))
  (fp_circle (center -1.75 -0.75) (end -1.61 -0.75) (layer F.Fab) (width 0.01))
  (fp_circle (center -1.75 -0.25) (end -1.61 -0.25) (layer F.Fab) (width 0.01))
  (fp_circle (center -1.75 0.25) (end -1.61 0.25) (layer F.Fab) (width 0.01))
  (fp_circle (center -1.75 0.75) (end -1.61 0.75) (layer F.Fab) (width 0.01))
  (fp_circle (center -1.75 1.25) (end -1.61 1.25) (layer F.Fab) (width 0.01))
  (fp_circle (center -1.75 1.75) (end -1.61 1.75) (layer F.Fab) (width 0.01))
  (fp_circle (center -1.25 -1.75) (end -1.11 -1.75) (layer F.Fab) (width 0.01))
  (fp_circle (center -1.25 -1.25) (end -1.11 -1.25) (layer F.Fab) (width 0.01))
  (fp_circle (center -1.25 -0.75) (end -1.11 -0.75) (layer F.Fab) (width 0.01))
  (fp_circle (center -1.25 -0.25) (end -1.11 -0.25) (layer F.Fab) (width 0.01))
  (fp_circle (center -1.25 0.25) (end -1.11 0.25) (layer F.Fab) (width 0.01))
  (fp_circle (center -1.25 0.75) (end -1.11 0.75) (layer F.Fab) (width 0.01))
  (fp_circle (center -1.25 1.25) (end -1.11 1.25) (layer F.Fab) (width 0.01))
  (fp_circle (center -1.25 1.75) (end -1.11 1.75) (layer F.Fab) (width 0.01))
  (fp_circle (center -0.75 -1.75) (end -0.61 -1.75) (layer F.Fab) (width 0.01))
  (fp_circle (center -0.75 -1.25) (end -0.61 -1.25) (layer F.Fab) (width 0.01))
  (fp_circle (center -0.75 -0.75) (end -0.61 -0.75) (layer F.Fab) (width 0.01))
  (fp_circle (center -0.75 -0.25) (end -0.61 -0.25) (layer F.Fab) (width 0.01))
  (fp_circle (center -0.75 0.25) (end -0.61 0.25) (layer F.Fab) (width 0.01))
  (fp_circle (center -0.75 0.75) (end -0.61 0.75) (layer F.Fab) (width 0.01))
  (fp_circle (center -0.75 1.25) (end -0.61 1.25) (layer F.Fab) (width 0.01))
  (fp_circle (center -0.75 1.75) (end -0.61 1.75) (layer F.Fab) (width 0.01))
  (fp_circle (center -0.25 -1.75) (end -0.11 -1.75) (layer F.Fab) (width 0.01))
  (fp_circle (center -0.25 -1.25) (end -0.11 -1.25) (layer F.Fab) (width 0.01))
  (fp_circle (center -0.25 -0.75) (end -0.11 -0.75) (layer F.Fab) (width 0.01))
  (fp_circle (center -0.25 -0.25) (end -0.11 -0.25) (layer F.Fab) (width 0.01))
  (fp_circle (center -0.25 0.25) (end -0.11 0.25) (layer F.Fab) (width 0.01))
  (fp_circle (center -0.25 0.75) (end -0.11 0.75) (layer F.Fab) (width 0.01))
  (fp_circle (center -0.25 1.25) (end -0.11 1.25) (layer F.Fab) (width 0.01))
  (fp_circle (center -0.25 1.75) (end -0.11 1.75) (layer F.Fab) (width 0.01))
  (fp_circle (center 0.25 -1.75) (end 0.39 -1.75) (layer F.Fab) (width 0.01))
  (fp_circle (center 0.25 -1.25) (end 0.39 -1.25) (layer F.Fab) (width 0.01))
  (fp_circle (center 0.25 -0.75) (end 0.39 -0.75) (layer F.Fab) (width 0.01))
  (fp_circle (center 0.25 -0.25) (end 0.39 -0.25) (layer F.Fab) (width 0.01))
  (fp_circle (center 0.25 0.25) (end 0.39 0.25) (layer F.Fab) (width 0.01))
  (fp_circle (center 0.25 0.75) (end 0.39 0.75) (layer F.Fab) (width 0.01))
  (fp_circle (center 0.25 1.25) (end 0.39 1.25) (layer F.Fab) (width 0.01))
  (fp_circle (center 0.25 1.75) (end 0.39 1.75) (layer F.Fab) (width 0.01))
  (fp_circle (center 0.75 -1.75) (end 0.89 -1.75) (layer F.Fab) (width 0.01))
  (fp_circle (center 0.75 -1.25) (end 0.89 -1.25) (layer F.Fab) (width 0.01))
  (fp_circle (center 0.75 -0.75) (end 0.89 -0.75) (layer F.Fab) (width 0.01))
  (fp_circle (center 0.75 -0.25) (end 0.89 -0.25) (layer F.Fab) (width 0.01))
  (fp_circle (center 0.75 0.25) (end 0.89 0.25) (layer F.Fab) (width 0.01))
  (fp_circle (center 0.75 0.75) (end 0.89 0.75) (layer F.Fab) (width 0.01))
  (fp_circle (center 0.75 1.25) (end 0.89 1.25) (layer F.Fab) (width 0.01))
  (fp_circle (center 0.75 1.75) (end 0.89 1.75) (layer F.Fab) (width 0.01))
  (fp_circle (center 1.25 -1.75) (end 1.39 -1.75) (layer F.Fab) (width 0.01))
  (fp_circle (center 1.25 -1.25) (end 1.39 -1.25) (layer F.Fab) (width 0.01))
  (fp_circle (center 1.25 -0.75) (end 1.39 -0.75) (layer F.Fab) (width 0.01))
  (fp_circle (center 1.25 -0.25) (end 1.39 -0.25) (layer F.Fab) (width 0.01))
  (fp_circle (center 1.25 0.25) (end 1.39 0.25) (layer F.Fab) (width 0.01))
  (fp_circle (center 1.25 0.75) (end 1.39 0.75) (layer F.Fab) (width 0.01))
  (fp_circle (center 1.25 1.25) (end 1.39 1.25) (layer F.Fab) (width 0.01))
  (fp_circle (center 1.25 1.75) (end 1.39 1.75) (layer F.Fab) (width 0.01))
  (fp_circle (center 1.75 -1.75) (end 1.89 -1.75) (layer F.Fab) (width 0.01))
  (fp_circle (center 1.75 -1.25) (end 1.89 -1.25) (layer F.Fab) (width 0.01))
  (fp_circle (center 1.75 -0.75) (end 1.89 -0.75) (layer F.Fab) (width 0.01))
  (fp_circle (center 1.75 -0.25) (end 1.89 -0.25) (layer F.Fab) (width 0.01))
  (fp_circle (center 1.75 0.25) (end 1.89 0.25) (layer F.Fab) (width 0.01))
  (fp_circle (center 1.75 0.75) (end 1.89 0.75) (layer F.Fab) (width 0.01))
  (fp_circle (center 1.75 1.25) (end 1.89 1.25) (layer F.Fab) (width 0.01))
  (fp_circle (center 1.75 1.75) (end 1.89 1.75) (layer F.Fab) (width 0.01))
  (pad A1 smd circle (at -1.75 -1.75) (size 0.28 0.28) (layers F.Cu F.Paste F.Mask)
    (zone_connect 1))
  (pad B1 smd circle (at -1.75 -1.25) (size 0.28 0.28) (layers F.Cu F.Paste F.Mask)
    (zone_connect 1))
  (pad C1 smd circle (at -1.75 -0.75) (size 0.28 0.28) (layers F.Cu F.Paste F.Mask)
    (zone_connect 1))
  (pad D1 smd circle (at -1.75 -0.25) (size 0.28 0.28) (layers F.Cu F.Paste F.Mask)
    (zone_connect 1))
  (pad E1 smd circle (at -1.75 0.25) (size 0.28 0.28) (layers F.Cu F.Paste F.Mask)
    (zone_connect 1))
  (pad F1 smd circle (at -1.75 0.75) (size 0.28 0.28) (layers F.Cu F.Paste F.Mask)
    (zone_connect 1))
  (pad G1 smd circle (at -1.75 1.25) (size 0.28 0.28) (layers F.Cu F.Paste F.Mask)
    (zone_connect 1))
  (pad H1 smd circle (at -1.75 1.75) (size 0.28 0.28) (layers F.Cu F.Paste F.Mask)
    (zone_connect 1))
  (pad A2 smd circle (at -1.25 -1.75) (size 0.28 0.28) (layers F.Cu F.Paste F.Mask)
    (zone_connect 1))
  (pad B2 smd circle (at -1.25 -1.25) (size 0.28 0.28) (layers F.Cu F.Paste F.Mask)
    (zone_connect 1))
  (pad C2 smd circle (at -1.25 -0.75) (size 0.28 0.28) (layers F.Cu F.Paste F.Mask)
    (zone_connect 1))
  (pad D2 smd circle (at -1.25 -0.25) (size 0.28 0.28) (layers F.Cu F.Paste F.Mask)
    (zone_connect 1))
  (pad E2 smd circle (at -1.25 0.25) (size 0.28 0.28) (layers F.Cu F.Paste F.Mask)
    (zone_connect 1))
  (pad F2 smd circle (at -1.25 0.75) (size 0.28 0.28) (layers F.Cu F.Paste F.Mask)
    (zone_connect 1))
  (pad G2 smd circle (at -1.25 1.25) (size 0.28 0.28) (layers F.Cu F.Paste F.Mask)
    (zone_connect 1))
  (pad H2 smd circle (at -1.25 1.75) (size 0.28 0.28) (layers F.Cu F.Paste F.Mask)
    (zone_connect 1))
  (pad A3 smd circle (at -0.75 -1.75) (size 0.28 0.28) (layers F.Cu F.Paste F.Mask)
    (zone_connect 1))
  (pad B3 smd circle (at -0.75 -1.25) (size 0.28 0.28) (layers F.Cu F.Paste F.Mask)
    (zone_connect 1))
  (pad C3 smd circle (at -0.75 -0.75) (size 0.28 0.28) (layers F.Cu F.Paste F.Mask)
    (zone_connect 1))
  (pad D3 smd circle (at -0.75 -0.25) (size 0.28 0.28) (layers F.Cu F.Paste F.Mask)
    (zone_connect 1))
  (pad E3 smd circle (at -0.75 0.25) (size 0.28 0.28) (layers F.Cu F.Paste F.Mask)
    (zone_connect 1))
  (pad F3 smd circle (at -0.75 0.75) (size 0.28 0.28) (layers F.Cu F.Paste F.Mask)
    (zone_connect 1))
  (pad G3 smd circle (at -0.75 1.25) (size 0.28 0.28) (layers F.Cu F.Paste F.Mask)
    (zone_connect 1))
  (pad H3 smd circle (at -0.75 1.75) (size 0.28 0.28) (layers F.Cu F.Paste F.Mask)
    (zone_connect 1))
  (pad A4 smd circle (at -0.25 -1.75) (size 0.28 0.28) (layers F.Cu F.Paste F.Mask)
    (zone_connect 1))
  (pad B4 smd circle (at -0.25 -1.25) (size 0.28 0.28) (layers F.Cu F.Paste F.Mask)
    (zone_connect 1))
  (pad C4 smd circle (at -0.25 -0.75) (size 0.28 0.28) (layers F.Cu F.Paste F.Mask)
    (zone_connect 1))
  (pad D4 smd circle (at -0.25 -0.25) (size 0.28 0.28) (layers F.Cu F.Paste F.Mask)
    (zone_connect 1))
  (pad E4 smd circle (at -0.25 0.25) (size 0.28 0.28) (layers F.Cu F.Paste F.Mask)
    (zone_connect 1))
  (pad F4 smd circle (at -0.25 0.75) (size 0.28 0.28) (layers F.Cu F.Paste F.Mask)
    (zone_connect 1))
  (pad G4 smd circle (at -0.25 1.25) (size 0.28 0.28) (layers F.Cu F.Paste F.Mask)
    (zone_connect 1))
  (pad H4 smd circle (at -0.25 1.75) (size 0.28 0.28) (layers F.Cu F.Paste F.Mask)
    (zone_connect 1))
  (pad A5 smd circle (at 0.25 -1.75) (size 0.28 0.28) (layers F.Cu F.Paste F.Mask)
    (zone_connect 1))
  (pad B5 smd circle (at 0.25 -1.25) (size 0.28 0.28) (layers F.Cu F.Paste F.Mask)
    (zone_connect 1))
  (pad C5 smd circle (at 0.25 -0.75) (size 0.28 0.28) (layers F.Cu F.Paste F.Mask)
    (zone_connect 1))
  (pad D5 smd circle (at 0.25 -0.25) (size 0.28 0.28) (layers F.Cu F.Paste F.Mask)
    (zone_connect 1))
  (pad E5 smd circle (at 0.25 0.25) (size 0.28 0.28) (layers F.Cu F.Paste F.Mask)
    (zone_connect 1))
  (pad F5 smd circle (at 0.25 0.75) (size 0.28 0.28) (layers F.Cu F.Paste F.Mask)
    (zone_connect 1))
  (pad G5 smd circle (at 0.25 1.25) (size 0.28 0.28) (layers F.Cu F.Paste F.Mask)
    (zone_connect 1))
  (pad H5 smd circle (at 0.25 1.75) (size 0.28 0.28) (layers F.Cu F.Paste F.Mask)
    (zone_connect 1))
  (pad A6 smd circle (at 0.75 -1.75) (size 0.28 0.28) (layers F.Cu F.Paste F.Mask)
    (zone_connect 1))
  (pad B6 smd circle (at 0.75 -1.25) (size 0.28 0.28) (layers F.Cu F.Paste F.Mask)
    (zone_connect 1))
  (pad C6 smd circle (at 0.75 -0.75) (size 0.28 0.28) (layers F.Cu F.Paste F.Mask)
    (zone_connect 1))
  (pad D6 smd circle (at 0.75 -0.25) (size 0.28 0.28) (layers F.Cu F.Paste F.Mask)
    (zone_connect 1))
  (pad E6 smd circle (at 0.75 0.25) (size 0.28 0.28) (layers F.Cu F.Paste F.Mask)
    (zone_connect 1))
  (pad F6 smd circle (at 0.75 0.75) (size 0.28 0.28) (layers F.Cu F.Paste F.Mask)
    (zone_connect 1))
  (pad G6 smd circle (at 0.75 1.25) (size 0.28 0.28) (layers F.Cu F.Paste F.Mask)
    (zone_connect 1))
  (pad H6 smd circle (at 0.75 1.75) (size 0.28 0.28) (layers F.Cu F.Paste F.Mask)
    (zone_connect 1))
  (pad A7 smd circle (at 1.25 -1.75) (size 0.28 0.28) (layers F.Cu F.Paste F.Mask)
    (zone_connect 1))
  (pad B7 smd circle (at 1.25 -1.25) (size 0.28 0.28) (layers F.Cu F.Paste F.Mask)
    (zone_connect 1))
  (pad C7 smd circle (at 1.25 -0.75) (size 0.28 0.28) (layers F.Cu F.Paste F.Mask)
    (zone_connect 1))
  (pad D7 smd circle (at 1.25 -0.25) (size 0.28 0.28) (layers F.Cu F.Paste F.Mask)
    (zone_connect 1))
  (pad E7 smd circle (at 1.25 0.25) (size 0.28 0.28) (layers F.Cu F.Paste F.Mask)
    (zone_connect 1))
  (pad F7 smd circle (at 1.25 0.75) (size 0.28 0.28) (layers F.Cu F.Paste F.Mask)
    (zone_connect 1))
  (pad G7 smd circle (at 1.25 1.25) (size 0.28 0.28) (layers F.Cu F.Paste F.Mask)
    (zone_connect 1))
  (pad H7 smd circle (at 1.25 1.75) (size 0.28 0.28) (layers F.Cu F.Paste F.Mask)
    (zone_connect 1))
  (pad A8 smd circle (at 1.75 -1.75) (size 0.28 0.28) (layers F.Cu F.Paste F.Mask)
    (zone_connect 1))
  (pad B8 smd circle (at 1.75 -1.25) (size 0.28 0.28) (layers F.Cu F.Paste F.Mask)
    (zone_connect 1))
  (pad C8 smd circle (at 1.75 -0.75) (size 0.28 0.28) (layers F.Cu F.Paste F.Mask)
    (zone_connect 1))
  (pad D8 smd circle (at 1.75 -0.25) (size 0.28 0.28) (layers F.Cu F.Paste F.Mask)
    (zone_connect 1))
  (pad E8 smd circle (at 1.75 0.25) (size 0.28 0.28) (layers F.Cu F.Paste F.Mask)
    (zone_connect 1))
  (pad F8 smd circle (at 1.75 0.75) (size 0.28 0.28) (layers F.Cu F.Paste F.Mask)
    (zone_connect 1))
  (pad G8 smd circle (at 1.75 1.25) (size 0.28 0.28) (layers F.Cu F.Paste F.Mask)
    (zone_connect 1))
  (pad H8 smd circle (at 1.75 1.75) (size 0.28 0.28) (layers F.Cu F.Paste F.Mask)
    (zone_connect 1))
  (model ${MY3DMOD}/BGA-64_5x5_0.STEP
    (at (xyz 0 0 0))
    (scale (xyz 1 1 1))
    (rotate (xyz 0 0 0))
  )
)
