(module Crystal_SMD_8.7x3.8mm (layer F.Cu) (tedit 592C1A6A)
  (fp_text reference REF** (at 0 0) (layer F.SilkS)
    (effects (font (size 0.7 0.7) (thickness 0.15)))
  )
  (fp_text value Crystal_SMD_8.7x3.8mm (at 0.3 0) (layer F.Fab)
    (effects (font (size 0.35 0.35) (thickness 0.05)))
  )
  (fp_line (start 4.7 -2.1) (end 4.7 2.1) (layer F.CrtYd) (width 0.1))
  (fp_line (start 4.7 2.1) (end -4.7 2.1) (layer F.CrtYd) (width 0.1))
  (fp_line (start -4.7 2.1) (end -4.7 -2.1) (layer F.CrtYd) (width 0.1))
  (fp_line (start -4.7 -2.1) (end 4.7 -2.1) (layer F.CrtYd) (width 0.1))
  (fp_line (start -2.9 -1.9) (end -4.5 -1.9) (layer F.SilkS) (width 0.15))
  (fp_line (start -4.5 -1.9) (end -4.5 1.9) (layer F.SilkS) (width 0.15))
  (fp_line (start -4.5 1.9) (end -2.9 1.9) (layer F.SilkS) (width 0.15))
  (fp_line (start 2.9 1.9) (end 4.5 1.9) (layer F.SilkS) (width 0.15))
  (fp_line (start 4.5 1.9) (end 4.5 -1.9) (layer F.SilkS) (width 0.15))
  (fp_line (start 4.5 -1.9) (end 2.9 -1.9) (layer F.SilkS) (width 0.15))
  (fp_line (start -1.6 1.9) (end 1.6 1.9) (layer F.SilkS) (width 0.15))
  (fp_line (start -1.6 -1.9) (end 1.6 -1.9) (layer F.SilkS) (width 0.15))
  (fp_line (start -3.3 -1.8) (end -3.3 1.8) (layer F.Fab) (width 0.05))
  (fp_line (start 4 -1.8) (end 4 1.8) (layer F.Fab) (width 0.05))
  (fp_line (start 4.35 -1.8) (end 4.35 1.8) (layer F.Fab) (width 0.05))
  (fp_line (start -4.35 -1.8) (end -4.35 1.8) (layer F.Fab) (width 0.05))
  (fp_line (start -4.35 1.8) (end 4.35 1.8) (layer F.Fab) (width 0.05))
  (fp_line (start -4.35 -1.8) (end 4.35 -1.8) (layer F.Fab) (width 0.05))
  (pad 3 smd rect (at 2.25 1.15) (size 0.9 1.8) (layers F.Cu F.Paste F.Mask))
  (pad 4 smd rect (at 2.25 -1.15) (size 0.9 1.8) (layers F.Cu F.Paste F.Mask))
  (pad 2 smd rect (at -2.25 1.15) (size 0.9 1.8) (layers F.Cu F.Paste F.Mask))
  (pad 1 smd rect (at -2.25 -1.15) (size 0.9 1.8) (layers F.Cu F.Paste F.Mask))
)
