(module DFN-18_5x6_0.5mm_TP (layer F.Cu) (tedit 5FC51056)
  (descr "On Semiconductor case 505-01 (issue D)")
  (tags "DFN 18")
  (attr smd)
  (fp_text reference REF** (at 0 -3.6) (layer F.SilkS)
    (effects (font (size 0.6 0.6) (thickness 0.15)))
  )
  (fp_text value DFN-18_5x6_0.5mm_TP (at 0 2.7) (layer F.Fab)
    (effects (font (size 0.25 0.25) (thickness 0.05)))
  )
  (fp_line (start -2.575 -2.7) (end -2.575 -2.425) (layer F.SilkS) (width 0.15))
  (fp_line (start 2.575 -3.075) (end 2.575 -2.425) (layer F.SilkS) (width 0.15))
  (fp_line (start -2.2 -3.075) (end 2.575 -3.075) (layer F.SilkS) (width 0.15))
  (fp_circle (center -2.575 -3.075) (end -2.525 -3.075) (layer F.SilkS) (width 0.15))
  (fp_line (start -2.5 3) (end -2.5 -3) (layer F.Fab) (width 0.01))
  (fp_line (start 2.5 3) (end -2.5 3) (layer F.Fab) (width 0.01))
  (fp_line (start 2.5 -3) (end 2.5 3) (layer F.Fab) (width 0.01))
  (fp_line (start -2.5 -3) (end 2.5 -3) (layer F.Fab) (width 0.01))
  (fp_line (start 2.5 -2.12) (end 1.95 -2.12) (layer F.Fab) (width 0.01))
  (fp_line (start 1.95 -1.88) (end 2.5 -1.88) (layer F.Fab) (width 0.01))
  (fp_line (start -1.95 -1.88) (end -1.95 -2.12) (layer F.Fab) (width 0.01))
  (fp_line (start -2.5 -1.88) (end -1.95 -1.88) (layer F.Fab) (width 0.01))
  (fp_line (start -1.95 -2.12) (end -2.5 -2.12) (layer F.Fab) (width 0.01))
  (fp_line (start 1.95 -2.12) (end 1.95 -1.88) (layer F.Fab) (width 0.01))
  (fp_line (start 2.5 -1.62) (end 1.95 -1.62) (layer F.Fab) (width 0.01))
  (fp_line (start 2.5 -1.12) (end 1.95 -1.12) (layer F.Fab) (width 0.01))
  (fp_line (start 2.5 -0.62) (end 1.95 -0.62) (layer F.Fab) (width 0.01))
  (fp_line (start 2.5 -0.12) (end 1.95 -0.12) (layer F.Fab) (width 0.01))
  (fp_line (start 2.5 0.38) (end 1.95 0.38) (layer F.Fab) (width 0.01))
  (fp_line (start 2.5 0.88) (end 1.95 0.88) (layer F.Fab) (width 0.01))
  (fp_line (start 2.5 1.38) (end 1.95 1.38) (layer F.Fab) (width 0.01))
  (fp_line (start 2.5 1.88) (end 1.95 1.88) (layer F.Fab) (width 0.01))
  (fp_line (start 1.95 -1.38) (end 2.5 -1.38) (layer F.Fab) (width 0.01))
  (fp_line (start 1.95 -0.88) (end 2.5 -0.88) (layer F.Fab) (width 0.01))
  (fp_line (start 1.95 -0.38) (end 2.5 -0.38) (layer F.Fab) (width 0.01))
  (fp_line (start 1.95 0.12) (end 2.5 0.12) (layer F.Fab) (width 0.01))
  (fp_line (start 1.95 0.62) (end 2.5 0.62) (layer F.Fab) (width 0.01))
  (fp_line (start 1.95 1.12) (end 2.5 1.12) (layer F.Fab) (width 0.01))
  (fp_line (start 1.95 1.62) (end 2.5 1.62) (layer F.Fab) (width 0.01))
  (fp_line (start 1.95 2.12) (end 2.5 2.12) (layer F.Fab) (width 0.01))
  (fp_line (start -1.95 -1.38) (end -1.95 -1.62) (layer F.Fab) (width 0.01))
  (fp_line (start -1.95 -0.88) (end -1.95 -1.12) (layer F.Fab) (width 0.01))
  (fp_line (start -1.95 -0.38) (end -1.95 -0.62) (layer F.Fab) (width 0.01))
  (fp_line (start -1.95 0.12) (end -1.95 -0.12) (layer F.Fab) (width 0.01))
  (fp_line (start -1.95 0.62) (end -1.95 0.38) (layer F.Fab) (width 0.01))
  (fp_line (start -1.95 1.12) (end -1.95 0.88) (layer F.Fab) (width 0.01))
  (fp_line (start -1.95 1.62) (end -1.95 1.38) (layer F.Fab) (width 0.01))
  (fp_line (start -1.95 2.12) (end -1.95 1.88) (layer F.Fab) (width 0.01))
  (fp_line (start -1.95 -1.62) (end -2.5 -1.62) (layer F.Fab) (width 0.01))
  (fp_line (start -1.95 -1.12) (end -2.5 -1.12) (layer F.Fab) (width 0.01))
  (fp_line (start -1.95 -0.62) (end -2.5 -0.62) (layer F.Fab) (width 0.01))
  (fp_line (start -1.95 -0.12) (end -2.5 -0.12) (layer F.Fab) (width 0.01))
  (fp_line (start -1.95 0.38) (end -2.5 0.38) (layer F.Fab) (width 0.01))
  (fp_line (start -1.95 0.88) (end -2.5 0.88) (layer F.Fab) (width 0.01))
  (fp_line (start -1.95 1.38) (end -2.5 1.38) (layer F.Fab) (width 0.01))
  (fp_line (start -1.95 1.88) (end -2.5 1.88) (layer F.Fab) (width 0.01))
  (fp_line (start 1.95 -1.62) (end 1.95 -1.38) (layer F.Fab) (width 0.01))
  (fp_line (start 1.95 -1.12) (end 1.95 -0.88) (layer F.Fab) (width 0.01))
  (fp_line (start 1.95 -0.62) (end 1.95 -0.38) (layer F.Fab) (width 0.01))
  (fp_line (start 1.95 -0.12) (end 1.95 0.12) (layer F.Fab) (width 0.01))
  (fp_line (start 1.95 0.38) (end 1.95 0.62) (layer F.Fab) (width 0.01))
  (fp_line (start 1.95 0.88) (end 1.95 1.12) (layer F.Fab) (width 0.01))
  (fp_line (start 1.95 1.38) (end 1.95 1.62) (layer F.Fab) (width 0.01))
  (fp_line (start 1.95 1.88) (end 1.95 2.12) (layer F.Fab) (width 0.01))
  (fp_line (start -2.5 -1.38) (end -1.95 -1.38) (layer F.Fab) (width 0.01))
  (fp_line (start -2.5 -0.88) (end -1.95 -0.88) (layer F.Fab) (width 0.01))
  (fp_line (start -2.5 -0.38) (end -1.95 -0.38) (layer F.Fab) (width 0.01))
  (fp_line (start -2.5 0.12) (end -1.95 0.12) (layer F.Fab) (width 0.01))
  (fp_line (start -2.5 0.62) (end -1.95 0.62) (layer F.Fab) (width 0.01))
  (fp_line (start -2.5 1.12) (end -1.95 1.12) (layer F.Fab) (width 0.01))
  (fp_line (start -2.5 1.62) (end -1.95 1.62) (layer F.Fab) (width 0.01))
  (fp_line (start -2.5 2.12) (end -1.95 2.12) (layer F.Fab) (width 0.01))
  (fp_line (start -1.15 -2.05) (end 1.55 -2.05) (layer F.Fab) (width 0.01))
  (fp_line (start -1.55 2.05) (end 1.55 2.05) (layer F.Fab) (width 0.01))
  (fp_line (start -1.55 -1.65) (end -1.55 2.05) (layer F.Fab) (width 0.01))
  (fp_line (start 1.55 -2.05) (end 1.55 2.05) (layer F.Fab) (width 0.01))
  (fp_line (start -1.55 -1.65) (end -1.15 -2.05) (layer F.Fab) (width 0.01))
  (fp_line (start -2.575 3.075) (end -2.575 2.425) (layer F.SilkS) (width 0.15))
  (fp_line (start 2.575 3.075) (end -2.575 3.075) (layer F.SilkS) (width 0.15))
  (fp_line (start 2.575 3.075) (end 2.575 2.425) (layer F.SilkS) (width 0.15))
  (fp_line (start -2.85 -3.175) (end 2.85 -3.175) (layer F.CrtYd) (width 0.01))
  (fp_line (start 2.85 -3.175) (end 2.85 3.175) (layer F.CrtYd) (width 0.01))
  (fp_line (start 2.85 3.175) (end -2.85 3.175) (layer F.CrtYd) (width 0.01))
  (fp_line (start -2.85 3.175) (end -2.85 -3.175) (layer F.CrtYd) (width 0.01))
  (pad 1 smd roundrect (at -2.34 -2) (size 0.86 0.32) (layers F.Cu F.Paste F.Mask) (roundrect_rratio 0.1)
    (solder_mask_margin 0.05) (solder_paste_margin -0.02) (clearance 0.15))
  (pad 2 smd roundrect (at -2.34 -1.5) (size 0.86 0.32) (layers F.Cu F.Paste F.Mask) (roundrect_rratio 0.1)
    (solder_mask_margin 0.05) (solder_paste_margin -0.02) (clearance 0.15))
  (pad 3 smd roundrect (at -2.34 -1) (size 0.86 0.32) (layers F.Cu F.Paste F.Mask) (roundrect_rratio 0.1)
    (solder_mask_margin 0.05) (solder_paste_margin -0.02) (clearance 0.15))
  (pad 4 smd roundrect (at -2.34 -0.5) (size 0.86 0.32) (layers F.Cu F.Paste F.Mask) (roundrect_rratio 0.1)
    (solder_mask_margin 0.05) (solder_paste_margin -0.02) (clearance 0.15))
  (pad 5 smd roundrect (at -2.34 0) (size 0.86 0.32) (layers F.Cu F.Paste F.Mask) (roundrect_rratio 0.1)
    (solder_mask_margin 0.05) (solder_paste_margin -0.02) (clearance 0.15))
  (pad 6 smd roundrect (at -2.34 0.5) (size 0.86 0.32) (layers F.Cu F.Paste F.Mask) (roundrect_rratio 0.1)
    (solder_mask_margin 0.05) (solder_paste_margin -0.02) (clearance 0.15))
  (pad 7 smd roundrect (at -2.34 1) (size 0.86 0.32) (layers F.Cu F.Paste F.Mask) (roundrect_rratio 0.1)
    (solder_mask_margin 0.05) (solder_paste_margin -0.02) (clearance 0.15))
  (pad 8 smd roundrect (at -2.34 1.5) (size 0.86 0.32) (layers F.Cu F.Paste F.Mask) (roundrect_rratio 0.1)
    (solder_mask_margin 0.05) (solder_paste_margin -0.02) (clearance 0.15))
  (pad 9 smd roundrect (at -2.34 2) (size 0.86 0.32) (layers F.Cu F.Paste F.Mask) (roundrect_rratio 0.1)
    (solder_mask_margin 0.05) (solder_paste_margin -0.02) (clearance 0.15))
  (pad 10 smd roundrect (at 2.34 2) (size 0.86 0.32) (layers F.Cu F.Paste F.Mask) (roundrect_rratio 0.1)
    (solder_mask_margin 0.05) (solder_paste_margin -0.02) (clearance 0.15))
  (pad 11 smd roundrect (at 2.34 1.5) (size 0.86 0.32) (layers F.Cu F.Paste F.Mask) (roundrect_rratio 0.1)
    (solder_mask_margin 0.05) (solder_paste_margin -0.02) (clearance 0.15))
  (pad 12 smd roundrect (at 2.34 1) (size 0.86 0.32) (layers F.Cu F.Paste F.Mask) (roundrect_rratio 0.1)
    (solder_mask_margin 0.05) (solder_paste_margin -0.02) (clearance 0.15))
  (pad 13 smd roundrect (at 2.34 0.5) (size 0.86 0.32) (layers F.Cu F.Paste F.Mask) (roundrect_rratio 0.1)
    (solder_mask_margin 0.05) (solder_paste_margin -0.02) (clearance 0.15))
  (pad 14 smd roundrect (at 2.34 0) (size 0.86 0.32) (layers F.Cu F.Paste F.Mask) (roundrect_rratio 0.1)
    (solder_mask_margin 0.05) (solder_paste_margin -0.02) (clearance 0.15))
  (pad 15 smd roundrect (at 2.34 -0.5) (size 0.86 0.32) (layers F.Cu F.Paste F.Mask) (roundrect_rratio 0.1)
    (solder_mask_margin 0.05) (solder_paste_margin -0.02) (clearance 0.15))
  (pad 16 smd roundrect (at 2.34 -1) (size 0.86 0.32) (layers F.Cu F.Paste F.Mask) (roundrect_rratio 0.1)
    (solder_mask_margin 0.05) (solder_paste_margin -0.02) (clearance 0.15))
  (pad 17 smd roundrect (at 2.34 -1.5) (size 0.86 0.32) (layers F.Cu F.Paste F.Mask) (roundrect_rratio 0.1)
    (solder_mask_margin 0.05) (solder_paste_margin -0.02) (clearance 0.15))
  (pad 18 smd roundrect (at 2.34 -2) (size 0.86 0.32) (layers F.Cu F.Paste F.Mask) (roundrect_rratio 0.1)
    (solder_mask_margin 0.05) (solder_paste_margin -0.02) (clearance 0.15))
  (pad 19 smd roundrect (at 0 0) (size 3.24 4.19) (layers F.Cu F.Paste F.Mask) (roundrect_rratio 0.01)
    (solder_mask_margin 0.05) (solder_paste_margin -0.02) (clearance 0.15))
  (model ${MY3DMOD}/DFN-18_5x6_0.5mm_TP.STEP
    (at (xyz 0 0 0))
    (scale (xyz 1 1 1))
    (rotate (xyz 0 0 0))
  )
)
