(module HVQFN-32_5x5_0.5mm (layer F.Cu) (tedit 59F053B2)
  (fp_text reference REF** (at 0 -3.7) (layer F.SilkS)
    (effects (font (size 0.7 0.7) (thickness 0.15)))
  )
  (fp_text value HVQFN-32_5x5_0.5mm (at 0 0) (layer F.Fab)
    (effects (font (size 0.4 0.4) (thickness 0.075)))
  )
  (fp_line (start 2 -3.1) (end 2 -2.9) (layer F.CrtYd) (width 0.1))
  (fp_line (start 2 -2.9) (end 2.9 -2.9) (layer F.CrtYd) (width 0.1))
  (fp_line (start 2.9 -2.9) (end 2.9 -2) (layer F.CrtYd) (width 0.1))
  (fp_line (start 2.9 -2) (end 3.1 -2) (layer F.CrtYd) (width 0.1))
  (fp_line (start 3.1 -2) (end 3.1 2) (layer F.CrtYd) (width 0.1))
  (fp_line (start 3.1 2) (end 2.9 2) (layer F.CrtYd) (width 0.1))
  (fp_line (start 2.9 2) (end 2.9 2.9) (layer F.CrtYd) (width 0.1))
  (fp_line (start 2.9 2.9) (end 2 2.9) (layer F.CrtYd) (width 0.1))
  (fp_line (start 2 2.9) (end 2 3.1) (layer F.CrtYd) (width 0.1))
  (fp_line (start 2 3.1) (end -2 3.1) (layer F.CrtYd) (width 0.1))
  (fp_line (start -2 3.1) (end -2 2.9) (layer F.CrtYd) (width 0.1))
  (fp_line (start -2 2.9) (end -2.9 2.9) (layer F.CrtYd) (width 0.1))
  (fp_line (start -2.9 2.9) (end -2.9 2) (layer F.CrtYd) (width 0.1))
  (fp_line (start -2.9 2) (end -3.1 2) (layer F.CrtYd) (width 0.1))
  (fp_line (start -3.1 2) (end -3.1 -2) (layer F.CrtYd) (width 0.1))
  (fp_line (start -3.1 -2) (end -2.9 -2) (layer F.CrtYd) (width 0.1))
  (fp_line (start -2.9 -2) (end -2.9 -2.9) (layer F.CrtYd) (width 0.1))
  (fp_line (start -2.9 -2.9) (end -2 -2.9) (layer F.CrtYd) (width 0.1))
  (fp_line (start -2 -2.9) (end -2 -3.1) (layer F.CrtYd) (width 0.1))
  (fp_line (start -2 -3.1) (end 2 -3.1) (layer F.CrtYd) (width 0.1))
  (fp_line (start -2.7 -2.1) (end -2.1 -2.7) (layer F.SilkS) (width 0.15))
  (fp_line (start -2.5 -2.7) (end -2.7 -2.5) (layer F.SilkS) (width 0.15))
  (fp_line (start -2.7 -2.3) (end -2.3 -2.7) (layer F.SilkS) (width 0.15))
  (fp_line (start 2.7 2.1) (end 2.7 2.7) (layer F.SilkS) (width 0.15))
  (fp_line (start 2.7 2.7) (end 2.1 2.7) (layer F.SilkS) (width 0.15))
  (fp_line (start -2.7 2.1) (end -2.7 2.7) (layer F.SilkS) (width 0.15))
  (fp_line (start -2.7 2.7) (end -2.1 2.7) (layer F.SilkS) (width 0.15))
  (fp_line (start 2.1 -2.7) (end 2.7 -2.7) (layer F.SilkS) (width 0.15))
  (fp_line (start 2.7 -2.7) (end 2.7 -2.1) (layer F.SilkS) (width 0.15))
  (fp_line (start -2.7 -2.1) (end -2.7 -2.7) (layer F.SilkS) (width 0.15))
  (fp_line (start -2.7 -2.7) (end -2.1 -2.7) (layer F.SilkS) (width 0.15))
  (fp_line (start 2.5 -2.5) (end 2.5 2.5) (layer F.Fab) (width 0.05))
  (fp_line (start 2.5 2.5) (end -2.5 2.5) (layer F.Fab) (width 0.05))
  (fp_line (start -2.5 2.5) (end -2.5 -2.5) (layer F.Fab) (width 0.05))
  (fp_line (start -2.5 -2.5) (end 2.5 -2.5) (layer F.Fab) (width 0.05))
  (pad 1 smd rect (at -2.55 -1.75) (size 0.9 0.3) (layers F.Cu F.Paste F.Mask)
    (solder_paste_margin -0.025))
  (pad 2 smd rect (at -2.55 -1.25) (size 0.9 0.3) (layers F.Cu F.Paste F.Mask)
    (solder_paste_margin -0.025))
  (pad 3 smd rect (at -2.55 -0.75) (size 0.9 0.3) (layers F.Cu F.Paste F.Mask)
    (solder_paste_margin -0.025))
  (pad 4 smd rect (at -2.55 -0.25) (size 0.9 0.3) (layers F.Cu F.Paste F.Mask)
    (solder_paste_margin -0.025))
  (pad 5 smd rect (at -2.55 0.25) (size 0.9 0.3) (layers F.Cu F.Paste F.Mask)
    (solder_paste_margin -0.025))
  (pad 6 smd rect (at -2.55 0.75) (size 0.9 0.3) (layers F.Cu F.Paste F.Mask)
    (solder_paste_margin -0.025))
  (pad 7 smd rect (at -2.55 1.25) (size 0.9 0.3) (layers F.Cu F.Paste F.Mask)
    (solder_paste_margin -0.025))
  (pad 8 smd rect (at -2.55 1.75) (size 0.9 0.3) (layers F.Cu F.Paste F.Mask)
    (solder_paste_margin -0.025))
  (pad 9 smd rect (at -1.75 2.55 90) (size 0.9 0.3) (layers F.Cu F.Paste F.Mask))
  (pad 10 smd rect (at -1.25 2.55 90) (size 0.9 0.3) (layers F.Cu F.Paste F.Mask))
  (pad 11 smd rect (at -0.75 2.55 90) (size 0.9 0.3) (layers F.Cu F.Paste F.Mask))
  (pad 12 smd rect (at -0.25 2.55 90) (size 0.9 0.3) (layers F.Cu F.Paste F.Mask))
  (pad 13 smd rect (at 0.25 2.55 90) (size 0.9 0.3) (layers F.Cu F.Paste F.Mask))
  (pad 14 smd rect (at 0.75 2.55 90) (size 0.9 0.3) (layers F.Cu F.Paste F.Mask))
  (pad 15 smd rect (at 1.25 2.55 90) (size 0.9 0.3) (layers F.Cu F.Paste F.Mask))
  (pad 16 smd rect (at 1.75 2.55 90) (size 0.9 0.3) (layers F.Cu F.Paste F.Mask))
  (pad 17 smd rect (at 2.55 1.75 180) (size 0.9 0.3) (layers F.Cu F.Paste F.Mask))
  (pad 18 smd rect (at 2.55 1.25 180) (size 0.9 0.3) (layers F.Cu F.Paste F.Mask))
  (pad 19 smd rect (at 2.55 0.75 180) (size 0.9 0.3) (layers F.Cu F.Paste F.Mask))
  (pad 20 smd rect (at 2.55 0.25 180) (size 0.9 0.3) (layers F.Cu F.Paste F.Mask))
  (pad 21 smd rect (at 2.55 -0.25 180) (size 0.9 0.3) (layers F.Cu F.Paste F.Mask))
  (pad 22 smd rect (at 2.55 -0.75 180) (size 0.9 0.3) (layers F.Cu F.Paste F.Mask))
  (pad 23 smd rect (at 2.55 -1.25 180) (size 0.9 0.3) (layers F.Cu F.Paste F.Mask))
  (pad 24 smd rect (at 2.55 -1.75 180) (size 0.9 0.3) (layers F.Cu F.Paste F.Mask))
  (pad 25 smd rect (at 1.75 -2.55 270) (size 0.9 0.3) (layers F.Cu F.Paste F.Mask))
  (pad 26 smd rect (at 1.25 -2.55 270) (size 0.9 0.3) (layers F.Cu F.Paste F.Mask))
  (pad 27 smd rect (at 0.75 -2.55 270) (size 0.9 0.3) (layers F.Cu F.Paste F.Mask))
  (pad 28 smd rect (at 0.25 -2.55 270) (size 0.9 0.3) (layers F.Cu F.Paste F.Mask))
  (pad 29 smd rect (at -0.25 -2.55 270) (size 0.9 0.3) (layers F.Cu F.Paste F.Mask))
  (pad 30 smd rect (at -0.75 -2.55 270) (size 0.9 0.3) (layers F.Cu F.Paste F.Mask))
  (pad 31 smd rect (at -1.25 -2.55 270) (size 0.9 0.3) (layers F.Cu F.Paste F.Mask))
  (pad 32 smd rect (at -1.75 -2.55 270) (size 0.9 0.3) (layers F.Cu F.Paste F.Mask))
  (pad 33 smd rect (at -0.55 -0.55) (size 0.7 0.7) (layers F.Cu F.Paste F.Mask)
    (solder_paste_margin -0.001) (zone_connect 2))
  (pad 33 smd rect (at -0.55 0.55) (size 0.7 0.7) (layers F.Cu F.Paste F.Mask)
    (solder_paste_margin -0.001) (zone_connect 2))
  (pad 33 smd rect (at 0.55 -0.55) (size 0.7 0.7) (layers F.Cu F.Paste F.Mask)
    (solder_paste_margin -0.001) (zone_connect 2))
  (pad 33 smd rect (at 0.55 0.55) (size 0.7 0.7) (layers F.Cu F.Paste F.Mask)
    (solder_paste_margin -0.001) (zone_connect 2))
  (pad 33 smd rect (at 0 0) (size 3.1 3.1) (layers F.Cu F.Mask))
)
