(module MSOP-10_0.5mm_TP (layer F.Cu) (tedit 5BC7450C)
  (attr smd)
  (fp_text reference REF** (at -2.2 0 90) (layer F.SilkS)
    (effects (font (size 0.7 0.7) (thickness 0.15)))
  )
  (fp_text value MSOP-10 (at 2 0 90) (layer F.Fab)
    (effects (font (size 0.4 0.4) (thickness 0.075)))
  )
  (fp_line (start 0.89 1.5) (end 0.89 2.44) (layer F.Fab) (width 0.05))
  (fp_line (start 0.39 1.5) (end 0.39 2.44) (layer F.Fab) (width 0.05))
  (fp_line (start -0.11 1.5) (end -0.11 2.44) (layer F.Fab) (width 0.05))
  (fp_line (start -0.61 1.5) (end -0.61 2.44) (layer F.Fab) (width 0.05))
  (fp_line (start -0.89 2.44) (end -0.89 1.5) (layer F.Fab) (width 0.05))
  (fp_line (start -1.11 2.44) (end -0.89 2.44) (layer F.Fab) (width 0.05))
  (fp_line (start -1.11 1.5) (end -1.11 2.44) (layer F.Fab) (width 0.05))
  (fp_line (start 1.11 -2.44) (end 1.11 -1.5) (layer F.Fab) (width 0.05))
  (fp_line (start 0.61 -2.44) (end 0.61 -1.5) (layer F.Fab) (width 0.05))
  (fp_line (start 0.11 -2.44) (end 0.11 -1.5) (layer F.Fab) (width 0.05))
  (fp_line (start -0.39 -2.44) (end -0.39 -1.5) (layer F.Fab) (width 0.05))
  (fp_line (start 0.89 -2.44) (end 1.11 -2.44) (layer F.Fab) (width 0.05))
  (fp_line (start 0.39 -2.44) (end 0.61 -2.44) (layer F.Fab) (width 0.05))
  (fp_line (start -0.11 -2.44) (end 0.11 -2.44) (layer F.Fab) (width 0.05))
  (fp_line (start -0.61 -2.44) (end -0.39 -2.44) (layer F.Fab) (width 0.05))
  (fp_line (start 0.89 -1.5) (end 0.89 -2.44) (layer F.Fab) (width 0.05))
  (fp_line (start 0.39 -1.5) (end 0.39 -2.44) (layer F.Fab) (width 0.05))
  (fp_line (start -0.11 -1.5) (end -0.11 -2.44) (layer F.Fab) (width 0.05))
  (fp_line (start -0.61 -1.5) (end -0.61 -2.44) (layer F.Fab) (width 0.05))
  (fp_line (start -0.89 -2.44) (end -0.89 -1.5) (layer F.Fab) (width 0.05))
  (fp_line (start -1.11 -2.44) (end -0.89 -2.44) (layer F.Fab) (width 0.05))
  (fp_line (start -1.11 -1.5) (end -1.11 -2.44) (layer F.Fab) (width 0.05))
  (fp_line (start -1.6 1.6) (end -1.325 1.6) (layer F.SilkS) (width 0.15))
  (fp_line (start -1.6 -1.6) (end -1.6 1.6) (layer F.SilkS) (width 0.15))
  (fp_line (start -1.6 -1.6) (end -1.325 -1.6) (layer F.SilkS) (width 0.15))
  (fp_line (start 1.6 1.6) (end 1.325 1.6) (layer F.SilkS) (width 0.15))
  (fp_line (start 1.6 -1.6) (end 1.6 1.6) (layer F.SilkS) (width 0.15))
  (fp_line (start 1.6 -1.6) (end 1.325 -1.6) (layer F.SilkS) (width 0.15))
  (fp_line (start -1.5 1.5) (end -1.5 -1.5) (layer F.Fab) (width 0.05))
  (fp_line (start 1.5 1.5) (end -1.5 1.5) (layer F.Fab) (width 0.05))
  (fp_line (start 1.5 -1.5) (end 1.5 1.5) (layer F.Fab) (width 0.05))
  (fp_line (start -1.5 -1.5) (end 1.5 -1.5) (layer F.Fab) (width 0.05))
  (fp_line (start -0.39 2.44) (end -0.39 1.5) (layer F.Fab) (width 0.05))
  (fp_line (start 0.11 2.44) (end 0.11 1.5) (layer F.Fab) (width 0.05))
  (fp_line (start 0.61 2.44) (end 0.61 1.5) (layer F.Fab) (width 0.05))
  (fp_line (start 1.11 2.44) (end 1.11 1.5) (layer F.Fab) (width 0.05))
  (fp_line (start -0.61 2.44) (end -0.39 2.44) (layer F.Fab) (width 0.05))
  (fp_line (start -0.11 2.44) (end 0.11 2.44) (layer F.Fab) (width 0.05))
  (fp_line (start 0.39 2.44) (end 0.61 2.44) (layer F.Fab) (width 0.05))
  (fp_line (start 0.89 2.44) (end 1.11 2.44) (layer F.Fab) (width 0.05))
  (fp_circle (center -1.45 2) (end -1.379289 2) (layer F.SilkS) (width 0.25))
  (fp_line (start -1.7 -1.7) (end -1.225 -1.7) (layer F.CrtYd) (width 0.025))
  (fp_line (start -1.225 -1.7) (end -1.225 -3.2) (layer F.CrtYd) (width 0.025))
  (fp_line (start 1.7 -1.7) (end 1.225 -1.7) (layer F.CrtYd) (width 0.025))
  (fp_line (start 1.225 -1.7) (end 1.225 -3.2) (layer F.CrtYd) (width 0.025))
  (fp_line (start -1.7 2.225) (end -1.225 2.225) (layer F.CrtYd) (width 0.025))
  (fp_line (start -1.225 2.225) (end -1.225 3.2) (layer F.CrtYd) (width 0.025))
  (fp_line (start 1.7 1.7) (end 1.225 1.7) (layer F.CrtYd) (width 0.025))
  (fp_line (start 1.225 1.7) (end 1.225 3.2) (layer F.CrtYd) (width 0.025))
  (fp_line (start 1.225 3.2) (end -1.225 3.2) (layer F.CrtYd) (width 0.025))
  (fp_line (start -1.225 -3.2) (end 1.225 -3.2) (layer F.CrtYd) (width 0.025))
  (fp_line (start 1.7 -1.7) (end 1.7 1.7) (layer F.CrtYd) (width 0.025))
  (fp_line (start -1.7 2.225) (end -1.7 -1.7) (layer F.CrtYd) (width 0.025))
  (pad 11 smd rect (at 0 0) (size 1.98 1.73) (layers F.Cu F.Paste F.Mask)
    (solder_mask_margin 0.15) (solder_paste_margin -0.3) (thermal_width 1.5) (thermal_gap 0.7))
  (pad 5 smd rect (at 1 2.3) (size 0.3 1.65) (layers F.Cu F.Paste F.Mask)
    (solder_mask_margin 0.05) (solder_paste_margin -0.02) (thermal_width 0.2))
  (pad 6 smd rect (at 1 -2.3) (size 0.3 1.65) (layers F.Cu F.Paste F.Mask)
    (solder_mask_margin 0.05) (solder_paste_margin -0.02) (thermal_width 0.2))
  (pad 4 smd rect (at 0.5 2.3) (size 0.3 1.65) (layers F.Cu F.Paste F.Mask)
    (solder_mask_margin 0.05) (solder_paste_margin -0.02) (thermal_width 0.2))
  (pad 7 smd rect (at 0.5 -2.3) (size 0.3 1.65) (layers F.Cu F.Paste F.Mask)
    (solder_mask_margin 0.05) (solder_paste_margin -0.02) (thermal_width 0.2))
  (pad 3 smd rect (at 0 2.3) (size 0.3 1.65) (layers F.Cu F.Paste F.Mask)
    (solder_mask_margin 0.05) (solder_paste_margin -0.02) (thermal_width 0.2))
  (pad 8 smd rect (at 0 -2.3) (size 0.3 1.65) (layers F.Cu F.Paste F.Mask)
    (solder_mask_margin 0.05) (solder_paste_margin -0.02) (thermal_width 0.2))
  (pad 2 smd rect (at -0.5 2.3) (size 0.3 1.65) (layers F.Cu F.Paste F.Mask)
    (solder_mask_margin 0.05) (solder_paste_margin -0.02) (thermal_width 0.2))
  (pad 9 smd rect (at -0.5 -2.3) (size 0.3 1.65) (layers F.Cu F.Paste F.Mask)
    (solder_mask_margin 0.05) (solder_paste_margin -0.02) (thermal_width 0.2))
  (pad 1 smd rect (at -1 2.3) (size 0.3 1.65) (layers F.Cu F.Paste F.Mask)
    (solder_mask_margin 0.05) (solder_paste_margin -0.02) (thermal_width 0.2))
  (pad 10 smd rect (at -1 -2.3) (size 0.3 1.65) (layers F.Cu F.Paste F.Mask)
    (solder_mask_margin 0.05) (solder_paste_margin -0.02) (thermal_width 0.2))
  (model ${MY3DMOD}/MSOP-10_0.5mm_TP.STEP
    (at (xyz 0 0 0))
    (scale (xyz 1 1 1))
    (rotate (xyz 0 0 0))
  )
)
