(module QFN-24_4x4_0.5mm_TP (layer F.Cu) (tedit 5F3BB60E)
  (tags qfn24)
  (attr smd)
  (fp_text reference REF** (at 0 -2.775) (layer F.SilkS)
    (effects (font (size 0.6 0.6) (thickness 0.15)))
  )
  (fp_text value QFN-24_4x4_0.5mm_TP (at 0 1.39) (layer F.Fab)
    (effects (font (size 0.15 0.15) (thickness 0.035)))
  )
  (fp_line (start -2 -2) (end 2 -2) (layer F.Fab) (width 0.01))
  (fp_line (start 2 -2) (end 2 2) (layer F.Fab) (width 0.01))
  (fp_line (start 2 2) (end -2 2) (layer F.Fab) (width 0.01))
  (fp_line (start -2 2) (end -2 -2) (layer F.Fab) (width 0.01))
  (fp_line (start 1.65 -2.075) (end 2.075 -2.075) (layer F.SilkS) (width 0.15))
  (fp_line (start 2.075 -2.075) (end 2.075 -1.65) (layer F.SilkS) (width 0.15))
  (fp_line (start 2.075 1.65) (end 2.075 2.075) (layer F.SilkS) (width 0.15))
  (fp_line (start 2.075 2.075) (end 1.65 2.075) (layer F.SilkS) (width 0.15))
  (fp_line (start -1.65 2.075) (end -2.075 2.075) (layer F.SilkS) (width 0.15))
  (fp_line (start -2.075 2.075) (end -2.075 1.65) (layer F.SilkS) (width 0.15))
  (fp_line (start -2.3 -2.3) (end 2.3 -2.3) (layer F.CrtYd) (width 0.01))
  (fp_line (start 2.3 -2.3) (end 2.3 2.3) (layer F.CrtYd) (width 0.01))
  (fp_line (start 2.3 2.3) (end -2.3 2.3) (layer F.CrtYd) (width 0.01))
  (fp_line (start -2.3 2.3) (end -2.3 -2.3) (layer F.CrtYd) (width 0.01))
  (fp_poly (pts (xy -1.6 -1.12) (xy -2 -1.12) (xy -2 -1.38) (xy -1.6 -1.38)) (layer F.Fab) (width 0.01))
  (fp_poly (pts (xy -1.6 -0.62) (xy -2 -0.62) (xy -2 -0.88) (xy -1.6 -0.88)) (layer F.Fab) (width 0.01))
  (fp_poly (pts (xy -1.6 -0.12) (xy -2 -0.12) (xy -2 -0.38) (xy -1.6 -0.38)) (layer F.Fab) (width 0.01))
  (fp_poly (pts (xy -1.6 0.38) (xy -2 0.38) (xy -2 0.12) (xy -1.6 0.12)) (layer F.Fab) (width 0.01))
  (fp_poly (pts (xy -1.6 0.88) (xy -2 0.88) (xy -2 0.62) (xy -1.6 0.62)) (layer F.Fab) (width 0.01))
  (fp_poly (pts (xy -1.6 1.38) (xy -2 1.38) (xy -2 1.12) (xy -1.6 1.12)) (layer F.Fab) (width 0.01))
  (fp_poly (pts (xy -1.12 1.6) (xy -1.12 2) (xy -1.38 2) (xy -1.38 1.6)) (layer F.Fab) (width 0.01))
  (fp_poly (pts (xy 1.6 1.12) (xy 2 1.12) (xy 2 1.38) (xy 1.6 1.38)) (layer F.Fab) (width 0.01))
  (fp_poly (pts (xy 1.12 -1.6) (xy 1.12 -2) (xy 1.38 -2) (xy 1.38 -1.6)) (layer F.Fab) (width 0.01))
  (fp_poly (pts (xy 1.6 0.62) (xy 2 0.62) (xy 2 0.88) (xy 1.6 0.88)) (layer F.Fab) (width 0.01))
  (fp_poly (pts (xy 1.6 0.12) (xy 2 0.12) (xy 2 0.38) (xy 1.6 0.38)) (layer F.Fab) (width 0.01))
  (fp_poly (pts (xy 1.6 -0.38) (xy 2 -0.38) (xy 2 -0.12) (xy 1.6 -0.12)) (layer F.Fab) (width 0.01))
  (fp_poly (pts (xy 1.6 -0.88) (xy 2 -0.88) (xy 2 -0.62) (xy 1.6 -0.62)) (layer F.Fab) (width 0.01))
  (fp_poly (pts (xy 1.6 -1.38) (xy 2 -1.38) (xy 2 -1.12) (xy 1.6 -1.12)) (layer F.Fab) (width 0.01))
  (fp_poly (pts (xy 0.62 -1.6) (xy 0.62 -2) (xy 0.88 -2) (xy 0.88 -1.6)) (layer F.Fab) (width 0.01))
  (fp_poly (pts (xy 0.12 -1.6) (xy 0.12 -2) (xy 0.38 -2) (xy 0.38 -1.6)) (layer F.Fab) (width 0.01))
  (fp_poly (pts (xy -0.38 -1.6) (xy -0.38 -2) (xy -0.12 -2) (xy -0.12 -1.6)) (layer F.Fab) (width 0.01))
  (fp_poly (pts (xy -0.88 -1.6) (xy -0.88 -2) (xy -0.62 -2) (xy -0.62 -1.6)) (layer F.Fab) (width 0.01))
  (fp_poly (pts (xy -1.38 -1.6) (xy -1.38 -2) (xy -1.12 -2) (xy -1.12 -1.6)) (layer F.Fab) (width 0.01))
  (fp_poly (pts (xy -0.62 1.6) (xy -0.62 2) (xy -0.88 2) (xy -0.88 1.6)) (layer F.Fab) (width 0.01))
  (fp_poly (pts (xy -0.12 1.6) (xy -0.12 2) (xy -0.38 2) (xy -0.38 1.6)) (layer F.Fab) (width 0.01))
  (fp_poly (pts (xy 0.38 1.6) (xy 0.38 2) (xy 0.12 2) (xy 0.12 1.6)) (layer F.Fab) (width 0.01))
  (fp_poly (pts (xy 0.88 1.6) (xy 0.88 2) (xy 0.62 2) (xy 0.62 1.6)) (layer F.Fab) (width 0.01))
  (fp_poly (pts (xy 1.38 1.6) (xy 1.38 2) (xy 1.12 2) (xy 1.12 1.6)) (layer F.Fab) (width 0.01))
  (fp_poly (pts (xy 1.2 1.2) (xy -1.2 1.2) (xy -1.2 -0.9) (xy -0.9 -1.2)
    (xy 1.2 -1.2)) (layer F.Cu) (width 0.2))
  (fp_poly (pts (xy 1.25 1.25) (xy -1.25 1.25) (xy -1.25 -0.925) (xy -0.925 -1.25)
    (xy 1.25 -1.25)) (layer F.Mask) (width 0.2))
  (fp_circle (center -1.9 -1.9) (end -1.775 -1.9) (layer F.SilkS) (width 0.25))
  (pad 1 smd roundrect (at -1.9 -1.25) (size 0.7 0.32) (layers F.Cu F.Paste F.Mask) (roundrect_rratio 0.1)
    (solder_mask_margin 0.05) (solder_paste_margin -0.04) (clearance 0.175))
  (pad 25 smd roundrect (at -0.55 -0.55 270) (size 0.9 0.9) (layers F.Cu F.Paste) (roundrect_rratio 0.1)
    (die_length 5) (solder_mask_margin 0.05) (clearance 0.54))
  (pad 25 smd roundrect (at 0.55 -0.55 270) (size 0.9 0.9) (layers F.Cu F.Paste) (roundrect_rratio 0.1)
    (die_length 5) (solder_mask_margin 0.05) (clearance 0.54))
  (pad 25 smd roundrect (at -0.55 0.55 270) (size 0.9 0.9) (layers F.Cu F.Paste) (roundrect_rratio 0.1)
    (die_length 5) (solder_mask_margin 0.05) (clearance 0.54))
  (pad 25 smd roundrect (at 0.55 0.55 270) (size 0.9 0.9) (layers F.Cu F.Paste) (roundrect_rratio 0.1)
    (die_length 5) (solder_mask_margin 0.05) (clearance 0.54))
  (pad 7 smd roundrect (at -1.25 1.9 90) (size 0.7 0.32) (layers F.Cu F.Paste F.Mask) (roundrect_rratio 0.1)
    (solder_mask_margin 0.05) (solder_paste_margin -0.04) (clearance 0.175))
  (pad 13 smd roundrect (at 1.9 1.25 180) (size 0.7 0.32) (layers F.Cu F.Paste F.Mask) (roundrect_rratio 0.1)
    (solder_mask_margin 0.05) (solder_paste_margin -0.04) (clearance 0.175))
  (pad 19 smd roundrect (at 1.25 -1.9 270) (size 0.7 0.32) (layers F.Cu F.Paste F.Mask) (roundrect_rratio 0.1)
    (solder_mask_margin 0.05) (solder_paste_margin -0.04) (clearance 0.175))
  (pad 2 smd roundrect (at -1.9 -0.75) (size 0.7 0.32) (layers F.Cu F.Paste F.Mask) (roundrect_rratio 0.1)
    (solder_mask_margin 0.05) (solder_paste_margin -0.04) (clearance 0.175))
  (pad 3 smd roundrect (at -1.9 -0.25) (size 0.7 0.32) (layers F.Cu F.Paste F.Mask) (roundrect_rratio 0.1)
    (solder_mask_margin 0.05) (solder_paste_margin -0.04) (clearance 0.175))
  (pad 4 smd roundrect (at -1.9 0.25) (size 0.7 0.32) (layers F.Cu F.Paste F.Mask) (roundrect_rratio 0.1)
    (solder_mask_margin 0.05) (solder_paste_margin -0.04) (clearance 0.175))
  (pad 5 smd roundrect (at -1.9 0.75) (size 0.7 0.32) (layers F.Cu F.Paste F.Mask) (roundrect_rratio 0.1)
    (solder_mask_margin 0.05) (solder_paste_margin -0.04) (clearance 0.175))
  (pad 6 smd roundrect (at -1.9 1.25) (size 0.7 0.32) (layers F.Cu F.Paste F.Mask) (roundrect_rratio 0.1)
    (solder_mask_margin 0.05) (solder_paste_margin -0.04) (clearance 0.175))
  (pad 8 smd roundrect (at -0.75 1.9 90) (size 0.7 0.32) (layers F.Cu F.Paste F.Mask) (roundrect_rratio 0.1)
    (solder_mask_margin 0.05) (solder_paste_margin -0.04) (clearance 0.175))
  (pad 9 smd roundrect (at -0.25 1.9 90) (size 0.7 0.32) (layers F.Cu F.Paste F.Mask) (roundrect_rratio 0.1)
    (solder_mask_margin 0.05) (solder_paste_margin -0.04) (clearance 0.175))
  (pad 10 smd roundrect (at 0.25 1.9 90) (size 0.7 0.32) (layers F.Cu F.Paste F.Mask) (roundrect_rratio 0.1)
    (solder_mask_margin 0.05) (solder_paste_margin -0.04) (clearance 0.175))
  (pad 11 smd roundrect (at 0.75 1.9 90) (size 0.7 0.32) (layers F.Cu F.Paste F.Mask) (roundrect_rratio 0.1)
    (solder_mask_margin 0.05) (solder_paste_margin -0.04) (clearance 0.175))
  (pad 12 smd roundrect (at 1.25 1.9 90) (size 0.7 0.32) (layers F.Cu F.Paste F.Mask) (roundrect_rratio 0.1)
    (solder_mask_margin 0.05) (solder_paste_margin -0.04) (clearance 0.175))
  (pad 14 smd roundrect (at 1.9 0.75 180) (size 0.7 0.32) (layers F.Cu F.Paste F.Mask) (roundrect_rratio 0.1)
    (solder_mask_margin 0.05) (solder_paste_margin -0.04) (clearance 0.175))
  (pad 15 smd roundrect (at 1.9 0.25 180) (size 0.7 0.32) (layers F.Cu F.Paste F.Mask) (roundrect_rratio 0.1)
    (solder_mask_margin 0.05) (solder_paste_margin -0.04) (clearance 0.175))
  (pad 16 smd roundrect (at 1.9 -0.25 180) (size 0.7 0.32) (layers F.Cu F.Paste F.Mask) (roundrect_rratio 0.1)
    (solder_mask_margin 0.05) (solder_paste_margin -0.04) (clearance 0.175))
  (pad 17 smd roundrect (at 1.9 -0.75 180) (size 0.7 0.32) (layers F.Cu F.Paste F.Mask) (roundrect_rratio 0.1)
    (solder_mask_margin 0.05) (solder_paste_margin -0.04) (clearance 0.175))
  (pad 18 smd roundrect (at 1.9 -1.25 180) (size 0.7 0.32) (layers F.Cu F.Paste F.Mask) (roundrect_rratio 0.1)
    (solder_mask_margin 0.05) (solder_paste_margin -0.04) (clearance 0.175))
  (pad 20 smd roundrect (at 0.75 -1.9 270) (size 0.7 0.32) (layers F.Cu F.Paste F.Mask) (roundrect_rratio 0.1)
    (solder_mask_margin 0.05) (solder_paste_margin -0.04) (clearance 0.175))
  (pad 21 smd roundrect (at 0.25 -1.9 270) (size 0.7 0.32) (layers F.Cu F.Paste F.Mask) (roundrect_rratio 0.1)
    (solder_mask_margin 0.05) (solder_paste_margin -0.04) (clearance 0.175))
  (pad 22 smd roundrect (at -0.25 -1.9 270) (size 0.7 0.32) (layers F.Cu F.Paste F.Mask) (roundrect_rratio 0.1)
    (solder_mask_margin 0.05) (solder_paste_margin -0.04) (clearance 0.175))
  (pad 23 smd roundrect (at -0.75 -1.9 270) (size 0.7 0.32) (layers F.Cu F.Paste F.Mask) (roundrect_rratio 0.1)
    (solder_mask_margin 0.05) (solder_paste_margin -0.04) (clearance 0.175))
  (pad 24 smd roundrect (at -1.25 -1.9 270) (size 0.7 0.32) (layers F.Cu F.Paste F.Mask) (roundrect_rratio 0.1)
    (solder_mask_margin 0.05) (solder_paste_margin -0.04) (clearance 0.175))
)
