(module QFP-32_7x7_0.8mm (layer F.Cu) (tedit 59947DAC)
  (fp_text reference REF** (at 0 0) (layer F.SilkS)
    (effects (font (size 0.7 0.7) (thickness 0.15)))
  )
  (fp_text value QFP-32_7x7_0.8mm (at 0 0.9) (layer F.Fab)
    (effects (font (size 0.4 0.4) (thickness 0.075)))
  )
  (fp_line (start -5.6 -3.2) (end -5.6 3.2) (layer F.CrtYd) (width 0.1))
  (fp_line (start 3.2 -5.6) (end -3.2 -5.6) (layer F.CrtYd) (width 0.1))
  (fp_line (start 5.6 3.2) (end 5.6 -3.2) (layer F.CrtYd) (width 0.1))
  (fp_line (start -3.2 5.6) (end 3.2 5.6) (layer F.CrtYd) (width 0.1))
  (fp_line (start -3.2 5.6) (end -3.2 3.6) (layer F.CrtYd) (width 0.1))
  (fp_line (start -3.2 3.6) (end -3.6 3.6) (layer F.CrtYd) (width 0.1))
  (fp_line (start -3.6 3.6) (end -3.6 3.2) (layer F.CrtYd) (width 0.1))
  (fp_line (start -3.6 3.2) (end -5.6 3.2) (layer F.CrtYd) (width 0.1))
  (fp_line (start 5.6 3.2) (end 3.6 3.2) (layer F.CrtYd) (width 0.1))
  (fp_line (start 3.6 3.2) (end 3.6 3.6) (layer F.CrtYd) (width 0.1))
  (fp_line (start 3.6 3.6) (end 3.2 3.6) (layer F.CrtYd) (width 0.1))
  (fp_line (start 3.2 3.6) (end 3.2 5.6) (layer F.CrtYd) (width 0.1))
  (fp_line (start 3.2 -5.6) (end 3.2 -3.6) (layer F.CrtYd) (width 0.1))
  (fp_line (start 3.2 -3.6) (end 3.6 -3.6) (layer F.CrtYd) (width 0.1))
  (fp_line (start 3.6 -3.6) (end 3.6 -3.2) (layer F.CrtYd) (width 0.1))
  (fp_line (start 3.6 -3.2) (end 5.6 -3.2) (layer F.CrtYd) (width 0.1))
  (fp_line (start -5.6 -3.2) (end -3.6 -3.2) (layer F.CrtYd) (width 0.1))
  (fp_line (start -3.6 -3.2) (end -3.6 -3.6) (layer F.CrtYd) (width 0.1))
  (fp_line (start -3.6 -3.6) (end -3.2 -3.6) (layer F.CrtYd) (width 0.1))
  (fp_line (start -3.2 -3.6) (end -3.2 -5.6) (layer F.CrtYd) (width 0.1))
  (fp_line (start 3.1 3.3) (end -3.1 3.3) (layer F.SilkS) (width 0.15))
  (fp_line (start 3.3 -3.1) (end 3.3 3.1) (layer F.SilkS) (width 0.15))
  (fp_line (start -3.1 -3.3) (end 3.1 -3.3) (layer F.SilkS) (width 0.15))
  (fp_line (start -3.3 3.1) (end -3.3 -3.1) (layer F.SilkS) (width 0.15))
  (fp_arc (start -3.1 3.1) (end -3.1 3.3) (angle 90) (layer F.SilkS) (width 0.15))
  (fp_arc (start 3.1 3.1) (end 3.3 3.1) (angle 90) (layer F.SilkS) (width 0.15))
  (fp_arc (start 3.1 -3.1) (end 3.1 -3.3) (angle 90) (layer F.SilkS) (width 0.15))
  (fp_arc (start -3.1 -3.1) (end -3.3 -3.1) (angle 90) (layer F.SilkS) (width 0.15))
  (fp_circle (center -2.8 -2.8) (end -2.8 -2.6) (layer F.SilkS) (width 0.15))
  (fp_circle (center -2.8 -2.8) (end -2.8 -2.6) (layer F.Fab) (width 0.05))
  (fp_line (start -3.5 3.5) (end 3.5 3.5) (layer F.Fab) (width 0.05))
  (fp_line (start 3.5 3.5) (end 3.5 -3.5) (layer F.Fab) (width 0.05))
  (fp_line (start 3.5 -3.5) (end -3.5 -3.5) (layer F.Fab) (width 0.05))
  (fp_line (start -3.5 -3.5) (end -3.5 3.5) (layer F.Fab) (width 0.05))
  (pad 1 smd rect (at -4.5 -2.8) (size 2 0.55) (layers F.Cu F.Paste F.Mask))
  (pad 2 smd rect (at -4.5 -2) (size 2 0.55) (layers F.Cu F.Paste F.Mask))
  (pad 3 smd rect (at -4.5 -1.2) (size 2 0.55) (layers F.Cu F.Paste F.Mask))
  (pad 4 smd rect (at -4.5 -0.4) (size 2 0.55) (layers F.Cu F.Paste F.Mask))
  (pad 5 smd rect (at -4.5 0.4) (size 2 0.55) (layers F.Cu F.Paste F.Mask))
  (pad 6 smd rect (at -4.5 1.2) (size 2 0.55) (layers F.Cu F.Paste F.Mask))
  (pad 7 smd rect (at -4.5 2) (size 2 0.55) (layers F.Cu F.Paste F.Mask))
  (pad 8 smd rect (at -4.5 2.8) (size 2 0.55) (layers F.Cu F.Paste F.Mask))
  (pad 9 smd rect (at -2.8 4.5 90) (size 2 0.55) (layers F.Cu F.Paste F.Mask))
  (pad 10 smd rect (at -2 4.5 90) (size 2 0.55) (layers F.Cu F.Paste F.Mask))
  (pad 11 smd rect (at -1.2 4.5 90) (size 2 0.55) (layers F.Cu F.Paste F.Mask))
  (pad 12 smd rect (at -0.4 4.5 90) (size 2 0.55) (layers F.Cu F.Paste F.Mask))
  (pad 13 smd rect (at 0.4 4.5 90) (size 2 0.55) (layers F.Cu F.Paste F.Mask))
  (pad 14 smd rect (at 1.2 4.5 90) (size 2 0.55) (layers F.Cu F.Paste F.Mask))
  (pad 15 smd rect (at 2 4.5 90) (size 2 0.55) (layers F.Cu F.Paste F.Mask))
  (pad 16 smd rect (at 2.8 4.5 90) (size 2 0.55) (layers F.Cu F.Paste F.Mask))
  (pad 17 smd rect (at 4.5 2.8) (size 2 0.55) (layers F.Cu F.Paste F.Mask))
  (pad 26 smd rect (at 2.8 -4.5 90) (size 2 0.55) (layers F.Cu F.Paste F.Mask))
  (pad 18 smd rect (at 4.5 2) (size 2 0.55) (layers F.Cu F.Paste F.Mask))
  (pad 19 smd rect (at 4.5 1.2) (size 2 0.55) (layers F.Cu F.Paste F.Mask))
  (pad 20 smd rect (at 4.5 0.4) (size 2 0.55) (layers F.Cu F.Paste F.Mask))
  (pad 21 smd rect (at 4.5 -0.4) (size 2 0.55) (layers F.Cu F.Paste F.Mask))
  (pad 22 smd rect (at 4.5 -1.2) (size 2 0.55) (layers F.Cu F.Paste F.Mask))
  (pad 23 smd rect (at 4.5 -2) (size 2 0.55) (layers F.Cu F.Paste F.Mask))
  (pad 25 smd rect (at 4.5 -2.8) (size 2 0.55) (layers F.Cu F.Paste F.Mask))
  (pad 24 smd rect (at 2 -4.5 90) (size 2 0.55) (layers F.Cu F.Paste F.Mask))
  (pad 27 smd rect (at 1.2 -4.5 90) (size 2 0.55) (layers F.Cu F.Paste F.Mask))
  (pad 28 smd rect (at 0.4 -4.5 90) (size 2 0.55) (layers F.Cu F.Paste F.Mask))
  (pad 29 smd rect (at -0.4 -4.5 90) (size 2 0.55) (layers F.Cu F.Paste F.Mask))
  (pad 30 smd rect (at -1.2 -4.5 90) (size 2 0.55) (layers F.Cu F.Paste F.Mask))
  (pad 31 smd rect (at -2 -4.5 90) (size 2 0.55) (layers F.Cu F.Paste F.Mask))
  (pad 32 smd rect (at -2.8 -4.5 90) (size 2 0.55) (layers F.Cu F.Paste F.Mask))
)
