(module QFP-120_14x14_0.4mm_TP (layer F.Cu) (tedit 60421729)
  (descr "Quad Flat Pack 120pin 14x14mm, 0.4mm pin pitch, with thermal pad")
  (tags "qfp 120 tp")
  (autoplace_cost90 10)
  (autoplace_cost180 10)
  (attr smd)
  (fp_text reference REF** (at 0 -9.05) (layer F.SilkS)
    (effects (font (size 0.7 0.7) (thickness 0.15)))
  )
  (fp_text value QFP-120_14x14_0.4mm_TP (at 0 5) (layer F.Fab)
    (effects (font (size 0.4 0.4) (thickness 0.075)))
  )
  (fp_circle (center -6.95 -6.95) (end -6.85 -6.95) (layer F.SilkS) (width 0.3))
  (fp_poly (pts (xy -1.5 2.4) (xy -2.4 2.4) (xy -2.4 1.5) (xy -1.5 1.5)) (layer F.Paste) (width 0.1))
  (fp_line (start -5.7 -8) (end -5.9 -8) (layer F.Fab) (width 0.01))
  (fp_line (start -5.3 -8) (end -5.5 -8) (layer F.Fab) (width 0.01))
  (fp_line (start -4.9 -8) (end -5.1 -8) (layer F.Fab) (width 0.01))
  (fp_line (start -4.5 -8) (end -4.7 -8) (layer F.Fab) (width 0.01))
  (fp_line (start -4.1 -8) (end -4.3 -8) (layer F.Fab) (width 0.01))
  (fp_line (start -3.7 -8) (end -3.9 -8) (layer F.Fab) (width 0.01))
  (fp_line (start -3.3 -8) (end -3.5 -8) (layer F.Fab) (width 0.01))
  (fp_line (start -2.9 -8) (end -3.1 -8) (layer F.Fab) (width 0.01))
  (fp_line (start -2.5 -8) (end -2.7 -8) (layer F.Fab) (width 0.01))
  (fp_line (start -2.1 -8) (end -2.3 -8) (layer F.Fab) (width 0.01))
  (fp_line (start -1.7 -8) (end -1.9 -8) (layer F.Fab) (width 0.01))
  (fp_line (start -1.3 -8) (end -1.5 -8) (layer F.Fab) (width 0.01))
  (fp_line (start -0.9 -8) (end -1.1 -8) (layer F.Fab) (width 0.01))
  (fp_line (start -0.5 -8) (end -0.7 -8) (layer F.Fab) (width 0.01))
  (fp_line (start -0.1 -8) (end -0.3 -8) (layer F.Fab) (width 0.01))
  (fp_line (start 0.3 -8) (end 0.1 -8) (layer F.Fab) (width 0.01))
  (fp_line (start 0.7 -8) (end 0.5 -8) (layer F.Fab) (width 0.01))
  (fp_line (start 1.1 -8) (end 0.9 -8) (layer F.Fab) (width 0.01))
  (fp_line (start 1.5 -8) (end 1.3 -8) (layer F.Fab) (width 0.01))
  (fp_line (start 1.9 -8) (end 1.7 -8) (layer F.Fab) (width 0.01))
  (fp_line (start 2.3 -8) (end 2.1 -8) (layer F.Fab) (width 0.01))
  (fp_line (start 2.7 -8) (end 2.5 -8) (layer F.Fab) (width 0.01))
  (fp_line (start 3.1 -8) (end 2.9 -8) (layer F.Fab) (width 0.01))
  (fp_line (start 3.5 -8) (end 3.3 -8) (layer F.Fab) (width 0.01))
  (fp_line (start 3.9 -8) (end 3.7 -8) (layer F.Fab) (width 0.01))
  (fp_line (start 4.3 -8) (end 4.1 -8) (layer F.Fab) (width 0.01))
  (fp_line (start 4.7 -8) (end 4.5 -8) (layer F.Fab) (width 0.01))
  (fp_line (start 5.1 -8) (end 4.9 -8) (layer F.Fab) (width 0.01))
  (fp_line (start 5.5 -8) (end 5.3 -8) (layer F.Fab) (width 0.01))
  (fp_line (start -5.7 -7) (end -5.7 -8) (layer F.Fab) (width 0.01))
  (fp_line (start -5.3 -7) (end -5.3 -8) (layer F.Fab) (width 0.01))
  (fp_line (start -4.9 -7) (end -4.9 -8) (layer F.Fab) (width 0.01))
  (fp_line (start -4.5 -7) (end -4.5 -8) (layer F.Fab) (width 0.01))
  (fp_line (start -4.1 -7) (end -4.1 -8) (layer F.Fab) (width 0.01))
  (fp_line (start -3.7 -7) (end -3.7 -8) (layer F.Fab) (width 0.01))
  (fp_line (start -3.3 -7) (end -3.3 -8) (layer F.Fab) (width 0.01))
  (fp_line (start -2.9 -7) (end -2.9 -8) (layer F.Fab) (width 0.01))
  (fp_line (start -2.5 -7) (end -2.5 -8) (layer F.Fab) (width 0.01))
  (fp_line (start -2.1 -7) (end -2.1 -8) (layer F.Fab) (width 0.01))
  (fp_line (start -1.7 -7) (end -1.7 -8) (layer F.Fab) (width 0.01))
  (fp_line (start -1.3 -7) (end -1.3 -8) (layer F.Fab) (width 0.01))
  (fp_line (start -0.9 -7) (end -0.9 -8) (layer F.Fab) (width 0.01))
  (fp_line (start -0.5 -7) (end -0.5 -8) (layer F.Fab) (width 0.01))
  (fp_line (start -0.1 -7) (end -0.1 -8) (layer F.Fab) (width 0.01))
  (fp_line (start 0.3 -7) (end 0.3 -8) (layer F.Fab) (width 0.01))
  (fp_line (start 0.7 -7) (end 0.7 -8) (layer F.Fab) (width 0.01))
  (fp_line (start 1.1 -7) (end 1.1 -8) (layer F.Fab) (width 0.01))
  (fp_line (start 1.5 -7) (end 1.5 -8) (layer F.Fab) (width 0.01))
  (fp_line (start 1.9 -7) (end 1.9 -8) (layer F.Fab) (width 0.01))
  (fp_line (start 2.3 -7) (end 2.3 -8) (layer F.Fab) (width 0.01))
  (fp_line (start 2.7 -7) (end 2.7 -8) (layer F.Fab) (width 0.01))
  (fp_line (start 3.1 -7) (end 3.1 -8) (layer F.Fab) (width 0.01))
  (fp_line (start 3.5 -7) (end 3.5 -8) (layer F.Fab) (width 0.01))
  (fp_line (start 3.9 -7) (end 3.9 -8) (layer F.Fab) (width 0.01))
  (fp_line (start 4.3 -7) (end 4.3 -8) (layer F.Fab) (width 0.01))
  (fp_line (start 4.7 -7) (end 4.7 -8) (layer F.Fab) (width 0.01))
  (fp_line (start 5.1 -7) (end 5.1 -8) (layer F.Fab) (width 0.01))
  (fp_line (start 5.5 -7) (end 5.5 -8) (layer F.Fab) (width 0.01))
  (fp_line (start -5.9 -8) (end -5.9 -7) (layer F.Fab) (width 0.01))
  (fp_line (start -5.5 -8) (end -5.5 -7) (layer F.Fab) (width 0.01))
  (fp_line (start -5.1 -8) (end -5.1 -7) (layer F.Fab) (width 0.01))
  (fp_line (start -4.7 -8) (end -4.7 -7) (layer F.Fab) (width 0.01))
  (fp_line (start -4.3 -8) (end -4.3 -7) (layer F.Fab) (width 0.01))
  (fp_line (start -3.9 -8) (end -3.9 -7) (layer F.Fab) (width 0.01))
  (fp_line (start -3.5 -8) (end -3.5 -7) (layer F.Fab) (width 0.01))
  (fp_line (start -3.1 -8) (end -3.1 -7) (layer F.Fab) (width 0.01))
  (fp_line (start -2.7 -8) (end -2.7 -7) (layer F.Fab) (width 0.01))
  (fp_line (start -2.3 -8) (end -2.3 -7) (layer F.Fab) (width 0.01))
  (fp_line (start -1.9 -8) (end -1.9 -7) (layer F.Fab) (width 0.01))
  (fp_line (start -1.5 -8) (end -1.5 -7) (layer F.Fab) (width 0.01))
  (fp_line (start -1.1 -8) (end -1.1 -7) (layer F.Fab) (width 0.01))
  (fp_line (start -0.7 -8) (end -0.7 -7) (layer F.Fab) (width 0.01))
  (fp_line (start -0.3 -8) (end -0.3 -7) (layer F.Fab) (width 0.01))
  (fp_line (start 0.1 -8) (end 0.1 -7) (layer F.Fab) (width 0.01))
  (fp_line (start 0.5 -8) (end 0.5 -7) (layer F.Fab) (width 0.01))
  (fp_line (start 0.9 -8) (end 0.9 -7) (layer F.Fab) (width 0.01))
  (fp_line (start 1.3 -8) (end 1.3 -7) (layer F.Fab) (width 0.01))
  (fp_line (start 1.7 -8) (end 1.7 -7) (layer F.Fab) (width 0.01))
  (fp_line (start 2.1 -8) (end 2.1 -7) (layer F.Fab) (width 0.01))
  (fp_line (start 2.5 -8) (end 2.5 -7) (layer F.Fab) (width 0.01))
  (fp_line (start 2.9 -8) (end 2.9 -7) (layer F.Fab) (width 0.01))
  (fp_line (start 3.3 -8) (end 3.3 -7) (layer F.Fab) (width 0.01))
  (fp_line (start 3.7 -8) (end 3.7 -7) (layer F.Fab) (width 0.01))
  (fp_line (start 4.1 -8) (end 4.1 -7) (layer F.Fab) (width 0.01))
  (fp_line (start 4.5 -8) (end 4.5 -7) (layer F.Fab) (width 0.01))
  (fp_line (start 4.9 -8) (end 4.9 -7) (layer F.Fab) (width 0.01))
  (fp_line (start 5.3 -8) (end 5.3 -7) (layer F.Fab) (width 0.01))
  (fp_line (start 5.7 7) (end 5.7 8) (layer F.Fab) (width 0.01))
  (fp_line (start 5.3 7) (end 5.3 8) (layer F.Fab) (width 0.01))
  (fp_line (start 4.9 7) (end 4.9 8) (layer F.Fab) (width 0.01))
  (fp_line (start 4.5 7) (end 4.5 8) (layer F.Fab) (width 0.01))
  (fp_line (start 4.1 7) (end 4.1 8) (layer F.Fab) (width 0.01))
  (fp_line (start 3.7 7) (end 3.7 8) (layer F.Fab) (width 0.01))
  (fp_line (start 3.3 7) (end 3.3 8) (layer F.Fab) (width 0.01))
  (fp_line (start 2.9 7) (end 2.9 8) (layer F.Fab) (width 0.01))
  (fp_line (start 2.5 7) (end 2.5 8) (layer F.Fab) (width 0.01))
  (fp_line (start 2.1 7) (end 2.1 8) (layer F.Fab) (width 0.01))
  (fp_line (start 1.7 7) (end 1.7 8) (layer F.Fab) (width 0.01))
  (fp_line (start 1.3 7) (end 1.3 8) (layer F.Fab) (width 0.01))
  (fp_line (start 0.9 7) (end 0.9 8) (layer F.Fab) (width 0.01))
  (fp_line (start 0.5 7) (end 0.5 8) (layer F.Fab) (width 0.01))
  (fp_line (start 0.1 7) (end 0.1 8) (layer F.Fab) (width 0.01))
  (fp_line (start -0.3 7) (end -0.3 8) (layer F.Fab) (width 0.01))
  (fp_line (start -0.7 7) (end -0.7 8) (layer F.Fab) (width 0.01))
  (fp_line (start -1.1 7) (end -1.1 8) (layer F.Fab) (width 0.01))
  (fp_line (start -1.5 7) (end -1.5 8) (layer F.Fab) (width 0.01))
  (fp_line (start -1.9 7) (end -1.9 8) (layer F.Fab) (width 0.01))
  (fp_line (start -2.3 7) (end -2.3 8) (layer F.Fab) (width 0.01))
  (fp_line (start -2.7 7) (end -2.7 8) (layer F.Fab) (width 0.01))
  (fp_line (start -3.1 7) (end -3.1 8) (layer F.Fab) (width 0.01))
  (fp_line (start -3.5 7) (end -3.5 8) (layer F.Fab) (width 0.01))
  (fp_line (start -3.9 7) (end -3.9 8) (layer F.Fab) (width 0.01))
  (fp_line (start -4.3 7) (end -4.3 8) (layer F.Fab) (width 0.01))
  (fp_line (start -4.7 7) (end -4.7 8) (layer F.Fab) (width 0.01))
  (fp_line (start -5.1 7) (end -5.1 8) (layer F.Fab) (width 0.01))
  (fp_line (start -5.5 7) (end -5.5 8) (layer F.Fab) (width 0.01))
  (fp_line (start 5.7 8) (end 5.9 8) (layer F.Fab) (width 0.01))
  (fp_line (start 5.3 8) (end 5.5 8) (layer F.Fab) (width 0.01))
  (fp_line (start 4.9 8) (end 5.1 8) (layer F.Fab) (width 0.01))
  (fp_line (start 4.5 8) (end 4.7 8) (layer F.Fab) (width 0.01))
  (fp_line (start 4.1 8) (end 4.3 8) (layer F.Fab) (width 0.01))
  (fp_line (start 3.7 8) (end 3.9 8) (layer F.Fab) (width 0.01))
  (fp_line (start 3.3 8) (end 3.5 8) (layer F.Fab) (width 0.01))
  (fp_line (start 2.9 8) (end 3.1 8) (layer F.Fab) (width 0.01))
  (fp_line (start 2.5 8) (end 2.7 8) (layer F.Fab) (width 0.01))
  (fp_line (start 2.1 8) (end 2.3 8) (layer F.Fab) (width 0.01))
  (fp_line (start 1.7 8) (end 1.9 8) (layer F.Fab) (width 0.01))
  (fp_line (start 1.3 8) (end 1.5 8) (layer F.Fab) (width 0.01))
  (fp_line (start 0.9 8) (end 1.1 8) (layer F.Fab) (width 0.01))
  (fp_line (start 0.5 8) (end 0.7 8) (layer F.Fab) (width 0.01))
  (fp_line (start 0.1 8) (end 0.3 8) (layer F.Fab) (width 0.01))
  (fp_line (start -0.3 8) (end -0.1 8) (layer F.Fab) (width 0.01))
  (fp_line (start -0.7 8) (end -0.5 8) (layer F.Fab) (width 0.01))
  (fp_line (start -1.1 8) (end -0.9 8) (layer F.Fab) (width 0.01))
  (fp_line (start -1.5 8) (end -1.3 8) (layer F.Fab) (width 0.01))
  (fp_line (start -1.9 8) (end -1.7 8) (layer F.Fab) (width 0.01))
  (fp_line (start -2.3 8) (end -2.1 8) (layer F.Fab) (width 0.01))
  (fp_line (start -2.7 8) (end -2.5 8) (layer F.Fab) (width 0.01))
  (fp_line (start -3.1 8) (end -2.9 8) (layer F.Fab) (width 0.01))
  (fp_line (start -3.5 8) (end -3.3 8) (layer F.Fab) (width 0.01))
  (fp_line (start -3.9 8) (end -3.7 8) (layer F.Fab) (width 0.01))
  (fp_line (start -4.3 8) (end -4.1 8) (layer F.Fab) (width 0.01))
  (fp_line (start -4.7 8) (end -4.5 8) (layer F.Fab) (width 0.01))
  (fp_line (start -5.1 8) (end -4.9 8) (layer F.Fab) (width 0.01))
  (fp_line (start -5.5 8) (end -5.3 8) (layer F.Fab) (width 0.01))
  (fp_line (start 5.9 8) (end 5.9 7) (layer F.Fab) (width 0.01))
  (fp_line (start 5.5 8) (end 5.5 7) (layer F.Fab) (width 0.01))
  (fp_line (start 5.1 8) (end 5.1 7) (layer F.Fab) (width 0.01))
  (fp_line (start 4.7 8) (end 4.7 7) (layer F.Fab) (width 0.01))
  (fp_line (start 4.3 8) (end 4.3 7) (layer F.Fab) (width 0.01))
  (fp_line (start 3.9 8) (end 3.9 7) (layer F.Fab) (width 0.01))
  (fp_line (start 3.5 8) (end 3.5 7) (layer F.Fab) (width 0.01))
  (fp_line (start 3.1 8) (end 3.1 7) (layer F.Fab) (width 0.01))
  (fp_line (start 2.7 8) (end 2.7 7) (layer F.Fab) (width 0.01))
  (fp_line (start 2.3 8) (end 2.3 7) (layer F.Fab) (width 0.01))
  (fp_line (start 1.9 8) (end 1.9 7) (layer F.Fab) (width 0.01))
  (fp_line (start 1.5 8) (end 1.5 7) (layer F.Fab) (width 0.01))
  (fp_line (start 1.1 8) (end 1.1 7) (layer F.Fab) (width 0.01))
  (fp_line (start 0.7 8) (end 0.7 7) (layer F.Fab) (width 0.01))
  (fp_line (start 0.3 8) (end 0.3 7) (layer F.Fab) (width 0.01))
  (fp_line (start -0.1 8) (end -0.1 7) (layer F.Fab) (width 0.01))
  (fp_line (start -0.5 8) (end -0.5 7) (layer F.Fab) (width 0.01))
  (fp_line (start -0.9 8) (end -0.9 7) (layer F.Fab) (width 0.01))
  (fp_line (start -1.3 8) (end -1.3 7) (layer F.Fab) (width 0.01))
  (fp_line (start -1.7 8) (end -1.7 7) (layer F.Fab) (width 0.01))
  (fp_line (start -2.1 8) (end -2.1 7) (layer F.Fab) (width 0.01))
  (fp_line (start -2.5 8) (end -2.5 7) (layer F.Fab) (width 0.01))
  (fp_line (start -2.9 8) (end -2.9 7) (layer F.Fab) (width 0.01))
  (fp_line (start -3.3 8) (end -3.3 7) (layer F.Fab) (width 0.01))
  (fp_line (start -3.7 8) (end -3.7 7) (layer F.Fab) (width 0.01))
  (fp_line (start -4.1 8) (end -4.1 7) (layer F.Fab) (width 0.01))
  (fp_line (start -4.5 8) (end -4.5 7) (layer F.Fab) (width 0.01))
  (fp_line (start -4.9 8) (end -4.9 7) (layer F.Fab) (width 0.01))
  (fp_line (start -5.3 8) (end -5.3 7) (layer F.Fab) (width 0.01))
  (fp_line (start 7 -5.7) (end 8 -5.7) (layer F.Fab) (width 0.01))
  (fp_line (start 7 -5.3) (end 8 -5.3) (layer F.Fab) (width 0.01))
  (fp_line (start 7 -4.9) (end 8 -4.9) (layer F.Fab) (width 0.01))
  (fp_line (start 7 -4.5) (end 8 -4.5) (layer F.Fab) (width 0.01))
  (fp_line (start 7 -4.1) (end 8 -4.1) (layer F.Fab) (width 0.01))
  (fp_line (start 7 -3.7) (end 8 -3.7) (layer F.Fab) (width 0.01))
  (fp_line (start 7 -3.3) (end 8 -3.3) (layer F.Fab) (width 0.01))
  (fp_line (start 7 -2.9) (end 8 -2.9) (layer F.Fab) (width 0.01))
  (fp_line (start 7 -2.5) (end 8 -2.5) (layer F.Fab) (width 0.01))
  (fp_line (start 7 -2.1) (end 8 -2.1) (layer F.Fab) (width 0.01))
  (fp_line (start 7 -1.7) (end 8 -1.7) (layer F.Fab) (width 0.01))
  (fp_line (start 7 -1.3) (end 8 -1.3) (layer F.Fab) (width 0.01))
  (fp_line (start 7 -0.9) (end 8 -0.9) (layer F.Fab) (width 0.01))
  (fp_line (start 7 -0.5) (end 8 -0.5) (layer F.Fab) (width 0.01))
  (fp_line (start 7 -0.1) (end 8 -0.1) (layer F.Fab) (width 0.01))
  (fp_line (start 7 0.3) (end 8 0.3) (layer F.Fab) (width 0.01))
  (fp_line (start 7 0.7) (end 8 0.7) (layer F.Fab) (width 0.01))
  (fp_line (start 7 1.1) (end 8 1.1) (layer F.Fab) (width 0.01))
  (fp_line (start 7 1.5) (end 8 1.5) (layer F.Fab) (width 0.01))
  (fp_line (start 7 1.9) (end 8 1.9) (layer F.Fab) (width 0.01))
  (fp_line (start 7 2.3) (end 8 2.3) (layer F.Fab) (width 0.01))
  (fp_line (start 7 2.7) (end 8 2.7) (layer F.Fab) (width 0.01))
  (fp_line (start 7 3.1) (end 8 3.1) (layer F.Fab) (width 0.01))
  (fp_line (start 7 3.5) (end 8 3.5) (layer F.Fab) (width 0.01))
  (fp_line (start 7 3.9) (end 8 3.9) (layer F.Fab) (width 0.01))
  (fp_line (start 7 4.3) (end 8 4.3) (layer F.Fab) (width 0.01))
  (fp_line (start 7 4.7) (end 8 4.7) (layer F.Fab) (width 0.01))
  (fp_line (start 7 5.1) (end 8 5.1) (layer F.Fab) (width 0.01))
  (fp_line (start 7 5.5) (end 8 5.5) (layer F.Fab) (width 0.01))
  (fp_line (start 8 -5.7) (end 8 -5.9) (layer F.Fab) (width 0.01))
  (fp_line (start 8 -5.3) (end 8 -5.5) (layer F.Fab) (width 0.01))
  (fp_line (start 8 -4.9) (end 8 -5.1) (layer F.Fab) (width 0.01))
  (fp_line (start 8 -4.5) (end 8 -4.7) (layer F.Fab) (width 0.01))
  (fp_line (start 8 -4.1) (end 8 -4.3) (layer F.Fab) (width 0.01))
  (fp_line (start 8 -3.7) (end 8 -3.9) (layer F.Fab) (width 0.01))
  (fp_line (start 8 -3.3) (end 8 -3.5) (layer F.Fab) (width 0.01))
  (fp_line (start 8 -2.9) (end 8 -3.1) (layer F.Fab) (width 0.01))
  (fp_line (start 8 -2.5) (end 8 -2.7) (layer F.Fab) (width 0.01))
  (fp_line (start 8 -2.1) (end 8 -2.3) (layer F.Fab) (width 0.01))
  (fp_line (start 8 -1.7) (end 8 -1.9) (layer F.Fab) (width 0.01))
  (fp_line (start 8 -1.3) (end 8 -1.5) (layer F.Fab) (width 0.01))
  (fp_line (start 8 -0.9) (end 8 -1.1) (layer F.Fab) (width 0.01))
  (fp_line (start 8 -0.5) (end 8 -0.7) (layer F.Fab) (width 0.01))
  (fp_line (start 8 -0.1) (end 8 -0.3) (layer F.Fab) (width 0.01))
  (fp_line (start 8 0.3) (end 8 0.1) (layer F.Fab) (width 0.01))
  (fp_line (start 8 0.7) (end 8 0.5) (layer F.Fab) (width 0.01))
  (fp_line (start 8 1.1) (end 8 0.9) (layer F.Fab) (width 0.01))
  (fp_line (start 8 1.5) (end 8 1.3) (layer F.Fab) (width 0.01))
  (fp_line (start 8 1.9) (end 8 1.7) (layer F.Fab) (width 0.01))
  (fp_line (start 8 2.3) (end 8 2.1) (layer F.Fab) (width 0.01))
  (fp_line (start 8 2.7) (end 8 2.5) (layer F.Fab) (width 0.01))
  (fp_line (start 8 3.1) (end 8 2.9) (layer F.Fab) (width 0.01))
  (fp_line (start 8 3.5) (end 8 3.3) (layer F.Fab) (width 0.01))
  (fp_line (start 8 3.9) (end 8 3.7) (layer F.Fab) (width 0.01))
  (fp_line (start 8 4.3) (end 8 4.1) (layer F.Fab) (width 0.01))
  (fp_line (start 8 4.7) (end 8 4.5) (layer F.Fab) (width 0.01))
  (fp_line (start 8 5.1) (end 8 4.9) (layer F.Fab) (width 0.01))
  (fp_line (start 8 5.5) (end 8 5.3) (layer F.Fab) (width 0.01))
  (fp_line (start 8 -5.9) (end 7 -5.9) (layer F.Fab) (width 0.01))
  (fp_line (start 8 -5.5) (end 7 -5.5) (layer F.Fab) (width 0.01))
  (fp_line (start 8 -5.1) (end 7 -5.1) (layer F.Fab) (width 0.01))
  (fp_line (start 8 -4.7) (end 7 -4.7) (layer F.Fab) (width 0.01))
  (fp_line (start 8 -4.3) (end 7 -4.3) (layer F.Fab) (width 0.01))
  (fp_line (start 8 -3.9) (end 7 -3.9) (layer F.Fab) (width 0.01))
  (fp_line (start 8 -3.5) (end 7 -3.5) (layer F.Fab) (width 0.01))
  (fp_line (start 8 -3.1) (end 7 -3.1) (layer F.Fab) (width 0.01))
  (fp_line (start 8 -2.7) (end 7 -2.7) (layer F.Fab) (width 0.01))
  (fp_line (start 8 -2.3) (end 7 -2.3) (layer F.Fab) (width 0.01))
  (fp_line (start 8 -1.9) (end 7 -1.9) (layer F.Fab) (width 0.01))
  (fp_line (start 8 -1.5) (end 7 -1.5) (layer F.Fab) (width 0.01))
  (fp_line (start 8 -1.1) (end 7 -1.1) (layer F.Fab) (width 0.01))
  (fp_line (start 8 -0.7) (end 7 -0.7) (layer F.Fab) (width 0.01))
  (fp_line (start 8 -0.3) (end 7 -0.3) (layer F.Fab) (width 0.01))
  (fp_line (start 8 0.1) (end 7 0.1) (layer F.Fab) (width 0.01))
  (fp_line (start 8 0.5) (end 7 0.5) (layer F.Fab) (width 0.01))
  (fp_line (start 8 0.9) (end 7 0.9) (layer F.Fab) (width 0.01))
  (fp_line (start 8 1.3) (end 7 1.3) (layer F.Fab) (width 0.01))
  (fp_line (start 8 1.7) (end 7 1.7) (layer F.Fab) (width 0.01))
  (fp_line (start 8 2.1) (end 7 2.1) (layer F.Fab) (width 0.01))
  (fp_line (start 8 2.5) (end 7 2.5) (layer F.Fab) (width 0.01))
  (fp_line (start 8 2.9) (end 7 2.9) (layer F.Fab) (width 0.01))
  (fp_line (start 8 3.3) (end 7 3.3) (layer F.Fab) (width 0.01))
  (fp_line (start 8 3.7) (end 7 3.7) (layer F.Fab) (width 0.01))
  (fp_line (start 8 4.1) (end 7 4.1) (layer F.Fab) (width 0.01))
  (fp_line (start 8 4.5) (end 7 4.5) (layer F.Fab) (width 0.01))
  (fp_line (start 8 4.9) (end 7 4.9) (layer F.Fab) (width 0.01))
  (fp_line (start 8 5.3) (end 7 5.3) (layer F.Fab) (width 0.01))
  (fp_line (start -7 5.7) (end -8 5.7) (layer F.Fab) (width 0.01))
  (fp_line (start -7 5.3) (end -8 5.3) (layer F.Fab) (width 0.01))
  (fp_line (start -7 4.9) (end -8 4.9) (layer F.Fab) (width 0.01))
  (fp_line (start -7 4.5) (end -8 4.5) (layer F.Fab) (width 0.01))
  (fp_line (start -7 4.1) (end -8 4.1) (layer F.Fab) (width 0.01))
  (fp_line (start -7 3.7) (end -8 3.7) (layer F.Fab) (width 0.01))
  (fp_line (start -7 3.3) (end -8 3.3) (layer F.Fab) (width 0.01))
  (fp_line (start -7 2.9) (end -8 2.9) (layer F.Fab) (width 0.01))
  (fp_line (start -7 2.5) (end -8 2.5) (layer F.Fab) (width 0.01))
  (fp_line (start -7 2.1) (end -8 2.1) (layer F.Fab) (width 0.01))
  (fp_line (start -7 1.7) (end -8 1.7) (layer F.Fab) (width 0.01))
  (fp_line (start -7 1.3) (end -8 1.3) (layer F.Fab) (width 0.01))
  (fp_line (start -7 0.9) (end -8 0.9) (layer F.Fab) (width 0.01))
  (fp_line (start -7 0.5) (end -8 0.5) (layer F.Fab) (width 0.01))
  (fp_line (start -7 0.1) (end -8 0.1) (layer F.Fab) (width 0.01))
  (fp_line (start -7 -0.3) (end -8 -0.3) (layer F.Fab) (width 0.01))
  (fp_line (start -7 -0.7) (end -8 -0.7) (layer F.Fab) (width 0.01))
  (fp_line (start -7 -1.1) (end -8 -1.1) (layer F.Fab) (width 0.01))
  (fp_line (start -7 -1.5) (end -8 -1.5) (layer F.Fab) (width 0.01))
  (fp_line (start -7 -1.9) (end -8 -1.9) (layer F.Fab) (width 0.01))
  (fp_line (start -7 -2.3) (end -8 -2.3) (layer F.Fab) (width 0.01))
  (fp_line (start -7 -2.7) (end -8 -2.7) (layer F.Fab) (width 0.01))
  (fp_line (start -7 -3.1) (end -8 -3.1) (layer F.Fab) (width 0.01))
  (fp_line (start -7 -3.5) (end -8 -3.5) (layer F.Fab) (width 0.01))
  (fp_line (start -7 -3.9) (end -8 -3.9) (layer F.Fab) (width 0.01))
  (fp_line (start -7 -4.3) (end -8 -4.3) (layer F.Fab) (width 0.01))
  (fp_line (start -7 -4.7) (end -8 -4.7) (layer F.Fab) (width 0.01))
  (fp_line (start -7 -5.1) (end -8 -5.1) (layer F.Fab) (width 0.01))
  (fp_line (start -7 -5.5) (end -8 -5.5) (layer F.Fab) (width 0.01))
  (fp_line (start -8 5.7) (end -8 5.9) (layer F.Fab) (width 0.01))
  (fp_line (start -8 5.3) (end -8 5.5) (layer F.Fab) (width 0.01))
  (fp_line (start -8 4.9) (end -8 5.1) (layer F.Fab) (width 0.01))
  (fp_line (start -8 4.5) (end -8 4.7) (layer F.Fab) (width 0.01))
  (fp_line (start -8 4.1) (end -8 4.3) (layer F.Fab) (width 0.01))
  (fp_line (start -8 3.7) (end -8 3.9) (layer F.Fab) (width 0.01))
  (fp_line (start -8 3.3) (end -8 3.5) (layer F.Fab) (width 0.01))
  (fp_line (start -8 2.9) (end -8 3.1) (layer F.Fab) (width 0.01))
  (fp_line (start -8 2.5) (end -8 2.7) (layer F.Fab) (width 0.01))
  (fp_line (start -8 2.1) (end -8 2.3) (layer F.Fab) (width 0.01))
  (fp_line (start -8 1.7) (end -8 1.9) (layer F.Fab) (width 0.01))
  (fp_line (start -8 1.3) (end -8 1.5) (layer F.Fab) (width 0.01))
  (fp_line (start -8 0.9) (end -8 1.1) (layer F.Fab) (width 0.01))
  (fp_line (start -8 0.5) (end -8 0.7) (layer F.Fab) (width 0.01))
  (fp_line (start -8 0.1) (end -8 0.3) (layer F.Fab) (width 0.01))
  (fp_line (start -8 -0.3) (end -8 -0.1) (layer F.Fab) (width 0.01))
  (fp_line (start -8 -0.7) (end -8 -0.5) (layer F.Fab) (width 0.01))
  (fp_line (start -8 -1.1) (end -8 -0.9) (layer F.Fab) (width 0.01))
  (fp_line (start -8 -1.5) (end -8 -1.3) (layer F.Fab) (width 0.01))
  (fp_line (start -8 -1.9) (end -8 -1.7) (layer F.Fab) (width 0.01))
  (fp_line (start -8 -2.3) (end -8 -2.1) (layer F.Fab) (width 0.01))
  (fp_line (start -8 -2.7) (end -8 -2.5) (layer F.Fab) (width 0.01))
  (fp_line (start -8 -3.1) (end -8 -2.9) (layer F.Fab) (width 0.01))
  (fp_line (start -8 -3.5) (end -8 -3.3) (layer F.Fab) (width 0.01))
  (fp_line (start -8 -3.9) (end -8 -3.7) (layer F.Fab) (width 0.01))
  (fp_line (start -8 -4.3) (end -8 -4.1) (layer F.Fab) (width 0.01))
  (fp_line (start -8 -4.7) (end -8 -4.5) (layer F.Fab) (width 0.01))
  (fp_line (start -8 -5.1) (end -8 -4.9) (layer F.Fab) (width 0.01))
  (fp_line (start -8 -5.5) (end -8 -5.3) (layer F.Fab) (width 0.01))
  (fp_line (start -8 5.9) (end -7 5.9) (layer F.Fab) (width 0.01))
  (fp_line (start -8 5.5) (end -7 5.5) (layer F.Fab) (width 0.01))
  (fp_line (start -8 5.1) (end -7 5.1) (layer F.Fab) (width 0.01))
  (fp_line (start -8 4.7) (end -7 4.7) (layer F.Fab) (width 0.01))
  (fp_line (start -8 4.3) (end -7 4.3) (layer F.Fab) (width 0.01))
  (fp_line (start -8 3.9) (end -7 3.9) (layer F.Fab) (width 0.01))
  (fp_line (start -8 3.5) (end -7 3.5) (layer F.Fab) (width 0.01))
  (fp_line (start -8 3.1) (end -7 3.1) (layer F.Fab) (width 0.01))
  (fp_line (start -8 2.7) (end -7 2.7) (layer F.Fab) (width 0.01))
  (fp_line (start -8 2.3) (end -7 2.3) (layer F.Fab) (width 0.01))
  (fp_line (start -8 1.9) (end -7 1.9) (layer F.Fab) (width 0.01))
  (fp_line (start -8 1.5) (end -7 1.5) (layer F.Fab) (width 0.01))
  (fp_line (start -8 1.1) (end -7 1.1) (layer F.Fab) (width 0.01))
  (fp_line (start -8 0.7) (end -7 0.7) (layer F.Fab) (width 0.01))
  (fp_line (start -8 0.3) (end -7 0.3) (layer F.Fab) (width 0.01))
  (fp_line (start -8 -0.1) (end -7 -0.1) (layer F.Fab) (width 0.01))
  (fp_line (start -8 -0.5) (end -7 -0.5) (layer F.Fab) (width 0.01))
  (fp_line (start -8 -0.9) (end -7 -0.9) (layer F.Fab) (width 0.01))
  (fp_line (start -8 -1.3) (end -7 -1.3) (layer F.Fab) (width 0.01))
  (fp_line (start -8 -1.7) (end -7 -1.7) (layer F.Fab) (width 0.01))
  (fp_line (start -8 -2.1) (end -7 -2.1) (layer F.Fab) (width 0.01))
  (fp_line (start -8 -2.5) (end -7 -2.5) (layer F.Fab) (width 0.01))
  (fp_line (start -8 -2.9) (end -7 -2.9) (layer F.Fab) (width 0.01))
  (fp_line (start -8 -3.3) (end -7 -3.3) (layer F.Fab) (width 0.01))
  (fp_line (start -8 -3.7) (end -7 -3.7) (layer F.Fab) (width 0.01))
  (fp_line (start -8 -4.1) (end -7 -4.1) (layer F.Fab) (width 0.01))
  (fp_line (start -8 -4.5) (end -7 -4.5) (layer F.Fab) (width 0.01))
  (fp_line (start -8 -4.9) (end -7 -4.9) (layer F.Fab) (width 0.01))
  (fp_line (start -8 -5.3) (end -7 -5.3) (layer F.Fab) (width 0.01))
  (fp_line (start 5.9 -7) (end 5.9 -8) (layer F.Fab) (width 0.01))
  (fp_line (start 7 5.9) (end 8 5.9) (layer F.Fab) (width 0.01))
  (fp_line (start -5.9 7) (end -5.9 8) (layer F.Fab) (width 0.01))
  (fp_line (start 5.9 -8) (end 5.7 -8) (layer F.Fab) (width 0.01))
  (fp_line (start 8 5.9) (end 8 5.7) (layer F.Fab) (width 0.01))
  (fp_line (start -5.9 8) (end -5.7 8) (layer F.Fab) (width 0.01))
  (fp_line (start 5.7 -8) (end 5.7 -7) (layer F.Fab) (width 0.01))
  (fp_line (start 8 5.7) (end 7 5.7) (layer F.Fab) (width 0.01))
  (fp_line (start -5.7 8) (end -5.7 7) (layer F.Fab) (width 0.01))
  (fp_line (start -7 -5.9) (end -8 -5.9) (layer F.Fab) (width 0.01))
  (fp_line (start -8 -5.9) (end -8 -5.7) (layer F.Fab) (width 0.01))
  (fp_line (start -8 -5.7) (end -7 -5.7) (layer F.Fab) (width 0.01))
  (fp_line (start -7 6.6) (end -7 -6.6) (layer F.Fab) (width 0.01))
  (fp_line (start 6.6 7) (end -6.6 7) (layer F.Fab) (width 0.01))
  (fp_line (start 7 -6.6) (end 7 6.6) (layer F.Fab) (width 0.01))
  (fp_line (start -6.6 -7) (end 6.6 -7) (layer F.Fab) (width 0.01))
  (fp_line (start -6.6 -7) (end -7 -6.6) (layer F.Fab) (width 0.01))
  (fp_line (start 6.6 -7) (end 7 -6.6) (layer F.Fab) (width 0.01))
  (fp_line (start 7 6.6) (end 6.6 7) (layer F.Fab) (width 0.01))
  (fp_line (start -7 6.6) (end -6.6 7) (layer F.Fab) (width 0.01))
  (fp_poly (pts (xy -0.2 2.4) (xy -1.1 2.4) (xy -1.1 1.5) (xy -0.2 1.5)) (layer F.Paste) (width 0.1))
  (fp_poly (pts (xy 1.1 2.4) (xy 0.2 2.4) (xy 0.2 1.5) (xy 1.1 1.5)) (layer F.Paste) (width 0.1))
  (fp_poly (pts (xy 2.4 2.4) (xy 1.5 2.4) (xy 1.5 1.5) (xy 2.4 1.5)) (layer F.Paste) (width 0.1))
  (fp_poly (pts (xy -1.5 1.1) (xy -2.4 1.1) (xy -2.4 0.2) (xy -1.5 0.2)) (layer F.Paste) (width 0.1))
  (fp_poly (pts (xy -0.2 1.1) (xy -1.1 1.1) (xy -1.1 0.2) (xy -0.2 0.2)) (layer F.Paste) (width 0.1))
  (fp_poly (pts (xy 1.1 1.1) (xy 0.2 1.1) (xy 0.2 0.2) (xy 1.1 0.2)) (layer F.Paste) (width 0.1))
  (fp_poly (pts (xy 2.4 1.1) (xy 1.5 1.1) (xy 1.5 0.2) (xy 2.4 0.2)) (layer F.Paste) (width 0.1))
  (fp_poly (pts (xy -1.5 -0.2) (xy -2.4 -0.2) (xy -2.4 -1.1) (xy -1.5 -1.1)) (layer F.Paste) (width 0.1))
  (fp_poly (pts (xy -0.2 -0.2) (xy -1.1 -0.2) (xy -1.1 -1.1) (xy -0.2 -1.1)) (layer F.Paste) (width 0.1))
  (fp_poly (pts (xy 1.1 -0.2) (xy 0.2 -0.2) (xy 0.2 -1.1) (xy 1.1 -1.1)) (layer F.Paste) (width 0.1))
  (fp_poly (pts (xy 2.4 -0.2) (xy 1.5 -0.2) (xy 1.5 -1.1) (xy 2.4 -1.1)) (layer F.Paste) (width 0.1))
  (fp_poly (pts (xy -1.5 -1.5) (xy -2.4 -1.5) (xy -2.4 -2.4) (xy -1.5 -2.4)) (layer F.Paste) (width 0.1))
  (fp_poly (pts (xy -0.2 -1.5) (xy -1.1 -1.5) (xy -1.1 -2.4) (xy -0.2 -2.4)) (layer F.Paste) (width 0.1))
  (fp_poly (pts (xy 1.1 -1.5) (xy 0.2 -1.5) (xy 0.2 -2.4) (xy 1.1 -2.4)) (layer F.Paste) (width 0.1))
  (fp_poly (pts (xy 2.4 -1.5) (xy 1.5 -1.5) (xy 1.5 -2.4) (xy 2.4 -2.4)) (layer F.Paste) (width 0.1))
  (fp_line (start -6.2 -7.1) (end -6.5 -7.1) (layer F.SilkS) (width 0.15))
  (fp_line (start -7.1 -6.5) (end -7.1 -6.2) (layer F.SilkS) (width 0.15))
  (fp_line (start -7.1 6.2) (end -7.1 6.65) (layer F.SilkS) (width 0.15))
  (fp_line (start 6.2 7.1) (end 6.65 7.1) (layer F.SilkS) (width 0.15))
  (fp_line (start 7.1 -6.2) (end 7.1 -6.65) (layer F.SilkS) (width 0.15))
  (fp_line (start -7.1 6.65) (end -6.65 7.1) (layer F.SilkS) (width 0.15))
  (fp_line (start 6.65 7.1) (end 7.1 6.65) (layer F.SilkS) (width 0.15))
  (fp_line (start 7.1 -6.65) (end 6.65 -7.1) (layer F.SilkS) (width 0.15))
  (fp_line (start -6.65 7.1) (end -6.2 7.1) (layer F.SilkS) (width 0.15))
  (fp_line (start 7.1 6.65) (end 7.1 6.2) (layer F.SilkS) (width 0.15))
  (fp_line (start 6.65 -7.1) (end 6.2 -7.1) (layer F.SilkS) (width 0.15))
  (fp_text user "Model: www.3dcontentcentral.com by Alex Malcev" (at 0 6.875) (layer Cmts.User) hide
    (effects (font (size 0.125 0.125) (thickness 0.01)))
  )
  (pad 1 smd roundrect (at -7.75 -5.8) (size 1.3 0.26) (layers F.Cu F.Paste F.Mask) (roundrect_rratio 0.077)
    (solder_mask_margin 0.05) (solder_paste_margin -0.025) (clearance 0.065))
  (pad 31 smd roundrect (at -5.8 7.75 90) (size 1.3 0.26) (layers F.Cu F.Paste F.Mask) (roundrect_rratio 0.077)
    (solder_mask_margin 0.05) (solder_paste_margin -0.025) (clearance 0.065))
  (pad 61 smd roundrect (at 7.75 5.8 180) (size 1.3 0.26) (layers F.Cu F.Paste F.Mask) (roundrect_rratio 0.077)
    (solder_mask_margin 0.05) (solder_paste_margin -0.025) (clearance 0.065))
  (pad 91 smd roundrect (at 5.8 -7.75 270) (size 1.3 0.26) (layers F.Cu F.Paste F.Mask) (roundrect_rratio 0.077)
    (solder_mask_margin 0.05) (solder_paste_margin -0.025) (clearance 0.065))
  (pad 2 smd roundrect (at -7.75 -5.4) (size 1.3 0.26) (layers F.Cu F.Paste F.Mask) (roundrect_rratio 0.077)
    (solder_mask_margin 0.05) (solder_paste_margin -0.025) (clearance 0.065))
  (pad 3 smd roundrect (at -7.75 -5) (size 1.3 0.26) (layers F.Cu F.Paste F.Mask) (roundrect_rratio 0.077)
    (solder_mask_margin 0.05) (solder_paste_margin -0.025) (clearance 0.065))
  (pad 4 smd roundrect (at -7.75 -4.6) (size 1.3 0.26) (layers F.Cu F.Paste F.Mask) (roundrect_rratio 0.077)
    (solder_mask_margin 0.05) (solder_paste_margin -0.025) (clearance 0.065))
  (pad 5 smd roundrect (at -7.75 -4.2) (size 1.3 0.26) (layers F.Cu F.Paste F.Mask) (roundrect_rratio 0.077)
    (solder_mask_margin 0.05) (solder_paste_margin -0.025) (clearance 0.065))
  (pad 6 smd roundrect (at -7.75 -3.8) (size 1.3 0.26) (layers F.Cu F.Paste F.Mask) (roundrect_rratio 0.077)
    (solder_mask_margin 0.05) (solder_paste_margin -0.025) (clearance 0.065))
  (pad 7 smd roundrect (at -7.75 -3.4) (size 1.3 0.26) (layers F.Cu F.Paste F.Mask) (roundrect_rratio 0.077)
    (solder_mask_margin 0.05) (solder_paste_margin -0.025) (clearance 0.065))
  (pad 8 smd roundrect (at -7.75 -3) (size 1.3 0.26) (layers F.Cu F.Paste F.Mask) (roundrect_rratio 0.077)
    (solder_mask_margin 0.05) (solder_paste_margin -0.025) (clearance 0.065))
  (pad 9 smd roundrect (at -7.75 -2.6) (size 1.3 0.26) (layers F.Cu F.Paste F.Mask) (roundrect_rratio 0.077)
    (solder_mask_margin 0.05) (solder_paste_margin -0.025) (clearance 0.065))
  (pad 10 smd roundrect (at -7.75 -2.2) (size 1.3 0.26) (layers F.Cu F.Paste F.Mask) (roundrect_rratio 0.077)
    (solder_mask_margin 0.05) (solder_paste_margin -0.025) (clearance 0.065))
  (pad 11 smd roundrect (at -7.75 -1.8) (size 1.3 0.26) (layers F.Cu F.Paste F.Mask) (roundrect_rratio 0.077)
    (solder_mask_margin 0.05) (solder_paste_margin -0.025) (clearance 0.065))
  (pad 12 smd roundrect (at -7.75 -1.4) (size 1.3 0.26) (layers F.Cu F.Paste F.Mask) (roundrect_rratio 0.077)
    (solder_mask_margin 0.05) (solder_paste_margin -0.025) (clearance 0.065))
  (pad 13 smd roundrect (at -7.75 -1) (size 1.3 0.26) (layers F.Cu F.Paste F.Mask) (roundrect_rratio 0.077)
    (solder_mask_margin 0.05) (solder_paste_margin -0.025) (clearance 0.065))
  (pad 14 smd roundrect (at -7.75 -0.6) (size 1.3 0.26) (layers F.Cu F.Paste F.Mask) (roundrect_rratio 0.077)
    (solder_mask_margin 0.05) (solder_paste_margin -0.025) (clearance 0.065))
  (pad 15 smd roundrect (at -7.75 -0.2) (size 1.3 0.26) (layers F.Cu F.Paste F.Mask) (roundrect_rratio 0.077)
    (solder_mask_margin 0.05) (solder_paste_margin -0.025) (clearance 0.065))
  (pad 16 smd roundrect (at -7.75 0.2) (size 1.3 0.26) (layers F.Cu F.Paste F.Mask) (roundrect_rratio 0.077)
    (solder_mask_margin 0.05) (solder_paste_margin -0.025) (clearance 0.065))
  (pad 17 smd roundrect (at -7.75 0.6) (size 1.3 0.26) (layers F.Cu F.Paste F.Mask) (roundrect_rratio 0.077)
    (solder_mask_margin 0.05) (solder_paste_margin -0.025) (clearance 0.065))
  (pad 18 smd roundrect (at -7.75 1) (size 1.3 0.26) (layers F.Cu F.Paste F.Mask) (roundrect_rratio 0.077)
    (solder_mask_margin 0.05) (solder_paste_margin -0.025) (clearance 0.065))
  (pad 19 smd roundrect (at -7.75 1.4) (size 1.3 0.26) (layers F.Cu F.Paste F.Mask) (roundrect_rratio 0.077)
    (solder_mask_margin 0.05) (solder_paste_margin -0.025) (clearance 0.065))
  (pad 20 smd roundrect (at -7.75 1.8) (size 1.3 0.26) (layers F.Cu F.Paste F.Mask) (roundrect_rratio 0.077)
    (solder_mask_margin 0.05) (solder_paste_margin -0.025) (clearance 0.065))
  (pad 21 smd roundrect (at -7.75 2.2) (size 1.3 0.26) (layers F.Cu F.Paste F.Mask) (roundrect_rratio 0.077)
    (solder_mask_margin 0.05) (solder_paste_margin -0.025) (clearance 0.065))
  (pad 22 smd roundrect (at -7.75 2.6) (size 1.3 0.26) (layers F.Cu F.Paste F.Mask) (roundrect_rratio 0.077)
    (solder_mask_margin 0.05) (solder_paste_margin -0.025) (clearance 0.065))
  (pad 23 smd roundrect (at -7.75 3) (size 1.3 0.26) (layers F.Cu F.Paste F.Mask) (roundrect_rratio 0.077)
    (solder_mask_margin 0.05) (solder_paste_margin -0.025) (clearance 0.065))
  (pad 24 smd roundrect (at -7.75 3.4) (size 1.3 0.26) (layers F.Cu F.Paste F.Mask) (roundrect_rratio 0.077)
    (solder_mask_margin 0.05) (solder_paste_margin -0.025) (clearance 0.065))
  (pad 25 smd roundrect (at -7.75 3.8) (size 1.3 0.26) (layers F.Cu F.Paste F.Mask) (roundrect_rratio 0.077)
    (solder_mask_margin 0.05) (solder_paste_margin -0.025) (clearance 0.065))
  (pad 26 smd roundrect (at -7.75 4.2) (size 1.3 0.26) (layers F.Cu F.Paste F.Mask) (roundrect_rratio 0.077)
    (solder_mask_margin 0.05) (solder_paste_margin -0.025) (clearance 0.065))
  (pad 27 smd roundrect (at -7.75 4.6) (size 1.3 0.26) (layers F.Cu F.Paste F.Mask) (roundrect_rratio 0.077)
    (solder_mask_margin 0.05) (solder_paste_margin -0.025) (clearance 0.065))
  (pad 28 smd roundrect (at -7.75 5) (size 1.3 0.26) (layers F.Cu F.Paste F.Mask) (roundrect_rratio 0.077)
    (solder_mask_margin 0.05) (solder_paste_margin -0.025) (clearance 0.065))
  (pad 29 smd roundrect (at -7.75 5.4) (size 1.3 0.26) (layers F.Cu F.Paste F.Mask) (roundrect_rratio 0.077)
    (solder_mask_margin 0.05) (solder_paste_margin -0.025) (clearance 0.065))
  (pad 30 smd roundrect (at -7.75 5.8) (size 1.3 0.26) (layers F.Cu F.Paste F.Mask) (roundrect_rratio 0.077)
    (solder_mask_margin 0.05) (solder_paste_margin -0.025) (clearance 0.065))
  (pad 62 smd roundrect (at 7.75 5.4 180) (size 1.3 0.26) (layers F.Cu F.Paste F.Mask) (roundrect_rratio 0.077)
    (solder_mask_margin 0.05) (solder_paste_margin -0.025) (clearance 0.065))
  (pad 63 smd roundrect (at 7.75 5 180) (size 1.3 0.26) (layers F.Cu F.Paste F.Mask) (roundrect_rratio 0.077)
    (solder_mask_margin 0.05) (solder_paste_margin -0.025) (clearance 0.065))
  (pad 64 smd roundrect (at 7.75 4.6 180) (size 1.3 0.26) (layers F.Cu F.Paste F.Mask) (roundrect_rratio 0.077)
    (solder_mask_margin 0.05) (solder_paste_margin -0.025) (clearance 0.065))
  (pad 65 smd roundrect (at 7.75 4.2 180) (size 1.3 0.26) (layers F.Cu F.Paste F.Mask) (roundrect_rratio 0.077)
    (solder_mask_margin 0.05) (solder_paste_margin -0.025) (clearance 0.065))
  (pad 66 smd roundrect (at 7.75 3.8 180) (size 1.3 0.26) (layers F.Cu F.Paste F.Mask) (roundrect_rratio 0.077)
    (solder_mask_margin 0.05) (solder_paste_margin -0.025) (clearance 0.065))
  (pad 67 smd roundrect (at 7.75 3.4 180) (size 1.3 0.26) (layers F.Cu F.Paste F.Mask) (roundrect_rratio 0.077)
    (solder_mask_margin 0.05) (solder_paste_margin -0.025) (clearance 0.065))
  (pad 68 smd roundrect (at 7.75 3 180) (size 1.3 0.26) (layers F.Cu F.Paste F.Mask) (roundrect_rratio 0.077)
    (solder_mask_margin 0.05) (solder_paste_margin -0.025) (clearance 0.065))
  (pad 69 smd roundrect (at 7.75 2.6 180) (size 1.3 0.26) (layers F.Cu F.Paste F.Mask) (roundrect_rratio 0.077)
    (solder_mask_margin 0.05) (solder_paste_margin -0.025) (clearance 0.065))
  (pad 70 smd roundrect (at 7.75 2.2 180) (size 1.3 0.26) (layers F.Cu F.Paste F.Mask) (roundrect_rratio 0.077)
    (solder_mask_margin 0.05) (solder_paste_margin -0.025) (clearance 0.065))
  (pad 71 smd roundrect (at 7.75 1.8 180) (size 1.3 0.26) (layers F.Cu F.Paste F.Mask) (roundrect_rratio 0.077)
    (solder_mask_margin 0.05) (solder_paste_margin -0.025) (clearance 0.065))
  (pad 72 smd roundrect (at 7.75 1.4 180) (size 1.3 0.26) (layers F.Cu F.Paste F.Mask) (roundrect_rratio 0.077)
    (solder_mask_margin 0.05) (solder_paste_margin -0.025) (clearance 0.065))
  (pad 73 smd roundrect (at 7.75 1 180) (size 1.3 0.26) (layers F.Cu F.Paste F.Mask) (roundrect_rratio 0.077)
    (solder_mask_margin 0.05) (solder_paste_margin -0.025) (clearance 0.065))
  (pad 74 smd roundrect (at 7.75 0.6 180) (size 1.3 0.26) (layers F.Cu F.Paste F.Mask) (roundrect_rratio 0.077)
    (solder_mask_margin 0.05) (solder_paste_margin -0.025) (clearance 0.065))
  (pad 75 smd roundrect (at 7.75 0.2 180) (size 1.3 0.26) (layers F.Cu F.Paste F.Mask) (roundrect_rratio 0.077)
    (solder_mask_margin 0.05) (solder_paste_margin -0.025) (clearance 0.065))
  (pad 76 smd roundrect (at 7.75 -0.2 180) (size 1.3 0.26) (layers F.Cu F.Paste F.Mask) (roundrect_rratio 0.077)
    (solder_mask_margin 0.05) (solder_paste_margin -0.025) (clearance 0.065))
  (pad 77 smd roundrect (at 7.75 -0.6 180) (size 1.3 0.26) (layers F.Cu F.Paste F.Mask) (roundrect_rratio 0.077)
    (solder_mask_margin 0.05) (solder_paste_margin -0.025) (clearance 0.065))
  (pad 78 smd roundrect (at 7.75 -1 180) (size 1.3 0.26) (layers F.Cu F.Paste F.Mask) (roundrect_rratio 0.077)
    (solder_mask_margin 0.05) (solder_paste_margin -0.025) (clearance 0.065))
  (pad 79 smd roundrect (at 7.75 -1.4 180) (size 1.3 0.26) (layers F.Cu F.Paste F.Mask) (roundrect_rratio 0.077)
    (solder_mask_margin 0.05) (solder_paste_margin -0.025) (clearance 0.065))
  (pad 80 smd roundrect (at 7.75 -1.8 180) (size 1.3 0.26) (layers F.Cu F.Paste F.Mask) (roundrect_rratio 0.077)
    (solder_mask_margin 0.05) (solder_paste_margin -0.025) (clearance 0.065))
  (pad 81 smd roundrect (at 7.75 -2.2 180) (size 1.3 0.26) (layers F.Cu F.Paste F.Mask) (roundrect_rratio 0.077)
    (solder_mask_margin 0.05) (solder_paste_margin -0.025) (clearance 0.065))
  (pad 82 smd roundrect (at 7.75 -2.6 180) (size 1.3 0.26) (layers F.Cu F.Paste F.Mask) (roundrect_rratio 0.077)
    (solder_mask_margin 0.05) (solder_paste_margin -0.025) (clearance 0.065))
  (pad 83 smd roundrect (at 7.75 -3 180) (size 1.3 0.26) (layers F.Cu F.Paste F.Mask) (roundrect_rratio 0.077)
    (solder_mask_margin 0.05) (solder_paste_margin -0.025) (clearance 0.065))
  (pad 84 smd roundrect (at 7.75 -3.4 180) (size 1.3 0.26) (layers F.Cu F.Paste F.Mask) (roundrect_rratio 0.077)
    (solder_mask_margin 0.05) (solder_paste_margin -0.025) (clearance 0.065))
  (pad 85 smd roundrect (at 7.75 -3.8 180) (size 1.3 0.26) (layers F.Cu F.Paste F.Mask) (roundrect_rratio 0.077)
    (solder_mask_margin 0.05) (solder_paste_margin -0.025) (clearance 0.065))
  (pad 86 smd roundrect (at 7.75 -4.2 180) (size 1.3 0.26) (layers F.Cu F.Paste F.Mask) (roundrect_rratio 0.077)
    (solder_mask_margin 0.05) (solder_paste_margin -0.025) (clearance 0.065))
  (pad 87 smd roundrect (at 7.75 -4.6 180) (size 1.3 0.26) (layers F.Cu F.Paste F.Mask) (roundrect_rratio 0.077)
    (solder_mask_margin 0.05) (solder_paste_margin -0.025) (clearance 0.065))
  (pad 88 smd roundrect (at 7.75 -5 180) (size 1.3 0.26) (layers F.Cu F.Paste F.Mask) (roundrect_rratio 0.077)
    (solder_mask_margin 0.05) (solder_paste_margin -0.025) (clearance 0.065))
  (pad 89 smd roundrect (at 7.75 -5.4 180) (size 1.3 0.26) (layers F.Cu F.Paste F.Mask) (roundrect_rratio 0.077)
    (solder_mask_margin 0.05) (solder_paste_margin -0.025) (clearance 0.065))
  (pad 90 smd roundrect (at 7.75 -5.8 180) (size 1.3 0.26) (layers F.Cu F.Paste F.Mask) (roundrect_rratio 0.077)
    (solder_mask_margin 0.05) (solder_paste_margin -0.025) (clearance 0.065))
  (pad 32 smd roundrect (at -5.4 7.75 90) (size 1.3 0.26) (layers F.Cu F.Paste F.Mask) (roundrect_rratio 0.077)
    (solder_mask_margin 0.05) (solder_paste_margin -0.025) (clearance 0.065))
  (pad 33 smd roundrect (at -5 7.75 90) (size 1.3 0.26) (layers F.Cu F.Paste F.Mask) (roundrect_rratio 0.077)
    (solder_mask_margin 0.05) (solder_paste_margin -0.025) (clearance 0.065))
  (pad 34 smd roundrect (at -4.6 7.75 90) (size 1.3 0.26) (layers F.Cu F.Paste F.Mask) (roundrect_rratio 0.077)
    (solder_mask_margin 0.05) (solder_paste_margin -0.025) (clearance 0.065))
  (pad 35 smd roundrect (at -4.2 7.75 90) (size 1.3 0.26) (layers F.Cu F.Paste F.Mask) (roundrect_rratio 0.077)
    (solder_mask_margin 0.05) (solder_paste_margin -0.025) (clearance 0.065))
  (pad 36 smd roundrect (at -3.8 7.75 90) (size 1.3 0.26) (layers F.Cu F.Paste F.Mask) (roundrect_rratio 0.077)
    (solder_mask_margin 0.05) (solder_paste_margin -0.025) (clearance 0.065))
  (pad 37 smd roundrect (at -3.4 7.75 90) (size 1.3 0.26) (layers F.Cu F.Paste F.Mask) (roundrect_rratio 0.077)
    (solder_mask_margin 0.05) (solder_paste_margin -0.025) (clearance 0.065))
  (pad 38 smd roundrect (at -3 7.75 90) (size 1.3 0.26) (layers F.Cu F.Paste F.Mask) (roundrect_rratio 0.077)
    (solder_mask_margin 0.05) (solder_paste_margin -0.025) (clearance 0.065))
  (pad 39 smd roundrect (at -2.6 7.75 90) (size 1.3 0.26) (layers F.Cu F.Paste F.Mask) (roundrect_rratio 0.077)
    (solder_mask_margin 0.05) (solder_paste_margin -0.025) (clearance 0.065))
  (pad 40 smd roundrect (at -2.2 7.75 90) (size 1.3 0.26) (layers F.Cu F.Paste F.Mask) (roundrect_rratio 0.077)
    (solder_mask_margin 0.05) (solder_paste_margin -0.025) (clearance 0.065))
  (pad 41 smd roundrect (at -1.8 7.75 90) (size 1.3 0.26) (layers F.Cu F.Paste F.Mask) (roundrect_rratio 0.077)
    (solder_mask_margin 0.05) (solder_paste_margin -0.025) (clearance 0.065))
  (pad 42 smd roundrect (at -1.4 7.75 90) (size 1.3 0.26) (layers F.Cu F.Paste F.Mask) (roundrect_rratio 0.077)
    (solder_mask_margin 0.05) (solder_paste_margin -0.025) (clearance 0.065))
  (pad 43 smd roundrect (at -1 7.75 90) (size 1.3 0.26) (layers F.Cu F.Paste F.Mask) (roundrect_rratio 0.077)
    (solder_mask_margin 0.05) (solder_paste_margin -0.025) (clearance 0.065))
  (pad 44 smd roundrect (at -0.6 7.75 90) (size 1.3 0.26) (layers F.Cu F.Paste F.Mask) (roundrect_rratio 0.077)
    (solder_mask_margin 0.05) (solder_paste_margin -0.025) (clearance 0.065))
  (pad 45 smd roundrect (at -0.2 7.75 90) (size 1.3 0.26) (layers F.Cu F.Paste F.Mask) (roundrect_rratio 0.077)
    (solder_mask_margin 0.05) (solder_paste_margin -0.025) (clearance 0.065))
  (pad 46 smd roundrect (at 0.2 7.75 90) (size 1.3 0.26) (layers F.Cu F.Paste F.Mask) (roundrect_rratio 0.077)
    (solder_mask_margin 0.05) (solder_paste_margin -0.025) (clearance 0.065))
  (pad 47 smd roundrect (at 0.6 7.75 90) (size 1.3 0.26) (layers F.Cu F.Paste F.Mask) (roundrect_rratio 0.077)
    (solder_mask_margin 0.05) (solder_paste_margin -0.025) (clearance 0.065))
  (pad 48 smd roundrect (at 1 7.75 90) (size 1.3 0.26) (layers F.Cu F.Paste F.Mask) (roundrect_rratio 0.077)
    (solder_mask_margin 0.05) (solder_paste_margin -0.025) (clearance 0.065))
  (pad 49 smd roundrect (at 1.4 7.75 90) (size 1.3 0.26) (layers F.Cu F.Paste F.Mask) (roundrect_rratio 0.077)
    (solder_mask_margin 0.05) (solder_paste_margin -0.025) (clearance 0.065))
  (pad 50 smd roundrect (at 1.8 7.75 90) (size 1.3 0.26) (layers F.Cu F.Paste F.Mask) (roundrect_rratio 0.077)
    (solder_mask_margin 0.05) (solder_paste_margin -0.025) (clearance 0.065))
  (pad 51 smd roundrect (at 2.2 7.75 90) (size 1.3 0.26) (layers F.Cu F.Paste F.Mask) (roundrect_rratio 0.077)
    (solder_mask_margin 0.05) (solder_paste_margin -0.025) (clearance 0.065))
  (pad 52 smd roundrect (at 2.6 7.75 90) (size 1.3 0.26) (layers F.Cu F.Paste F.Mask) (roundrect_rratio 0.077)
    (solder_mask_margin 0.05) (solder_paste_margin -0.025) (clearance 0.065))
  (pad 53 smd roundrect (at 3 7.75 90) (size 1.3 0.26) (layers F.Cu F.Paste F.Mask) (roundrect_rratio 0.077)
    (solder_mask_margin 0.05) (solder_paste_margin -0.025) (clearance 0.065))
  (pad 54 smd roundrect (at 3.4 7.75 90) (size 1.3 0.26) (layers F.Cu F.Paste F.Mask) (roundrect_rratio 0.077)
    (solder_mask_margin 0.05) (solder_paste_margin -0.025) (clearance 0.065))
  (pad 55 smd roundrect (at 3.8 7.75 90) (size 1.3 0.26) (layers F.Cu F.Paste F.Mask) (roundrect_rratio 0.077)
    (solder_mask_margin 0.05) (solder_paste_margin -0.025) (clearance 0.065))
  (pad 56 smd roundrect (at 4.2 7.75 90) (size 1.3 0.26) (layers F.Cu F.Paste F.Mask) (roundrect_rratio 0.077)
    (solder_mask_margin 0.05) (solder_paste_margin -0.025) (clearance 0.065))
  (pad 57 smd roundrect (at 4.6 7.75 90) (size 1.3 0.26) (layers F.Cu F.Paste F.Mask) (roundrect_rratio 0.077)
    (solder_mask_margin 0.05) (solder_paste_margin -0.025) (clearance 0.065))
  (pad 58 smd roundrect (at 5 7.75 90) (size 1.3 0.26) (layers F.Cu F.Paste F.Mask) (roundrect_rratio 0.077)
    (solder_mask_margin 0.05) (solder_paste_margin -0.025) (clearance 0.065))
  (pad 59 smd roundrect (at 5.4 7.75 90) (size 1.3 0.26) (layers F.Cu F.Paste F.Mask) (roundrect_rratio 0.077)
    (solder_mask_margin 0.05) (solder_paste_margin -0.025) (clearance 0.065))
  (pad 60 smd roundrect (at 5.8 7.75 90) (size 1.3 0.26) (layers F.Cu F.Paste F.Mask) (roundrect_rratio 0.077)
    (solder_mask_margin 0.05) (solder_paste_margin -0.025) (clearance 0.065))
  (pad 92 smd roundrect (at 5.4 -7.75 270) (size 1.3 0.26) (layers F.Cu F.Paste F.Mask) (roundrect_rratio 0.077)
    (solder_mask_margin 0.05) (solder_paste_margin -0.025) (clearance 0.065))
  (pad 93 smd roundrect (at 5 -7.75 270) (size 1.3 0.26) (layers F.Cu F.Paste F.Mask) (roundrect_rratio 0.077)
    (solder_mask_margin 0.05) (solder_paste_margin -0.025) (clearance 0.065))
  (pad 94 smd roundrect (at 4.6 -7.75 270) (size 1.3 0.26) (layers F.Cu F.Paste F.Mask) (roundrect_rratio 0.077)
    (solder_mask_margin 0.05) (solder_paste_margin -0.025) (clearance 0.065))
  (pad 95 smd roundrect (at 4.2 -7.75 270) (size 1.3 0.26) (layers F.Cu F.Paste F.Mask) (roundrect_rratio 0.077)
    (solder_mask_margin 0.05) (solder_paste_margin -0.025) (clearance 0.065))
  (pad 96 smd roundrect (at 3.8 -7.75 270) (size 1.3 0.26) (layers F.Cu F.Paste F.Mask) (roundrect_rratio 0.077)
    (solder_mask_margin 0.05) (solder_paste_margin -0.025) (clearance 0.065))
  (pad 97 smd roundrect (at 3.4 -7.75 270) (size 1.3 0.26) (layers F.Cu F.Paste F.Mask) (roundrect_rratio 0.077)
    (solder_mask_margin 0.05) (solder_paste_margin -0.025) (clearance 0.065))
  (pad 98 smd roundrect (at 3 -7.75 270) (size 1.3 0.26) (layers F.Cu F.Paste F.Mask) (roundrect_rratio 0.077)
    (solder_mask_margin 0.05) (solder_paste_margin -0.025) (clearance 0.065))
  (pad 99 smd roundrect (at 2.6 -7.75 270) (size 1.3 0.26) (layers F.Cu F.Paste F.Mask) (roundrect_rratio 0.077)
    (solder_mask_margin 0.05) (solder_paste_margin -0.025) (clearance 0.065))
  (pad 100 smd roundrect (at 2.2 -7.75 270) (size 1.3 0.26) (layers F.Cu F.Paste F.Mask) (roundrect_rratio 0.077)
    (solder_mask_margin 0.05) (solder_paste_margin -0.025) (clearance 0.065))
  (pad 101 smd roundrect (at 1.8 -7.75 270) (size 1.3 0.26) (layers F.Cu F.Paste F.Mask) (roundrect_rratio 0.077)
    (solder_mask_margin 0.05) (solder_paste_margin -0.025) (clearance 0.065))
  (pad 102 smd roundrect (at 1.4 -7.75 270) (size 1.3 0.26) (layers F.Cu F.Paste F.Mask) (roundrect_rratio 0.077)
    (solder_mask_margin 0.05) (solder_paste_margin -0.025) (clearance 0.065))
  (pad 103 smd roundrect (at 1 -7.75 270) (size 1.3 0.26) (layers F.Cu F.Paste F.Mask) (roundrect_rratio 0.077)
    (solder_mask_margin 0.05) (solder_paste_margin -0.025) (clearance 0.065))
  (pad 104 smd roundrect (at 0.6 -7.75 270) (size 1.3 0.26) (layers F.Cu F.Paste F.Mask) (roundrect_rratio 0.077)
    (solder_mask_margin 0.05) (solder_paste_margin -0.025) (clearance 0.065))
  (pad 105 smd roundrect (at 0.2 -7.75 270) (size 1.3 0.26) (layers F.Cu F.Paste F.Mask) (roundrect_rratio 0.077)
    (solder_mask_margin 0.05) (solder_paste_margin -0.025) (clearance 0.065))
  (pad 106 smd roundrect (at -0.2 -7.75 270) (size 1.3 0.26) (layers F.Cu F.Paste F.Mask) (roundrect_rratio 0.077)
    (solder_mask_margin 0.05) (solder_paste_margin -0.025) (clearance 0.065))
  (pad 107 smd roundrect (at -0.6 -7.75 270) (size 1.3 0.26) (layers F.Cu F.Paste F.Mask) (roundrect_rratio 0.077)
    (solder_mask_margin 0.05) (solder_paste_margin -0.025) (clearance 0.065))
  (pad 108 smd roundrect (at -1 -7.75 270) (size 1.3 0.26) (layers F.Cu F.Paste F.Mask) (roundrect_rratio 0.077)
    (solder_mask_margin 0.05) (solder_paste_margin -0.025) (clearance 0.065))
  (pad 109 smd roundrect (at -1.4 -7.75 270) (size 1.3 0.26) (layers F.Cu F.Paste F.Mask) (roundrect_rratio 0.077)
    (solder_mask_margin 0.05) (solder_paste_margin -0.025) (clearance 0.065))
  (pad 110 smd roundrect (at -1.8 -7.75 270) (size 1.3 0.26) (layers F.Cu F.Paste F.Mask) (roundrect_rratio 0.077)
    (solder_mask_margin 0.05) (solder_paste_margin -0.025) (clearance 0.065))
  (pad 111 smd roundrect (at -2.2 -7.75 270) (size 1.3 0.26) (layers F.Cu F.Paste F.Mask) (roundrect_rratio 0.077)
    (solder_mask_margin 0.05) (solder_paste_margin -0.025) (clearance 0.065))
  (pad 112 smd roundrect (at -2.6 -7.75 270) (size 1.3 0.26) (layers F.Cu F.Paste F.Mask) (roundrect_rratio 0.077)
    (solder_mask_margin 0.05) (solder_paste_margin -0.025) (clearance 0.065))
  (pad 113 smd roundrect (at -3 -7.75 270) (size 1.3 0.26) (layers F.Cu F.Paste F.Mask) (roundrect_rratio 0.077)
    (solder_mask_margin 0.05) (solder_paste_margin -0.025) (clearance 0.065))
  (pad 114 smd roundrect (at -3.4 -7.75 270) (size 1.3 0.26) (layers F.Cu F.Paste F.Mask) (roundrect_rratio 0.077)
    (solder_mask_margin 0.05) (solder_paste_margin -0.025) (clearance 0.065))
  (pad 115 smd roundrect (at -3.8 -7.75 270) (size 1.3 0.26) (layers F.Cu F.Paste F.Mask) (roundrect_rratio 0.077)
    (solder_mask_margin 0.05) (solder_paste_margin -0.025) (clearance 0.065))
  (pad 116 smd roundrect (at -4.2 -7.75 270) (size 1.3 0.26) (layers F.Cu F.Paste F.Mask) (roundrect_rratio 0.077)
    (solder_mask_margin 0.05) (solder_paste_margin -0.025) (clearance 0.065))
  (pad 117 smd roundrect (at -4.6 -7.75 270) (size 1.3 0.26) (layers F.Cu F.Paste F.Mask) (roundrect_rratio 0.077)
    (solder_mask_margin 0.05) (solder_paste_margin -0.025) (clearance 0.065))
  (pad 118 smd roundrect (at -5 -7.75 270) (size 1.3 0.26) (layers F.Cu F.Paste F.Mask) (roundrect_rratio 0.077)
    (solder_mask_margin 0.05) (solder_paste_margin -0.025) (clearance 0.065))
  (pad 119 smd roundrect (at -5.4 -7.75 270) (size 1.3 0.26) (layers F.Cu F.Paste F.Mask) (roundrect_rratio 0.077)
    (solder_mask_margin 0.05) (solder_paste_margin -0.025) (clearance 0.065))
  (pad 120 smd roundrect (at -5.8 -7.75 270) (size 1.3 0.26) (layers F.Cu F.Paste F.Mask) (roundrect_rratio 0.077)
    (solder_mask_margin 0.05) (solder_paste_margin -0.025) (clearance 0.065))
  (pad 121 smd roundrect (at 0 0 270) (size 5.4 5.4) (layers F.Cu F.Mask) (roundrect_rratio 0.01)
    (solder_mask_margin 0.12) (solder_paste_margin -0.25) (clearance 0.2) (zone_connect 1) (thermal_width 2) (thermal_gap 0.2))
  (model ${MY3DMOD}/QFP-120-14x14_0.4mm.step
    (at (xyz 0 0 0))
    (scale (xyz 1 1 1))
    (rotate (xyz -90 0 0))
  )
)
