(module SC-70-3 (layer F.Cu) (tedit 5CFA397F)
  (fp_text reference REF** (at 0 -1.8) (layer F.SilkS)
    (effects (font (size 0.7 0.7) (thickness 0.15)))
  )
  (fp_text value SC-70-3 (at 0 1.7) (layer F.Fab)
    (effects (font (size 0.4 0.4) (thickness 0.075)))
  )
  (fp_line (start 0 -0.5) (end 0 0.5) (layer F.Adhes) (width 0.25))
  (fp_line (start -1.6 1.2) (end -1.6 -1.2) (layer F.CrtYd) (width 0.1))
  (fp_line (start 1.6 1.2) (end -1.6 1.2) (layer F.CrtYd) (width 0.1))
  (fp_line (start 1.6 -1.2) (end 1.6 1.2) (layer F.CrtYd) (width 0.1))
  (fp_line (start -1.6 -1.2) (end 1.6 -1.2) (layer F.CrtYd) (width 0.1))
  (fp_line (start -0.825 1.175) (end -0.825 1.1) (layer F.SilkS) (width 0.15))
  (fp_line (start -0.825 1.175) (end 0.825 1.175) (layer F.SilkS) (width 0.15))
  (fp_line (start 0.825 1.175) (end 0.825 1.1) (layer F.SilkS) (width 0.15))
  (fp_line (start 0.825 -1.175) (end 0.825 -1.1) (layer F.SilkS) (width 0.15))
  (fp_line (start -0.825 -1.175) (end -0.825 -1.1) (layer F.SilkS) (width 0.15))
  (fp_line (start -0.825 -1.175) (end 0.825 -1.175) (layer F.SilkS) (width 0.15))
  (fp_line (start 0.65 -0.1) (end 1 -0.1) (layer F.Fab) (width 0.05))
  (fp_line (start 1 -0.1) (end 1 0.1) (layer F.Fab) (width 0.05))
  (fp_line (start 1 0.1) (end 0.65 0.1) (layer F.Fab) (width 0.05))
  (fp_line (start -0.65 0.55) (end -1 0.55) (layer F.Fab) (width 0.05))
  (fp_line (start -1 0.55) (end -1 0.75) (layer F.Fab) (width 0.05))
  (fp_line (start -1 0.75) (end -0.65 0.75) (layer F.Fab) (width 0.05))
  (fp_line (start -0.65 -0.75) (end -1 -0.75) (layer F.Fab) (width 0.05))
  (fp_line (start -1 -0.75) (end -1 -0.55) (layer F.Fab) (width 0.05))
  (fp_line (start -1 -0.55) (end -0.65 -0.55) (layer F.Fab) (width 0.05))
  (fp_line (start -0.65 -1) (end 0.65 -1) (layer F.Fab) (width 0.05))
  (fp_line (start 0.65 -1) (end 0.65 1) (layer F.Fab) (width 0.05))
  (fp_line (start 0.65 1) (end -0.65 1) (layer F.Fab) (width 0.05))
  (fp_line (start -0.65 1) (end -0.65 -1) (layer F.Fab) (width 0.05))
  (pad 1 smd rect (at -1.1 -0.65) (size 0.9 0.4) (layers F.Cu F.Paste F.Mask)
    (solder_mask_margin 0.05) (solder_paste_margin -0.025))
  (pad 2 smd rect (at -1.1 0.65) (size 0.9 0.4) (layers F.Cu F.Paste F.Mask)
    (solder_mask_margin 0.05) (solder_paste_margin -0.025))
  (pad 3 smd rect (at 1.1 0) (size 0.9 0.4) (layers F.Cu F.Paste F.Mask)
    (solder_mask_margin 0.05) (solder_paste_margin -0.025))
)
