(module SOD-123W (layer F.Cu) (tedit 5901DCB5)
  (fp_text reference REF** (at 0 -1.65) (layer F.SilkS)
    (effects (font (size 0.7 0.7) (thickness 0.15)))
  )
  (fp_text value SOD-123W (at 0.25 0) (layer F.Fab)
    (effects (font (size 0.2 0.2) (thickness 0.05)))
  )
  (fp_line (start -1.4 0.7) (end -1.4 0.95) (layer F.SilkS) (width 0.15))
  (fp_line (start -1.4 0.95) (end 1.4 0.95) (layer F.SilkS) (width 0.15))
  (fp_line (start 1.4 0.95) (end 1.4 0.7) (layer F.SilkS) (width 0.15))
  (fp_line (start -1.4 -0.95) (end 1.4 -0.95) (layer F.SilkS) (width 0.15))
  (fp_line (start 1.4 -0.95) (end 1.4 -0.7) (layer F.SilkS) (width 0.15))
  (fp_line (start -1.4 -0.7) (end -1.4 -0.95) (layer F.SilkS) (width 0.15))
  (fp_line (start -0.9 -0.9) (end -1 -0.9) (layer F.Fab) (width 0.05))
  (fp_line (start -0.9 -0.85) (end -0.9 -0.95) (layer F.Fab) (width 0.05))
  (fp_line (start -1 -0.85) (end -1 -0.95) (layer F.Fab) (width 0.05))
  (fp_line (start -1 0.9) (end -0.9 0.9) (layer F.Fab) (width 0.05))
  (fp_line (start -0.9 0.85) (end -0.9 0.95) (layer F.Fab) (width 0.05))
  (fp_line (start -1 0.85) (end -1 0.95) (layer F.Fab) (width 0.05))
  (fp_line (start -0.95 -0.85) (end -0.95 0.85) (layer F.Fab) (width 0.15))
  (fp_line (start 1.4 -0.5) (end 1.8 -0.5) (layer F.Fab) (width 0.05))
  (fp_line (start 1.8 -0.5) (end 1.8 0.5) (layer F.Fab) (width 0.05))
  (fp_line (start 1.8 0.5) (end 1.4 0.5) (layer F.Fab) (width 0.05))
  (fp_line (start -1.4 -0.5) (end -1.8 -0.5) (layer F.Fab) (width 0.05))
  (fp_line (start -1.8 -0.5) (end -1.8 0.5) (layer F.Fab) (width 0.05))
  (fp_line (start -1.8 0.5) (end -1.4 0.5) (layer F.Fab) (width 0.05))
  (fp_line (start -1.4 0.95) (end 1.4 0.95) (layer F.Fab) (width 0.05))
  (fp_line (start 1.4 0.95) (end 1.4 -0.95) (layer F.Fab) (width 0.05))
  (fp_line (start 1.4 -0.95) (end -1.4 -0.95) (layer F.Fab) (width 0.05))
  (fp_line (start -1.4 -0.95) (end -1.4 0.95) (layer F.Fab) (width 0.05))
  (fp_line (start -1.45 -0.8) (end -1.45 -1.05) (layer F.CrtYd) (width 0.1))
  (fp_line (start -1.45 -1.05) (end 1.45 -1.05) (layer F.CrtYd) (width 0.1))
  (fp_line (start 1.45 -1.05) (end 1.45 -0.8) (layer F.CrtYd) (width 0.1))
  (fp_line (start 1.45 -0.8) (end 2.4 -0.8) (layer F.CrtYd) (width 0.1))
  (fp_line (start 2.4 -0.8) (end 2.4 0.8) (layer F.CrtYd) (width 0.1))
  (fp_line (start 2.4 0.8) (end 1.45 0.8) (layer F.CrtYd) (width 0.1))
  (fp_line (start 1.45 0.8) (end 1.45 1.05) (layer F.CrtYd) (width 0.1))
  (fp_line (start 1.45 1.05) (end -1.45 1.05) (layer F.CrtYd) (width 0.1))
  (fp_line (start -1.45 1.05) (end -1.45 0.8) (layer F.CrtYd) (width 0.1))
  (fp_line (start -2.4 -0.8) (end -1.45 -0.8) (layer F.CrtYd) (width 0.1))
  (fp_line (start -2.4 0.8) (end -1.45 0.8) (layer F.CrtYd) (width 0.1))
  (fp_line (start -2.4 -0.8) (end -2.4 0.8) (layer F.CrtYd) (width 0.1))
  (pad 2 smd rect (at 1.5 0) (size 1.4 1.2) (layers F.Cu F.Paste F.Mask)
    (solder_mask_margin 0.2) (solder_paste_margin -0.05))
  (pad 1 smd rect (at -1.5 0) (size 1.4 1.2) (layers F.Cu F.Paste F.Mask)
    (solder_mask_margin 0.2) (solder_paste_margin -0.05))
)
