(footprint "SOP-8N" (version 20211014) (generator pcbnew)
  (layer "F.Cu")
  (tedit 5C641FED)
  (solder_paste_margin -0.075)
  (zone_connect 1)
  (attr smd)
  (fp_text reference "REF*" (at 0 -3.4 180) (layer "F.SilkS")
    (effects (font (size 0.7 0.7) (thickness 0.15)))
    (tstamp 494350ab-d17d-4de3-8b96-f15451154d6a)
  )
  (fp_text value "SOP-8N" (at 0 0 90) (layer "F.Fab")
    (effects (font (size 0.3 0.3) (thickness 0.06)))
    (tstamp 51153875-01b9-46f2-8b14-6306c8586588)
  )
  (fp_circle (center 0 0) (end 0 -0.25) (layer "F.Adhes") (width 0.5) (fill none) (tstamp 38f1f681-d503-49fe-ab87-4225bebb7b32))
  (fp_line (start -2.125 2.775) (end 2.125 2.775) (layer "F.SilkS") (width 0.15) (tstamp 15b3207d-6547-4224-a45d-823705a30761))
  (fp_line (start 2.125 -2.775) (end 2.125 -2.475) (layer "F.SilkS") (width 0.15) (tstamp 314fcc6b-e3a4-4081-8c91-6170b707f3b4))
  (fp_line (start -1.5 -2.775) (end 2.125 -2.775) (layer "F.SilkS") (width 0.15) (tstamp 899f4c1a-985b-472e-a9b0-465d356ef34c))
  (fp_line (start 2.125 2.775) (end 2.125 2.475) (layer "F.SilkS") (width 0.15) (tstamp e8be39d5-6d33-44d1-b22d-658056cfaa92))
  (fp_line (start -2.125 2.775) (end -2.125 2.475) (layer "F.SilkS") (width 0.15) (tstamp ea84d6c1-7995-47e1-9817-9e2e1b9b4529))
  (fp_circle (center -1.95 -2.6) (end -1.85 -2.6) (layer "F.SilkS") (width 0.3) (fill none) (tstamp ea6915c8-6017-425c-9a4e-41c153c8dabe))
  (fp_rect (start -3.4 -2.9) (end 3.4 2.9) (layer "F.CrtYd") (width 0.01) (fill none) (tstamp 5066ec9a-19df-47c4-8835-fbd519c75492))
  (fp_line (start 3.05 -0.885) (end 1.95 -0.885) (layer "F.Fab") (width 0.01) (tstamp 0fe1f74e-4cc8-412d-b8bc-832159a1ad3e))
  (fp_line (start 3.05 -2.155) (end 3.05 -1.655) (layer "F.Fab") (width 0.01) (tstamp 19b27451-36d1-4db8-a770-a2f4704d803b))
  (fp_line (start -1.95 2.6) (end 1.95 2.6) (layer "F.Fab") (width 0.01) (tstamp 2223eeb5-aa83-44a0-a53a-f71aacabab9c))
  (fp_line (start 1.95 -2.6) (end 1.95 2.6) (layer "F.Fab") (width 0.01) (tstamp 2498638f-f5bc-47e0-a9d3-49191018a41a))
  (fp_line (start 3.05 2.155) (end 1.95 2.155) (layer "F.Fab") (width 0.01) (tstamp 2d950027-8eed-46d2-abb8-2762744219c2))
  (fp_line (start -1.95 2.6) (end -1.95 -2.6) (layer "F.Fab") (width 0.01) (tstamp 2f1a67f5-44b6-4eb7-b122-776c3e081dbc))
  (fp_line (start 3.05 0.385) (end 3.05 0.885) (layer "F.Fab") (width 0.01) (tstamp 3a04ac0e-2ee8-4210-b45b-490cd2425450))
  (fp_line (start -1.95 -0.385) (end -3.05 -0.385) (layer "F.Fab") (width 0.01) (tstamp 43d1f199-f4ee-4683-993f-3ccce3985416))
  (fp_line (start 3.05 -2.155) (end 1.95 -2.155) (layer "F.Fab") (width 0.01) (tstamp 5199ad7b-ab84-4971-9df3-53270a0a37ba))
  (fp_line (start 3.05 1.655) (end 1.95 1.655) (layer "F.Fab") (width 0.01) (tstamp 578b9c3f-045a-4830-a037-9fe8cd94bc66))
  (fp_line (start 3.05 -0.885) (end 3.05 -0.385) (layer "F.Fab") (width 0.01) (tstamp 61e76907-90d9-4f86-b582-ad651e60aa0c))
  (fp_line (start -3.05 -2.155) (end -3.05 -1.655) (layer "F.Fab") (width 0.01) (tstamp 622fea85-fc3a-49dd-a4af-3bfd36c6693d))
  (fp_line (start 3.05 0.385) (end 1.95 0.385) (layer "F.Fab") (width 0.01) (tstamp 6fc49b93-842f-4814-8ca6-1e11c16fa8fa))
  (fp_line (start 3.05 -1.655) (end 1.95 -1.655) (layer "F.Fab") (width 0.01) (tstamp 7915db52-1f07-44c7-b796-c7fc1aca7b67))
  (fp_line (start -1.95 0.385) (end -3.05 0.385) (layer "F.Fab") (width 0.01) (tstamp 97db2584-9d07-47ab-a55c-f2cbce602789))
  (fp_line (start -3.05 0.385) (end -3.05 0.885) (layer "F.Fab") (width 0.01) (tstamp a2c9cbc7-7eac-476f-b409-1772289f1cc4))
  (fp_line (start -1.95 -2.155) (end -3.05 -2.155) (layer "F.Fab") (width 0.01) (tstamp ae113a97-dd90-42bf-96ea-bb92e7431ac6))
  (fp_line (start -3.05 -0.885) (end -3.05 -0.385) (layer "F.Fab") (width 0.01) (tstamp b48e1e47-217a-4f46-9867-a25c61e99a99))
  (fp_line (start -3.05 1.655) (end -3.05 2.155) (layer "F.Fab") (width 0.01) (tstamp c256589d-83d1-4f06-a2eb-b3eee59a3f04))
  (fp_line (start -1.95 2.155) (end -3.05 2.155) (layer "F.Fab") (width 0.01) (tstamp c6765903-bc36-44e7-9cb8-22f731f64003))
  (fp_line (start -1.95 1.655) (end -3.05 1.655) (layer "F.Fab") (width 0.01) (tstamp cad3b6e3-3bb4-4763-abef-63fde40972bf))
  (fp_line (start 3.05 1.655) (end 3.05 2.155) (layer "F.Fab") (width 0.01) (tstamp cf7be387-da08-4d97-a3e9-4ac4123d2c0a))
  (fp_line (start -1.95 -0.885) (end -3.05 -0.885) (layer "F.Fab") (width 0.01) (tstamp d2d5f057-3d3f-4824-ba53-bea972f61938))
  (fp_line (start 3.05 -0.385) (end 1.95 -0.385) (layer "F.Fab") (width 0.01) (tstamp d93d269d-5381-4718-9ad0-eea6c95f2fda))
  (fp_line (start 3.05 0.885) (end 1.95 0.885) (layer "F.Fab") (width 0.01) (tstamp dca3b52c-6cfb-46fe-8a89-560fb218906c))
  (fp_line (start -1.95 0.885) (end -3.05 0.885) (layer "F.Fab") (width 0.01) (tstamp e239469c-9034-4436-88b6-92607b1872a3))
  (fp_line (start -1.95 -1.655) (end -3.05 -1.655) (layer "F.Fab") (width 0.01) (tstamp e65c2eb9-e95a-44ea-ab2b-9e65a76fb5f9))
  (fp_line (start 1.95 -2.6) (end -1.95 -2.6) (layer "F.Fab") (width 0.01) (tstamp f35f3ca6-627a-459d-ac6f-93bc55931ba4))
  (fp_circle (center -1.3 -1.9) (end -1.1 -1.9) (layer "F.Fab") (width 0.01) (fill none) (tstamp ce1420d2-2748-4ed6-89ac-721f9b8252dd))
  (pad "1" smd roundrect (at -2.65 -1.905 270) (size 0.6 1.4) (layers "F.Cu" "F.Paste" "F.Mask") (roundrect_rratio 0.1)
    (zone_connect 1) (tstamp 8cd8d6bd-0601-49fc-9009-a437af9b27c1))
  (pad "2" smd roundrect (at -2.65 -0.635 270) (size 0.6 1.4) (layers "F.Cu" "F.Paste" "F.Mask") (roundrect_rratio 0.1)
    (zone_connect 1) (tstamp f157df02-fcb0-4ae7-85ca-bfc4444eda90))
  (pad "3" smd roundrect (at -2.65 0.635 270) (size 0.6 1.4) (layers "F.Cu" "F.Paste" "F.Mask") (roundrect_rratio 0.1)
    (zone_connect 1) (tstamp c0eb397c-0f0a-48f2-a4a7-a39c38857565))
  (pad "4" smd roundrect (at -2.65 1.905 270) (size 0.6 1.4) (layers "F.Cu" "F.Paste" "F.Mask") (roundrect_rratio 0.1)
    (zone_connect 1) (tstamp f64aa569-ea55-4736-9c96-3bfc2b30ccbd))
  (pad "5" smd roundrect (at 2.65 1.905 270) (size 0.6 1.4) (layers "F.Cu" "F.Paste" "F.Mask") (roundrect_rratio 0.1)
    (zone_connect 1) (tstamp 4ea989fb-9cda-4210-89d1-fe153727e40c))
  (pad "6" smd roundrect (at 2.65 0.635 270) (size 0.6 1.4) (layers "F.Cu" "F.Paste" "F.Mask") (roundrect_rratio 0.1)
    (zone_connect 1) (tstamp 4e647fa9-4baf-493a-891e-373b7bb90db1))
  (pad "7" smd roundrect (at 2.65 -0.635 270) (size 0.6 1.4) (layers "F.Cu" "F.Paste" "F.Mask") (roundrect_rratio 0.1)
    (zone_connect 1) (tstamp 6eaf44a5-2bb8-4e84-ae85-e082a57042dd))
  (pad "8" smd roundrect (at 2.65 -1.905 270) (size 0.6 1.4) (layers "F.Cu" "F.Paste" "F.Mask") (roundrect_rratio 0.1)
    (zone_connect 1) (tstamp b9f78253-7769-4896-9d90-a085649a16bc))
  (model "${MY_3DOBJECT}/SO/SOP-8N.STEP"
    (offset (xyz 0 0 0))
    (scale (xyz 1 1 1))
    (rotate (xyz -90 0 90))
  )
)
