(module SOP-14N (layer F.Cu) (tedit 60537054)
  (descr "Small outline 14-pin package, narrow")
  (tags "so sop 14")
  (autoplace_cost90 10)
  (autoplace_cost180 10)
  (solder_mask_margin 0.05)
  (solder_paste_margin -0.05)
  (clearance 0.15)
  (zone_connect 1)
  (attr smd)
  (fp_text reference REF* (at 0 -5.15) (layer F.SilkS)
    (effects (font (size 0.6 0.6) (thickness 0.15)))
  )
  (fp_text value SOP-14N (at 0 0 270) (layer F.Fab)
    (effects (font (size 0.4 0.4) (thickness 0.075)))
  )
  (fp_circle (center -2.15 -4.55) (end -2.05 -4.55) (layer F.SilkS) (width 0.3))
  (fp_line (start -3.45 4.6) (end -3.45 -4.6) (layer F.CrtYd) (width 0.01))
  (fp_line (start 3.45 4.6) (end -3.45 4.6) (layer F.CrtYd) (width 0.01))
  (fp_line (start 3.45 -4.6) (end 3.45 4.6) (layer F.CrtYd) (width 0.01))
  (fp_line (start -3.45 -4.6) (end 3.45 -4.6) (layer F.CrtYd) (width 0.01))
  (fp_line (start -2.1 4.5) (end -2.1 4.35) (layer F.SilkS) (width 0.15))
  (fp_line (start 2.1 4.5) (end -2.1 4.5) (layer F.SilkS) (width 0.15))
  (fp_line (start 2.1 4.35) (end 2.1 4.5) (layer F.SilkS) (width 0.15))
  (fp_line (start 2.1 -4.5) (end -1.65 -4.5) (layer F.SilkS) (width 0.15))
  (fp_line (start 2.1 -4.5) (end 2.1 -4.35) (layer F.SilkS) (width 0.15))
  (fp_line (start -3 -3.61) (end -2 -3.61) (layer F.Fab) (width 0.01))
  (fp_line (start -3 -4.01) (end -3 -3.61) (layer F.Fab) (width 0.01))
  (fp_line (start -2 -4.01) (end -3 -4.01) (layer F.Fab) (width 0.01))
  (fp_circle (center -1.3 -3.6) (end -1.1 -3.6) (layer F.Fab) (width 0.01))
  (fp_line (start 2 4.4) (end -2 4.4) (layer F.Fab) (width 0.01))
  (fp_line (start 2 -4.4) (end 2 4.4) (layer F.Fab) (width 0.01))
  (fp_line (start -2 -4.4) (end 2 -4.4) (layer F.Fab) (width 0.01))
  (fp_line (start -2 4.4) (end -2 -4.4) (layer F.Fab) (width 0.01))
  (fp_line (start -3 -2.74) (end -3 -2.34) (layer F.Fab) (width 0.01))
  (fp_line (start -3 -1.47) (end -3 -1.07) (layer F.Fab) (width 0.01))
  (fp_line (start -3 -0.2) (end -3 0.2) (layer F.Fab) (width 0.01))
  (fp_line (start -3 1.07) (end -3 1.47) (layer F.Fab) (width 0.01))
  (fp_line (start -3 2.34) (end -3 2.74) (layer F.Fab) (width 0.01))
  (fp_line (start -3 3.61) (end -3 4.01) (layer F.Fab) (width 0.01))
  (fp_line (start -3 -2.34) (end -2 -2.34) (layer F.Fab) (width 0.01))
  (fp_line (start -3 -1.07) (end -2 -1.07) (layer F.Fab) (width 0.01))
  (fp_line (start -3 0.2) (end -2 0.2) (layer F.Fab) (width 0.01))
  (fp_line (start -3 1.47) (end -2 1.47) (layer F.Fab) (width 0.01))
  (fp_line (start -3 2.74) (end -2 2.74) (layer F.Fab) (width 0.01))
  (fp_line (start -3 4.01) (end -2 4.01) (layer F.Fab) (width 0.01))
  (fp_line (start -2 -2.74) (end -3 -2.74) (layer F.Fab) (width 0.01))
  (fp_line (start -2 -1.47) (end -3 -1.47) (layer F.Fab) (width 0.01))
  (fp_line (start -2 -0.2) (end -3 -0.2) (layer F.Fab) (width 0.01))
  (fp_line (start -2 1.07) (end -3 1.07) (layer F.Fab) (width 0.01))
  (fp_line (start -2 2.34) (end -3 2.34) (layer F.Fab) (width 0.01))
  (fp_line (start -2 3.61) (end -3 3.61) (layer F.Fab) (width 0.01))
  (fp_line (start 3 4.01) (end 3 3.61) (layer F.Fab) (width 0.01))
  (fp_line (start 3 3.61) (end 2 3.61) (layer F.Fab) (width 0.01))
  (fp_line (start 2 4.01) (end 3 4.01) (layer F.Fab) (width 0.01))
  (fp_line (start 3 -0.2) (end 2 -0.2) (layer F.Fab) (width 0.01))
  (fp_line (start 3 2.74) (end 3 2.34) (layer F.Fab) (width 0.01))
  (fp_line (start 3 -4.01) (end 2 -4.01) (layer F.Fab) (width 0.01))
  (fp_line (start 3 -2.34) (end 3 -2.74) (layer F.Fab) (width 0.01))
  (fp_line (start 2 1.47) (end 3 1.47) (layer F.Fab) (width 0.01))
  (fp_line (start 2 -3.61) (end 3 -3.61) (layer F.Fab) (width 0.01))
  (fp_line (start 3 2.34) (end 2 2.34) (layer F.Fab) (width 0.01))
  (fp_line (start 3 -1.47) (end 2 -1.47) (layer F.Fab) (width 0.01))
  (fp_line (start 3 -2.74) (end 2 -2.74) (layer F.Fab) (width 0.01))
  (fp_line (start 2 2.74) (end 3 2.74) (layer F.Fab) (width 0.01))
  (fp_line (start 3 -3.61) (end 3 -4.01) (layer F.Fab) (width 0.01))
  (fp_line (start 2 0.2) (end 3 0.2) (layer F.Fab) (width 0.01))
  (fp_line (start 3 1.07) (end 2 1.07) (layer F.Fab) (width 0.01))
  (fp_line (start 3 -1.07) (end 3 -1.47) (layer F.Fab) (width 0.01))
  (fp_line (start 2 -2.34) (end 3 -2.34) (layer F.Fab) (width 0.01))
  (fp_line (start 2 -1.07) (end 3 -1.07) (layer F.Fab) (width 0.01))
  (fp_line (start 3 1.47) (end 3 1.07) (layer F.Fab) (width 0.01))
  (fp_line (start 3 0.2) (end 3 -0.2) (layer F.Fab) (width 0.01))
  (fp_text user "Model: www.3dcontentcentral.com by Antonio Fagaldo" (at 0 4.75) (layer Cmts.User) hide
    (effects (font (size 0.125 0.125) (thickness 0.01)))
  )
  (pad 1 smd roundrect (at -2.7 -3.81 270) (size 0.6 1.55) (layers F.Cu F.Paste F.Mask) (roundrect_rratio 0.1)
    (zone_connect 1))
  (pad 2 smd roundrect (at -2.7 -2.54 270) (size 0.6 1.55) (layers F.Cu F.Paste F.Mask) (roundrect_rratio 0.1)
    (zone_connect 1))
  (pad 3 smd roundrect (at -2.7 -1.27 270) (size 0.6 1.55) (layers F.Cu F.Paste F.Mask) (roundrect_rratio 0.1)
    (zone_connect 1))
  (pad 4 smd roundrect (at -2.7 0 270) (size 0.6 1.55) (layers F.Cu F.Paste F.Mask) (roundrect_rratio 0.1)
    (zone_connect 1))
  (pad 5 smd roundrect (at -2.7 1.27 270) (size 0.6 1.55) (layers F.Cu F.Paste F.Mask) (roundrect_rratio 0.1)
    (zone_connect 1))
  (pad 6 smd roundrect (at -2.7 2.54 270) (size 0.6 1.55) (layers F.Cu F.Paste F.Mask) (roundrect_rratio 0.1)
    (zone_connect 1))
  (pad 7 smd roundrect (at -2.7 3.81 270) (size 0.6 1.55) (layers F.Cu F.Paste F.Mask) (roundrect_rratio 0.1)
    (zone_connect 1))
  (pad 8 smd roundrect (at 2.7 3.81 270) (size 0.6 1.55) (layers F.Cu F.Paste F.Mask) (roundrect_rratio 0.1)
    (zone_connect 1))
  (pad 9 smd roundrect (at 2.7 2.54 270) (size 0.6 1.55) (layers F.Cu F.Paste F.Mask) (roundrect_rratio 0.1)
    (zone_connect 1))
  (pad 10 smd roundrect (at 2.7 1.27 270) (size 0.6 1.55) (layers F.Cu F.Paste F.Mask) (roundrect_rratio 0.1)
    (zone_connect 1))
  (pad 11 smd roundrect (at 2.7 0 270) (size 0.6 1.55) (layers F.Cu F.Paste F.Mask) (roundrect_rratio 0.1)
    (zone_connect 1))
  (pad 12 smd roundrect (at 2.7 -1.27 270) (size 0.6 1.55) (layers F.Cu F.Paste F.Mask) (roundrect_rratio 0.1)
    (zone_connect 1))
  (pad 13 smd roundrect (at 2.7 -2.54 270) (size 0.6 1.55) (layers F.Cu F.Paste F.Mask) (roundrect_rratio 0.1)
    (zone_connect 1))
  (pad 14 smd roundrect (at 2.7 -3.81 270) (size 0.6 1.55) (layers F.Cu F.Paste F.Mask) (roundrect_rratio 0.1)
    (zone_connect 1))
  (model ${MY3DMOD}/SOP-14N.step
    (offset (xyz 0 0 0.9))
    (scale (xyz 1 1 1))
    (rotate (xyz -90 0 90))
  )
)
