(module SOT-23-5 (layer F.Cu) (tedit 5A707FB4)
  (attr smd)
  (fp_text reference REF** (at -2.15 0 90) (layer F.SilkS)
    (effects (font (size 0.6 0.6) (thickness 0.15)))
  )
  (fp_text value SOT-23-5 (at 0 0 180) (layer F.Fab)
    (effects (font (size 0.3 0.3) (thickness 0.06)))
  )
  (fp_line (start 1.6 1.7) (end 1.6 -1.7) (layer F.CrtYd) (width 0.1))
  (fp_line (start 1.6 -1.7) (end -1.6 -1.7) (layer F.CrtYd) (width 0.1))
  (fp_line (start -1.6 -1.7) (end -1.6 1.7) (layer F.CrtYd) (width 0.1))
  (fp_line (start -1.6 1.7) (end 1.6 1.7) (layer F.CrtYd) (width 0.1))
  (fp_line (start -1.575 0.975) (end -1.5 0.975) (layer F.SilkS) (width 0.15))
  (fp_line (start -1.575 0.975) (end -1.575 -0.975) (layer F.SilkS) (width 0.15))
  (fp_line (start -1.575 -0.975) (end -1.5 -0.975) (layer F.SilkS) (width 0.15))
  (fp_line (start 1.575 0.975) (end 1.5 0.975) (layer F.SilkS) (width 0.15))
  (fp_line (start 1.575 0.975) (end 1.575 -0.975) (layer F.SilkS) (width 0.15))
  (fp_line (start 1.575 -0.975) (end 1.5 -0.975) (layer F.SilkS) (width 0.15))
  (fp_circle (center 0 0) (end -0.1 0) (layer F.Adhes) (width 0.2))
  (fp_circle (center 1.1 -0.5) (end 1 -0.5) (layer F.SilkS) (width 0.15))
  (fp_circle (center 1.1 -0.5) (end 1 -0.5) (layer F.Fab) (width 0.05))
  (fp_line (start 1.4 0.8) (end 1.4 -0.8) (layer F.Fab) (width 0.05))
  (fp_line (start 1.4 -0.8) (end -1.4 -0.8) (layer F.Fab) (width 0.05))
  (fp_line (start -1.4 -0.8) (end -1.4 0.8) (layer F.Fab) (width 0.05))
  (fp_line (start -1.4 0.8) (end 1.4 0.8) (layer F.Fab) (width 0.05))
  (pad 1 smd rect (at 0.95 -1.225 180) (size 0.56 0.85) (layers F.Cu F.Paste F.Mask)
    (solder_mask_margin 0.05) (solder_paste_margin -0.075))
  (pad 2 smd rect (at 0 -1.225 180) (size 0.56 0.85) (layers F.Cu F.Paste F.Mask)
    (solder_mask_margin 0.05) (solder_paste_margin -0.075))
  (pad 3 smd rect (at -0.95 -1.225 180) (size 0.56 0.85) (layers F.Cu F.Paste F.Mask)
    (solder_mask_margin 0.05) (solder_paste_margin -0.075))
  (pad 4 smd rect (at -0.95 1.225 180) (size 0.56 0.85) (layers F.Cu F.Paste F.Mask)
    (solder_mask_margin 0.05) (solder_paste_margin -0.075))
  (pad 5 smd rect (at 0.95 1.225 180) (size 0.56 0.85) (layers F.Cu F.Paste F.Mask)
    (solder_mask_margin 0.05) (solder_paste_margin -0.075))
)
