(module TO-263-3 (layer F.Cu) (tedit 582B37D8)
  (fp_text reference REF** (at 0 -6.9) (layer F.SilkS)
    (effects (font (size 0.8 0.8) (thickness 0.15)))
  )
  (fp_text value TO-263-3 (at 0 -0.6) (layer F.Fab)
    (effects (font (size 0.7 0.7) (thickness 0.075)))
  )
  (fp_line (start 1.4 4.6) (end 1.4 4.8) (layer F.SilkS) (width 0.15))
  (fp_line (start 1.4 4.8) (end 3.2 4.8) (layer F.SilkS) (width 0.15))
  (fp_line (start 3.2 4.8) (end 3.2 4.5) (layer F.SilkS) (width 0.15))
  (fp_line (start -3.2 4.6) (end -3.2 4.8) (layer F.SilkS) (width 0.15))
  (fp_line (start -3.2 4.8) (end -1.4 4.8) (layer F.SilkS) (width 0.15))
  (fp_line (start -1.4 4.8) (end -1.4 4.6) (layer F.SilkS) (width 0.15))
  (fp_line (start -3.3 -4.5) (end -3.5 -4.5) (layer F.SilkS) (width 0.15))
  (fp_line (start -3.5 -4.5) (end -3.5 1.1) (layer F.SilkS) (width 0.15))
  (fp_line (start -3.5 1.1) (end 3.5 1.1) (layer F.SilkS) (width 0.15))
  (fp_line (start 3.5 1.1) (end 3.5 -4.5) (layer F.SilkS) (width 0.15))
  (fp_line (start 3.5 -4.5) (end 3.3 -4.5) (layer F.SilkS) (width 0.15))
  (fp_line (start -1.4 4.8) (end -3.2 4.8) (layer F.CrtYd) (width 0.1))
  (fp_line (start 3.2 4.8) (end 1.4 4.8) (layer F.CrtYd) (width 0.1))
  (fp_line (start -1.4 4.8) (end -1.4 1.8) (layer F.CrtYd) (width 0.1))
  (fp_line (start -1.4 1.8) (end 1.4 1.8) (layer F.CrtYd) (width 0.1))
  (fp_line (start 1.4 1.8) (end 1.4 4.8) (layer F.CrtYd) (width 0.1))
  (fp_line (start -3.4 1) (end -3.4 -4.4) (layer F.CrtYd) (width 0.1))
  (fp_line (start -3.4 -4.4) (end -3.3 -4.5) (layer F.CrtYd) (width 0.1))
  (fp_line (start -3.3 -4.5) (end -3.3 -6.2) (layer F.CrtYd) (width 0.1))
  (fp_line (start -3.3 -6.2) (end 3.3 -6.2) (layer F.CrtYd) (width 0.1))
  (fp_line (start 3.3 -6.2) (end 3.3 -4.5) (layer F.CrtYd) (width 0.1))
  (fp_line (start 3.3 -4.5) (end 3.4 -4.4) (layer F.CrtYd) (width 0.1))
  (fp_line (start 3.4 -4.4) (end 3.4 1) (layer F.CrtYd) (width 0.1))
  (fp_line (start 3.4 1) (end 3.2 1) (layer F.CrtYd) (width 0.1))
  (fp_line (start 3.2 1) (end 3.2 4.8) (layer F.CrtYd) (width 0.1))
  (fp_line (start -3.2 4.8) (end -3.2 1) (layer F.CrtYd) (width 0.1))
  (fp_line (start -3.2 1) (end -3.4 1) (layer F.CrtYd) (width 0.1))
  (fp_line (start -0.5 1.5) (end -0.5 0.9) (layer F.Fab) (width 0.05))
  (fp_line (start 0.4 1.6) (end -0.4 1.6) (layer F.Fab) (width 0.05))
  (fp_line (start 0.5 1.5) (end 0.5 0.9) (layer F.Fab) (width 0.05))
  (fp_arc (start 0.4 1.5) (end 0.5 1.5) (angle 90) (layer F.Fab) (width 0.05))
  (fp_arc (start -0.4 1.5) (end -0.4 1.6) (angle 90) (layer F.Fab) (width 0.05))
  (fp_line (start 1.7 1.55) (end 1.7 0.9) (layer F.Fab) (width 0.05))
  (fp_line (start 2.7 1.55) (end 2.7 0.9) (layer F.Fab) (width 0.05))
  (fp_line (start 2.55 1.7) (end 2.7 1.55) (layer F.Fab) (width 0.05))
  (fp_line (start 1.85 1.7) (end 1.7 1.55) (layer F.Fab) (width 0.05))
  (fp_line (start -2.7 1.55) (end -2.7 0.9) (layer F.Fab) (width 0.05))
  (fp_line (start -1.7 1.55) (end -1.7 0.9) (layer F.Fab) (width 0.05))
  (fp_line (start -1.85 1.7) (end -1.7 1.55) (layer F.Fab) (width 0.05))
  (fp_line (start -2.55 1.7) (end -2.7 1.55) (layer F.Fab) (width 0.05))
  (fp_line (start 1.85 1.7) (end 1.85 4.2) (layer F.Fab) (width 0.05))
  (fp_line (start 2.55 4.2) (end 2.55 1.7) (layer F.Fab) (width 0.05))
  (fp_line (start -1.85 4.2) (end -1.85 1.7) (layer F.Fab) (width 0.05))
  (fp_line (start -2.55 4.2) (end -2.55 1.7) (layer F.Fab) (width 0.05))
  (fp_line (start 1.85 4.2) (end 2.55 4.2) (layer F.Fab) (width 0.05))
  (fp_line (start -2.55 4.2) (end -1.85 4.2) (layer F.Fab) (width 0.05))
  (fp_circle (center 0 -4.15) (end 0 -4.6) (layer F.Fab) (width 0.05))
  (fp_line (start 2.5 -5.5) (end 2.5 -5.1) (layer F.Fab) (width 0.05))
  (fp_line (start -2.5 -5.5) (end -2.5 -5.1) (layer F.Fab) (width 0.05))
  (fp_line (start -1.2 -5.6) (end -2.5 -5.5) (layer F.Fab) (width 0.05))
  (fp_line (start -1.2 -5.6) (end -1.2 -5.4) (layer F.Fab) (width 0.05))
  (fp_line (start -1.2 -5.4) (end 1.2 -5.4) (layer F.Fab) (width 0.05))
  (fp_line (start 1.2 -5.4) (end 1.2 -5.6) (layer F.Fab) (width 0.05))
  (fp_line (start 1.2 -5.6) (end 2.5 -5.5) (layer F.Fab) (width 0.05))
  (fp_line (start -3.3 -4.3) (end -3.3 0.9) (layer F.Fab) (width 0.05))
  (fp_line (start 3.3 -4.3) (end 3.3 0.9) (layer F.Fab) (width 0.05))
  (fp_line (start -2.5 -5.1) (end 2.5 -5.1) (layer F.Fab) (width 0.05))
  (fp_line (start 2.5 -5.1) (end 3.3 -4.3) (layer F.Fab) (width 0.05))
  (fp_line (start -2.5 -5.1) (end -3.3 -4.3) (layer F.Fab) (width 0.05))
  (fp_line (start -3.3 0.9) (end 3.3 0.9) (layer F.Fab) (width 0.05))
  (pad 1 smd rect (at 0 -3.05) (size 6.3 6.1) (layers F.Cu F.Paste F.Mask))
  (pad 2 smd rect (at -2.3 3.25) (size 1.5 2.8) (layers F.Cu F.Paste F.Mask))
  (pad 3 smd rect (at 2.3 3.25) (size 1.5 2.8) (layers F.Cu F.Paste F.Mask))
)
