(module VCNL4035 (layer F.Cu) (tedit 5A142A92)
  (fp_text reference REF** (at 0 -2.8) (layer F.SilkS)
    (effects (font (size 0.7 0.7) (thickness 0.15)))
  )
  (fp_text value VCNL4035 (at 0 2.7) (layer F.Fab)
    (effects (font (size 0.4 0.4) (thickness 0.075)))
  )
  (fp_line (start -1.55 -2.15) (end 1.55 -2.15) (layer F.CrtYd) (width 0.1))
  (fp_line (start 1.55 -2.15) (end 1.55 2.15) (layer F.CrtYd) (width 0.1))
  (fp_line (start 1.55 2.15) (end -1.55 2.15) (layer F.CrtYd) (width 0.1))
  (fp_line (start -1.55 2.15) (end -1.55 -2.15) (layer F.CrtYd) (width 0.1))
  (fp_circle (center -0.4 -1.65) (end -0.4 -1.75) (layer F.SilkS) (width 0.15))
  (fp_line (start -1.35 2.1) (end -1.35 2.15) (layer F.SilkS) (width 0.15))
  (fp_line (start -1.35 2.15) (end 1.35 2.15) (layer F.SilkS) (width 0.15))
  (fp_line (start 1.35 2.15) (end 1.35 2.1) (layer F.SilkS) (width 0.15))
  (fp_line (start -1.35 -2.1) (end -1.35 -2.15) (layer F.SilkS) (width 0.15))
  (fp_line (start -1.35 -2.15) (end 1.35 -2.15) (layer F.SilkS) (width 0.15))
  (fp_line (start 1.35 -2.15) (end 1.35 -2.1) (layer F.SilkS) (width 0.15))
  (fp_line (start 0.4 -0.9) (end 0.25 -0.75) (layer F.Fab) (width 0.05))
  (fp_line (start 0.4 -1.55) (end 0.4 -0.9) (layer F.Fab) (width 0.05))
  (fp_line (start -0.4 -0.75) (end 0.25 -0.75) (layer F.Fab) (width 0.05))
  (fp_line (start -0.4 -1.55) (end 0.4 -1.55) (layer F.Fab) (width 0.05))
  (fp_line (start -0.4 -0.75) (end -0.4 -1.55) (layer F.Fab) (width 0.05))
  (fp_line (start -1.2 -2) (end -1.2 2) (layer F.Fab) (width 0.05))
  (fp_line (start -1.2 2) (end 1.2 2) (layer F.Fab) (width 0.05))
  (fp_line (start 1.2 2) (end 1.2 -2) (layer F.Fab) (width 0.05))
  (fp_line (start 1.2 -2) (end -1.2 -2) (layer F.Fab) (width 0.05))
  (pad 1 smd rect (at -1.05 -1.575) (size 0.7 0.7) (layers F.Cu F.Paste F.Mask)
    (solder_paste_margin -0.1))
  (pad 3 smd rect (at 0 -0.425) (size 0.8 1.8) (layers F.Cu F.Paste F.Mask)
    (solder_paste_margin -0.2))
  (pad 2 smd rect (at -1.05 -0.525) (size 0.7 0.7) (layers F.Cu F.Paste F.Mask)
    (solder_paste_margin -0.1))
  (pad 3 smd rect (at -1.05 0.525) (size 0.7 0.7) (layers F.Cu F.Paste F.Mask)
    (solder_paste_margin -0.1))
  (pad 4 smd rect (at -1.05 1.575) (size 0.7 0.7) (layers F.Cu F.Paste F.Mask)
    (solder_paste_margin -0.1))
  (pad 5 smd rect (at 1.05 1.575) (size 0.7 0.7) (layers F.Cu F.Paste F.Mask)
    (solder_paste_margin -0.1))
  (pad 6 smd rect (at 1.05 0.525) (size 0.7 0.7) (layers F.Cu F.Paste F.Mask)
    (solder_paste_margin -0.1))
  (pad 7 smd rect (at 1.05 -0.525) (size 0.7 0.7) (layers F.Cu F.Paste F.Mask)
    (solder_paste_margin -0.1))
  (pad 8 smd rect (at 1.05 -1.575) (size 0.7 0.7) (layers F.Cu F.Paste F.Mask)
    (solder_paste_margin -0.1))
)
