(module VISHAY-TCMT111 (layer F.Cu) (tedit 599470F7)
  (fp_text reference REF** (at 0 0) (layer F.SilkS)
    (effects (font (size 0.7 0.7) (thickness 0.15)))
  )
  (fp_text value VISHAY-TCMT111 (at 0 0.9) (layer F.Fab)
    (effects (font (size 0.3 0.3) (thickness 0.05)))
  )
  (fp_line (start -0.5 0) (end 0.5 0) (layer F.Adhes) (width 0.5))
  (fp_line (start 2.2 -1.4) (end 2.2 1.4) (layer F.SilkS) (width 0.15))
  (fp_line (start 2.2 1.4) (end -2.2 1.4) (layer F.SilkS) (width 0.15))
  (fp_line (start -2.2 1.4) (end -2.2 -1.4) (layer F.SilkS) (width 0.15))
  (fp_line (start -2.2 -1.4) (end 2.2 -1.4) (layer F.SilkS) (width 0.15))
  (fp_line (start 3.9 -1.5) (end -3.9 -1.5) (layer F.CrtYd) (width 0.1))
  (fp_line (start -3.9 -1.5) (end -3.9 1.5) (layer F.CrtYd) (width 0.1))
  (fp_line (start -3.9 1.5) (end 3.9 1.5) (layer F.CrtYd) (width 0.1))
  (fp_line (start 3.9 1.5) (end 3.9 -1.5) (layer F.CrtYd) (width 0.1))
  (fp_line (start 2.2 1.4) (end -2.2 1.4) (layer F.Fab) (width 0.05))
  (fp_line (start -2.2 -1.4) (end 2.2 -1.4) (layer F.Fab) (width 0.05))
  (fp_line (start -2.2 -1.4) (end -2.2 1.4) (layer F.Fab) (width 0.05))
  (fp_line (start 2.2 -1.4) (end 2.2 1.4) (layer F.Fab) (width 0.05))
  (pad 1 smd rect (at -3.15 -0.635) (size 1.3 0.9) (layers F.Cu F.Paste F.Mask))
  (pad 2 smd rect (at -3.15 0.635) (size 1.3 0.9) (layers F.Cu F.Paste F.Mask))
  (pad 3 smd rect (at 3.15 0.635) (size 1.3 0.9) (layers F.Cu F.Paste F.Mask))
  (pad 4 smd rect (at 3.15 -0.635) (size 1.3 0.9) (layers F.Cu F.Paste F.Mask))
)
