ISO-10303-21;
HEADER;
FILE_DESCRIPTION (( 'STEP AP214' ),
    '1' );
FILE_NAME ('User Library-SOD323F-1.STEP',
    '2019-02-05T10:35:32',
    ( '' ),
    ( '' ),
    'SwSTEP 2.0',
    'SolidWorks 2019',
    '' );
FILE_SCHEMA (( 'AUTOMOTIVE_DESIGN' ));
ENDSEC;

DATA;
#1 = ORIENTED_EDGE ( 'NONE', *, *, #215, .T. ) ;
#2 = EDGE_CURVE ( 'NONE', #787, #146, #430, .T. ) ;
#3 = FILL_AREA_STYLE ('',( #241 ) ) ;
#4 = LINE ( 'NONE', #565, #704 ) ;
#5 =( GEOMETRIC_REPRESENTATION_CONTEXT ( 3 ) GLOBAL_UNCERTAINTY_ASSIGNED_CONTEXT ( ( #622 ) ) GLOBAL_UNIT_ASSIGNED_CONTEXT ( ( #231, #133, #471 ) ) REPRESENTATION_CONTEXT ( 'NONE', 'WORKASPACE' ) );
#6 = ORIENTED_EDGE ( 'NONE', *, *, #458, .F. ) ;
#7 = ORIENTED_EDGE ( 'NONE', *, *, #243, .F. ) ;
#8 = EDGE_CURVE ( 'NONE', #75, #303, #753, .T. ) ;
#9 = CARTESIAN_POINT ( 'NONE',  ( 1.250000000000000000, -0.2000000000000000111, 0.2500000000000000000 ) ) ;
#10 = FILL_AREA_STYLE_COLOUR ( '', #1002 ) ;
#11 = SURFACE_STYLE_USAGE ( .BOTH. , #815 ) ;
#12 = CARTESIAN_POINT ( 'NONE',  ( 1.250000000000000000, 0.2000000000000000111, 0.2500000000000000000 ) ) ;
#13 = EDGE_LOOP ( 'NONE', ( #378, #69, #29, #495 ) ) ;
#14 = DIRECTION ( 'NONE',  ( 0.0000000000000000000, -0.0000000000000000000, -1.000000000000000000 ) ) ;
#15 =( NAMED_UNIT ( * ) PLANE_ANGLE_UNIT ( ) SI_UNIT ( $, .RADIAN. ) );
#16 = ADVANCED_FACE ( 'NONE', ( #175 ), #95, .F. ) ;
#17 = ORIENTED_EDGE ( 'NONE', *, *, #552, .T. ) ;
#18 = CARTESIAN_POINT ( 'NONE',  ( 0.0000000000000000000, -0.5961718235507426078, 1.000000000000000000 ) ) ;
#19 = CARTESIAN_POINT ( 'NONE',  ( 0.0000000000000000000, 0.5961718235507426078, 1.000000000000000000 ) ) ;
#20 = ORIENTED_EDGE ( 'NONE', *, *, #713, .F. ) ;
#21 = STYLED_ITEM ( 'NONE', ( #933 ), #689 ) ;
#22 = PRESENTATION_LAYER_ASSIGNMENT (  '', '', ( #765 ) ) ;
#23 = COLOUR_RGB ( '',0.7686274509803920907, 0.7686274509803920907, 0.7686274509803920907 ) ;
#24 = DIRECTION ( 'NONE',  ( 8.031127203596330602E-17, -1.000000000000000000, -0.0000000000000000000 ) ) ;
#25 = LINE ( 'NONE', #661, #769 ) ;
#26 = DIRECTION ( 'NONE',  ( 1.000000000000000000, 0.0000000000000000000, 0.0000000000000000000 ) ) ;
#27 = UNCERTAINTY_MEASURE_WITH_UNIT (LENGTH_MEASURE( 1.000000000000000082E-05 ), #978, 'distance_accuracy_value', 'NONE');
#28 = EDGE_CURVE ( 'NONE', #190, #788, #348, .T. ) ;
#29 = ORIENTED_EDGE ( 'NONE', *, *, #288, .F. ) ;
#30 = EDGE_CURVE ( 'NONE', #883, #953, #600, .T. ) ;
#31 = CARTESIAN_POINT ( 'NONE',  ( 0.9000000000000001332, -0.6750000000000000444, 1.000000000000000000 ) ) ;
#32 = CARTESIAN_POINT ( 'NONE',  ( 0.8211718235507428076, 6.594935370945175792E-17, 1.000000000000000000 ) ) ;
#33 =( LENGTH_UNIT ( ) NAMED_UNIT ( * ) SI_UNIT ( .MILLI., .METRE. ) );
#34 = ORIENTED_EDGE ( 'NONE', *, *, #30, .F. ) ;
#35 = ORIENTED_EDGE ( 'NONE', *, *, #936, .T. ) ;
#36 = SURFACE_STYLE_FILL_AREA ( #660 ) ;
#37 = DIRECTION ( 'NONE',  ( -0.0000000000000000000, 0.0000000000000000000, 1.000000000000000000 ) ) ;
#38 = UNCERTAINTY_MEASURE_WITH_UNIT (LENGTH_MEASURE( 1.000000000000000082E-05 ), #160, 'distance_accuracy_value', 'NONE');
#39 = PRODUCT_DEFINITION ( 'UNKNOWN', '', #321, #127 ) ;
#40 = PLANE ( 'NONE',  #300 ) ;
#41 = LINE ( 'NONE', #922, #583 ) ;
#42 = DIRECTION ( 'NONE',  ( -1.000000000000000000, 0.0000000000000000000, 0.0000000000000000000 ) ) ;
#43 =( GEOMETRIC_REPRESENTATION_CONTEXT ( 3 ) GLOBAL_UNCERTAINTY_ASSIGNED_CONTEXT ( ( #673 ) ) GLOBAL_UNIT_ASSIGNED_CONTEXT ( ( #61, #540, #998 ) ) REPRESENTATION_CONTEXT ( 'NONE', 'WORKASPACE' ) );
#44 = DIRECTION ( 'NONE',  ( 0.0000000000000000000, -1.000000000000000000, 0.0000000000000000000 ) ) ;
#45 = FACE_OUTER_BOUND ( 'NONE', #952, .T. ) ;
#46 = VECTOR ( 'NONE', #958, 1000.000000000000000 ) ;
#47 = FILL_AREA_STYLE_COLOUR ( '', #387 ) ;
#48 = PRESENTATION_STYLE_ASSIGNMENT (( #843 ) ) ;
#49 = CARTESIAN_POINT ( 'NONE',  ( 0.9000000000000000222, -0.2000000000000000111, 0.2500000000000000000 ) ) ;
#50 = ADVANCED_FACE ( 'NONE', ( #647 ), #841, .T. ) ;
#51 = UNCERTAINTY_MEASURE_WITH_UNIT (LENGTH_MEASURE( 1.000000000000000082E-05 ), #326, 'distance_accuracy_value', 'NONE');
#52 = LINE ( 'NONE', #448, #428 ) ;
#53 = DIRECTION ( 'NONE',  ( 1.000000000000000000, 0.0000000000000000000, 0.0000000000000000000 ) ) ;
#54 = PRESENTATION_LAYER_ASSIGNMENT (  '', '', ( #727 ) ) ;
#55 = VECTOR ( 'NONE', #293, 1000.000000000000000 ) ;
#56 = PLANE ( 'NONE',  #595 ) ;
#57 = EDGE_CURVE ( 'NONE', #883, #801, #357, .T. ) ;
#58 = PLANE ( 'NONE',  #708 ) ;
#59 = LINE ( 'NONE', #219, #422 ) ;
#60 = EDGE_LOOP ( 'NONE', ( #731, #663, #563, #618 ) ) ;
#61 =( LENGTH_UNIT ( ) NAMED_UNIT ( * ) SI_UNIT ( .MILLI., .METRE. ) );
#62 = EDGE_CURVE ( 'NONE', #303, #590, #488, .T. ) ;
#63 = ORIENTED_EDGE ( 'NONE', *, *, #74, .T. ) ;
#64 = ORIENTED_EDGE ( 'NONE', *, *, #837, .T. ) ;
#65 = DIRECTION ( 'NONE',  ( -0.0000000000000000000, 0.0000000000000000000, -1.000000000000000000 ) ) ;
#66 = FACE_OUTER_BOUND ( 'NONE', #899, .T. ) ;
#67 = AXIS2_PLACEMENT_3D ( 'NONE', #759, #44, #14 ) ;
#68 = ORIENTED_EDGE ( 'NONE', *, *, #198, .T. ) ;
#69 = ORIENTED_EDGE ( 'NONE', *, *, #997, .F. ) ;
#70 = CARTESIAN_POINT ( 'NONE',  ( 0.0000000000000000000, 0.0000000000000000000, 0.0000000000000000000 ) ) ;
#71 = MECHANICAL_DESIGN_GEOMETRIC_PRESENTATION_REPRESENTATION (  '', ( #975 ), #159 ) ;
#72 = LINE ( 'NONE', #617, #320 ) ;
#73 = FACE_OUTER_BOUND ( 'NONE', #692, .T. ) ;
#74 = EDGE_CURVE ( 'NONE', #381, #621, #4, .T. ) ;
#75 = VERTEX_POINT ( 'NONE', #965 ) ;
#76 = ORIENTED_EDGE ( 'NONE', *, *, #149, .F. ) ;
#77 = PRESENTATION_STYLE_ASSIGNMENT (( #961 ) ) ;
#78 = PLANE ( 'NONE',  #105 ) ;
#79 = ORIENTED_EDGE ( 'NONE', *, *, #243, .T. ) ;
#80 = ADVANCED_FACE ( 'NONE', ( #962 ), #78, .F. ) ;
#81 = ORIENTED_EDGE ( 'NONE', *, *, #496, .F. ) ;
#82 = VERTEX_POINT ( 'NONE', #869 ) ;
#83 = DIRECTION ( 'NONE',  ( 0.0000000000000000000, -0.0000000000000000000, -1.000000000000000000 ) ) ;
#84 = CARTESIAN_POINT ( 'NONE',  ( -0.7500000000000000000, 0.4387499999999999734, 1.000000000000000000 ) ) ;
#85 =( NAMED_UNIT ( * ) PLANE_ANGLE_UNIT ( ) SI_UNIT ( $, .RADIAN. ) );
#86 = ORIENTED_EDGE ( 'NONE', *, *, #409, .F. ) ;
#87 = PRESENTATION_LAYER_ASSIGNMENT (  '', '', ( #349 ) ) ;
#88 = ORIENTED_EDGE ( 'NONE', *, *, #543, .T. ) ;
#89 = VECTOR ( 'NONE', #504, 1000.000000000000000 ) ;
#90 = ADVANCED_FACE ( 'NONE', ( #73 ), #561, .F. ) ;
#91 = LINE ( 'NONE', #812, #470 ) ;
#92 = DIRECTION ( 'NONE',  ( -0.0000000000000000000, -0.0000000000000000000, 1.000000000000000000 ) ) ;
#93 = CARTESIAN_POINT ( 'NONE',  ( -1.250000000000000000, -0.2000000000000000111, 0.0000000000000000000 ) ) ;
#94 = ORIENTED_EDGE ( 'NONE', *, *, #263, .F. ) ;
#95 = PLANE ( 'NONE',  #67 ) ;
#96 = CARTESIAN_POINT ( 'NONE',  ( 0.8258777161042643034, -0.6008777161042641035, 0.9552264231633825764 ) ) ;
#97 = DIRECTION ( 'NONE',  ( 0.0000000000000000000, -0.0000000000000000000, 1.000000000000000000 ) ) ;
#98 = CARTESIAN_POINT ( 'NONE',  ( -0.7499999999999998890, -0.4387499999999999734, 1.000000000000000000 ) ) ;
#99 = EDGE_LOOP ( 'NONE', ( #537, #557, #466, #964 ) ) ;
#100 = PRODUCT_RELATED_PRODUCT_CATEGORY ( 'part', '', ( #432 ) ) ;
#101 = CARTESIAN_POINT ( 'NONE',  ( 0.9000000000000000222, 0.6750000000000000444, 1.000000000000000000 ) ) ;
#102 = EDGE_LOOP ( 'NONE', ( #79, #330, #94, #564 ) ) ;
#103 = VECTOR ( 'NONE', #369, 1000.000000000000114 ) ;
#104 = MECHANICAL_DESIGN_GEOMETRIC_PRESENTATION_REPRESENTATION (  '', ( #151 ), #351 ) ;
#105 = AXIS2_PLACEMENT_3D ( 'NONE', #328, #164, #404 ) ;
#106 = DIRECTION ( 'NONE',  ( -1.000000000000000000, -0.0000000000000000000, -0.0000000000000000000 ) ) ;
#107 =( GEOMETRIC_REPRESENTATION_CONTEXT ( 3 ) GLOBAL_UNCERTAINTY_ASSIGNED_CONTEXT ( ( #312 ) ) GLOBAL_UNIT_ASSIGNED_CONTEXT ( ( #157, #823, #657 ) ) REPRESENTATION_CONTEXT ( 'NONE', 'WORKASPACE' ) );
#108 = PLANE ( 'NONE',  #877 ) ;
#109 = PRESENTATION_LAYER_ASSIGNMENT (  '', '', ( #392 ) ) ;
#110 = EDGE_LOOP ( 'NONE', ( #239, #267, #240, #826, #960, #640, #581, #865, #807, #325, #942, #620 ) ) ;
#111 = ADVANCED_FACE ( 'NONE', ( #66 ), #242, .T. ) ;
#112 = DIRECTION ( 'NONE',  ( -1.000000000000000000, -7.228014483236698528E-16, -0.0000000000000000000 ) ) ;
#113 =( NAMED_UNIT ( * ) PLANE_ANGLE_UNIT ( ) SI_UNIT ( $, .RADIAN. ) );
#114 = FACE_OUTER_BOUND ( 'NONE', #1024, .T. ) ;
#115 = CARTESIAN_POINT ( 'NONE',  ( -0.9000000000000000222, 0.6750000000000000444, 0.2499999999999749090 ) ) ;
#116 = CARTESIAN_POINT ( 'NONE',  ( 0.0000000000000000000, 0.6008777161042642145, 0.9552264231633824654 ) ) ;
#117 = CARTESIAN_POINT ( 'NONE',  ( 0.9000000000000000222, 0.2000000000000000111, 0.0000000000000000000 ) ) ;
#118 = DIRECTION ( 'NONE',  ( 1.000000000000000000, -0.0000000000000000000, -0.0000000000000000000 ) ) ;
#119 = UNCERTAINTY_MEASURE_WITH_UNIT (LENGTH_MEASURE( 1.000000000000000082E-05 ), #535, 'distance_accuracy_value', 'NONE');
#120 = CARTESIAN_POINT ( 'NONE',  ( -0.9000000000000000222, 0.2000000000000000111, 0.0000000000000000000 ) ) ;
#121 = EDGE_CURVE ( 'NONE', #788, #431, #464, .T. ) ;
#122 = DIRECTION ( 'NONE',  ( -1.000000000000000000, 0.0000000000000000000, 0.0000000000000000000 ) ) ;
#123 = DIRECTION ( 'NONE',  ( 0.0000000000000000000, -1.000000000000000000, 0.0000000000000000000 ) ) ;
#124 = PRESENTATION_STYLE_ASSIGNMENT (( #920 ) ) ;
#125 = DIRECTION ( 'NONE',  ( 0.0000000000000000000, 1.000000000000000000, 0.0000000000000000000 ) ) ;
#126 =( NAMED_UNIT ( * ) SI_UNIT ( $, .STERADIAN. ) SOLID_ANGLE_UNIT ( ) );
#127 = PRODUCT_DEFINITION_CONTEXT ( 'detailed design', #568, 'design' ) ;
#128 = SURFACE_SIDE_STYLE ('',( #527 ) ) ;
#129 = SURFACE_STYLE_USAGE ( .BOTH. , #854 ) ;
#130 = SURFACE_STYLE_FILL_AREA ( #217 ) ;
#131 = EDGE_CURVE ( 'NONE', #590, #822, #644, .T. ) ;
#132 = CARTESIAN_POINT ( 'NONE',  ( -0.6000000000000000888, -0.4387499999999999734, 1.000000000000000000 ) ) ;
#133 =( NAMED_UNIT ( * ) PLANE_ANGLE_UNIT ( ) SI_UNIT ( $, .RADIAN. ) );
#134 = AXIS2_PLACEMENT_3D ( 'NONE', #577, #518, #440 ) ;
#135 =( LENGTH_UNIT ( ) NAMED_UNIT ( * ) SI_UNIT ( .MILLI., .METRE. ) );
#136 = VERTEX_POINT ( 'NONE', #879 ) ;
#137 = VECTOR ( 'NONE', #259, 1000.000000000000000 ) ;
#138 = LINE ( 'NONE', #454, #55 ) ;
#139 = ORIENTED_EDGE ( 'NONE', *, *, #57, .F. ) ;
#140 = APPLICATION_PROTOCOL_DEFINITION ( 'draft international standard', 'automotive_design', 1998, #568 ) ;
#141 = EDGE_LOOP ( 'NONE', ( #255, #1016, #250, #980 ) ) ;
#142 = ORIENTED_EDGE ( 'NONE', *, *, #755, .T. ) ;
#143 = DIRECTION ( 'NONE',  ( 0.0000000000000000000, -1.000000000000000000, 0.0000000000000000000 ) ) ;
#144 = ORIENTED_EDGE ( 'NONE', *, *, #652, .F. ) ;
#145 = ORIENTED_EDGE ( 'NONE', *, *, #294, .F. ) ;
#146 = VERTEX_POINT ( 'NONE', #649 ) ;
#147 = DIRECTION ( 'NONE',  ( -0.0000000000000000000, 0.0000000000000000000, 1.000000000000000000 ) ) ;
#148 = CARTESIAN_POINT ( 'NONE',  ( -0.8258777161042641923, 0.6008777161042641035, 0.9552264231633824654 ) ) ;
#149 = EDGE_CURVE ( 'NONE', #948, #883, #792, .T. ) ;
#150 = DIRECTION ( 'NONE',  ( -0.9945218953682737340, -1.597426369692865308E-16, 0.1045284632676501124 ) ) ;
#151 = STYLED_ITEM ( 'NONE', ( #519 ), #982 ) ;
#152 =( GEOMETRIC_REPRESENTATION_CONTEXT ( 3 ) GLOBAL_UNCERTAINTY_ASSIGNED_CONTEXT ( ( #51 ) ) GLOBAL_UNIT_ASSIGNED_CONTEXT ( ( #326, #836, #594 ) ) REPRESENTATION_CONTEXT ( 'NONE', 'WORKASPACE' ) );
#153 = VECTOR ( 'NONE', #679, 1000.000000000000000 ) ;
#154 = ORIENTED_EDGE ( 'NONE', *, *, #62, .F. ) ;
#155 = EDGE_LOOP ( 'NONE', ( #544, #262, #335, #86 ) ) ;
#156 = STYLED_ITEM ( 'NONE', ( #1012 ), #417 ) ;
#157 =( LENGTH_UNIT ( ) NAMED_UNIT ( * ) SI_UNIT ( .MILLI., .METRE. ) );
#158 = LINE ( 'NONE', #786, #778 ) ;
#159 =( GEOMETRIC_REPRESENTATION_CONTEXT ( 3 ) GLOBAL_UNCERTAINTY_ASSIGNED_CONTEXT ( ( #266 ) ) GLOBAL_UNIT_ASSIGNED_CONTEXT ( ( #529, #113, #992 ) ) REPRESENTATION_CONTEXT ( 'NONE', 'WORKASPACE' ) );
#160 =( LENGTH_UNIT ( ) NAMED_UNIT ( * ) SI_UNIT ( .MILLI., .METRE. ) );
#161 = EDGE_CURVE ( 'NONE', #381, #146, #875, .T. ) ;
#162 = ORIENTED_EDGE ( 'NONE', *, *, #667, .T. ) ;
#163 = ORIENTED_EDGE ( 'NONE', *, *, #278, .F. ) ;
#164 = DIRECTION ( 'NONE',  ( 0.0000000000000000000, 0.0000000000000000000, -1.000000000000000000 ) ) ;
#165 = SHAPE_DEFINITION_REPRESENTATION ( #220, #359 ) ;
#166 = VERTEX_POINT ( 'NONE', #386 ) ;
#167 = EDGE_CURVE ( 'NONE', #303, #641, #170, .T. ) ;
#168 = DIRECTION ( 'NONE',  ( 8.031127203596330602E-17, -1.000000000000000000, 0.0000000000000000000 ) ) ;
#169 = CARTESIAN_POINT ( 'NONE',  ( 0.8147283340436881627, -0.5897283340436878518, 1.061305707527079978 ) ) ;
#170 = LINE ( 'NONE', #473, #237 ) ;
#171 = LINE ( 'NONE', #179, #137 ) ;
#172 = DIRECTION ( 'NONE',  ( -0.0000000000000000000, -0.0000000000000000000, -1.000000000000000000 ) ) ;
#173 = VERTEX_POINT ( 'NONE', #718 ) ;
#174 = VECTOR ( 'NONE', #580, 1000.000000000000000 ) ;
#175 = FACE_OUTER_BOUND ( 'NONE', #13, .T. ) ;
#176 = VECTOR ( 'NONE', #668, 1000.000000000000000 ) ;
#177 =( GEOMETRIC_REPRESENTATION_CONTEXT ( 3 ) GLOBAL_UNCERTAINTY_ASSIGNED_CONTEXT ( ( #532 ) ) GLOBAL_UNIT_ASSIGNED_CONTEXT ( ( #379, #793, #407 ) ) REPRESENTATION_CONTEXT ( 'NONE', 'WORKASPACE' ) );
#178 = CARTESIAN_POINT ( 'NONE',  ( -0.8230645606064246333, -0.5980645606064249886, 0.9819918098362259151 ) ) ;
#179 = CARTESIAN_POINT ( 'NONE',  ( -1.250000000000000000, 0.2000000000000000111, 0.2500000000000000000 ) ) ;
#180 = AXIS2_PLACEMENT_3D ( 'NONE', #490, #734, #97 ) ;
#181 = FILL_AREA_STYLE ('',( #195 ) ) ;
#182 = EDGE_LOOP ( 'NONE', ( #549, #740, #7, #234 ) ) ;
#183 = SURFACE_SIDE_STYLE ('',( #36 ) ) ;
#184 = PLANE ( 'NONE',  #1003 ) ;
#185 = CARTESIAN_POINT ( 'NONE',  ( -0.6000000000000000888, 0.4387500000000000844, 1.000000000000000000 ) ) ;
#186 = ORIENTED_EDGE ( 'NONE', *, *, #452, .F. ) ;
#187 = DIRECTION ( 'NONE',  ( 0.9945218953682737340, 7.987131848464326539E-17, 0.1045284632676498904 ) ) ;
#188 = EDGE_CURVE ( 'NONE', #628, #418, #478, .T. ) ;
#189 = DIRECTION ( 'NONE',  ( -0.0000000000000000000, -0.0000000000000000000, -1.000000000000000000 ) ) ;
#190 = VERTEX_POINT ( 'NONE', #945 ) ;
#191 = VECTOR ( 'NONE', #261, 1000.000000000000000 ) ;
#192 = AXIS2_PLACEMENT_3D ( 'NONE', #957, #143, #555 ) ;
#193 = DIRECTION ( 'NONE',  ( 0.0000000000000000000, -0.9945218953682737340, 0.1045284632676501124 ) ) ;
#194 = LINE ( 'NONE', #603, #712 ) ;
#195 = FILL_AREA_STYLE_COLOUR ( '', #970 ) ;
#196 = FILL_AREA_STYLE ('',( #272 ) ) ;
#197 = AXIS2_PLACEMENT_3D ( 'NONE', #32, #187, #247 ) ;
#198 = EDGE_CURVE ( 'NONE', #801, #784, #258, .T. ) ;
#199 = DIRECTION ( 'NONE',  ( -1.000000000000000000, 0.0000000000000000000, 0.0000000000000000000 ) ) ;
#200 = CARTESIAN_POINT ( 'NONE',  ( -0.9000000000000000222, 0.6750000000000000444, 0.0000000000000000000 ) ) ;
#201 = CARTESIAN_POINT ( 'NONE',  ( 0.8258777161042641923, 0.6008777161042641035, 0.9552264231633825764 ) ) ;
#202 = DIRECTION ( 'NONE',  ( -0.0000000000000000000, -0.0000000000000000000, -1.000000000000000000 ) ) ;
#203 = DIRECTION ( 'NONE',  ( 1.000000000000000000, 0.0000000000000000000, 0.0000000000000000000 ) ) ;
#204 = ADVANCED_FACE ( 'NONE', ( #511 ), #269, .T. ) ;
#205 = CARTESIAN_POINT ( 'NONE',  ( -1.250000000000000000, 0.2000000000000000111, 0.2500000000000000000 ) ) ;
#206 = VECTOR ( 'NONE', #924, 1000.000000000000000 ) ;
#207 = VECTOR ( 'NONE', #112, 1000.000000000000000 ) ;
#208 = LINE ( 'NONE', #210, #895 ) ;
#209 = CYLINDRICAL_SURFACE ( 'NONE', #794, 0.05000000000000002359 ) ;
#210 = CARTESIAN_POINT ( 'NONE',  ( -0.7499999999999998890, -0.4387499999999999734, 1.000000000000000000 ) ) ;
#211 = LINE ( 'NONE', #850, #834 ) ;
#212 = EDGE_CURVE ( 'NONE', #784, #953, #901, .T. ) ;
#213 = SURFACE_STYLE_FILL_AREA ( #531 ) ;
#214 = DIRECTION ( 'NONE',  ( 0.0000000000000000000, 0.0000000000000000000, -1.000000000000000000 ) ) ;
#215 = EDGE_CURVE ( 'NONE', #509, #590, #437, .T. ) ;
#216 = ORIENTED_EDGE ( 'NONE', *, *, #458, .T. ) ;
#217 = FILL_AREA_STYLE ('',( #282 ) ) ;
#218 = DIRECTION ( 'NONE',  ( 1.000000000000000000, -0.0000000000000000000, -0.0000000000000000000 ) ) ;
#219 = CARTESIAN_POINT ( 'NONE',  ( 0.8147283340436880517, 0.5897283340436878518, 1.061305707527079978 ) ) ;
#220 = PRODUCT_DEFINITION_SHAPE ( 'NONE', 'NONE',  #39 ) ;
#221 = VECTOR ( 'NONE', #642, 1000.000000000000000 ) ;
#222 = STYLED_ITEM ( 'NONE', ( #818 ), #16 ) ;
#223 = ORIENTED_EDGE ( 'NONE', *, *, #567, .T. ) ;
#224 = CARTESIAN_POINT ( 'NONE',  ( -0.9000000000000000222, 0.6750000000000000444, 0.2499999999999749090 ) ) ;
#225 = CYLINDRICAL_SURFACE ( 'NONE', #686, 0.05000000000000002359 ) ;
#226 = EDGE_LOOP ( 'NONE', ( #408, #721, #934, #947 ) ) ;
#227 = EDGE_LOOP ( 'NONE', ( #391, #216, #864, #878 ) ) ;
#228 = ADVANCED_FACE ( 'NONE', ( #344 ), #40, .F. ) ;
#229 = UNCERTAINTY_MEASURE_WITH_UNIT (LENGTH_MEASURE( 1.000000000000000082E-05 ), #635, 'distance_accuracy_value', 'NONE');
#230 = FILL_AREA_STYLE_COLOUR ( '', #833 ) ;
#231 =( LENGTH_UNIT ( ) NAMED_UNIT ( * ) SI_UNIT ( .MILLI., .METRE. ) );
#232 = DIRECTION ( 'NONE',  ( -0.0000000000000000000, -0.0000000000000000000, -1.000000000000000000 ) ) ;
#233 = VERTEX_POINT ( 'NONE', #756 ) ;
#234 = ORIENTED_EDGE ( 'NONE', *, *, #824, .F. ) ;
#235 = LINE ( 'NONE', #559, #103 ) ;
#236 =( GEOMETRIC_REPRESENTATION_CONTEXT ( 3 ) GLOBAL_UNCERTAINTY_ASSIGNED_CONTEXT ( ( #287 ) ) GLOBAL_UNIT_ASSIGNED_CONTEXT ( ( #929, #298, #536 ) ) REPRESENTATION_CONTEXT ( 'NONE', 'WORKASPACE' ) );
#237 = VECTOR ( 'NONE', #1021, 1000.000000000000000 ) ;
#238 = AXIS2_PLACEMENT_3D ( 'NONE', #523, #994, #926 ) ;
#239 = ORIENTED_EDGE ( 'NONE', *, *, #212, .F. ) ;
#240 = ORIENTED_EDGE ( 'NONE', *, *, #539, .F. ) ;
#241 = FILL_AREA_STYLE_COLOUR ( '', #827 ) ;
#242 = PLANE ( 'NONE',  #367 ) ;
#243 = EDGE_CURVE ( 'NONE', #173, #569, #484, .T. ) ;
#244 = ORIENTED_EDGE ( 'NONE', *, *, #806, .T. ) ;
#245 = ORIENTED_EDGE ( 'NONE', *, *, #30, .T. ) ;
#246 =( NAMED_UNIT ( * ) SI_UNIT ( $, .STERADIAN. ) SOLID_ANGLE_UNIT ( ) );
#247 = DIRECTION ( 'NONE',  ( 8.031127203596330602E-17, -1.000000000000000000, 0.0000000000000000000 ) ) ;
#248 = FACE_OUTER_BOUND ( 'NONE', #723, .T. ) ;
#249 = EDGE_CURVE ( 'NONE', #136, #805, #750, .T. ) ;
#250 = ORIENTED_EDGE ( 'NONE', *, *, #664, .T. ) ;
#251 = DIRECTION ( 'NONE',  ( -0.0000000000000000000, -0.0000000000000000000, -1.000000000000000000 ) ) ;
#252 = LINE ( 'NONE', #331, #46 ) ;
#253 = DIRECTION ( 'NONE',  ( -1.606225440719266120E-16, 1.000000000000000000, 0.0000000000000000000 ) ) ;
#254 = STYLED_ITEM ( 'NONE', ( #319 ), #80 ) ;
#255 = ORIENTED_EDGE ( 'NONE', *, *, #748, .T. ) ;
#256 = PRESENTATION_LAYER_ASSIGNMENT (  '', '', ( #526 ) ) ;
#257 = AXIS2_PLACEMENT_3D ( 'NONE', #70, #147, #790 ) ;
#258 = LINE ( 'NONE', #31, #176 ) ;
#259 = DIRECTION ( 'NONE',  ( 0.0000000000000000000, -1.000000000000000000, 0.0000000000000000000 ) ) ;
#260 = COLOUR_RGB ( '',0.7686274509803920907, 0.7686274509803920907, 0.7686274509803920907 ) ;
#261 = DIRECTION ( 'NONE',  ( 1.000000000000000000, 0.0000000000000000000, 0.0000000000000000000 ) ) ;
#262 = ORIENTED_EDGE ( 'NONE', *, *, #858, .T. ) ;
#263 = EDGE_CURVE ( 'NONE', #166, #946, #425, .T. ) ;
#264 = PRESENTATION_STYLE_ASSIGNMENT (( #341 ) ) ;
#265 = DIRECTION ( 'NONE',  ( -0.0000000000000000000, -0.0000000000000000000, 1.000000000000000000 ) ) ;
#266 = UNCERTAINTY_MEASURE_WITH_UNIT (LENGTH_MEASURE( 1.000000000000000082E-05 ), #529, 'distance_accuracy_value', 'NONE');
#267 = ORIENTED_EDGE ( 'NONE', *, *, #855, .F. ) ;
#268 = EDGE_CURVE ( 'NONE', #946, #569, #985, .T. ) ;
#269 = PLANE ( 'NONE',  #779 ) ;
#270 = SURFACE_STYLE_FILL_AREA ( #291 ) ;
#271 = CARTESIAN_POINT ( 'NONE',  ( -0.8999999999999998002, -0.6750000000000000444, 0.0000000000000000000 ) ) ;
#272 = FILL_AREA_STYLE_COLOUR ( '', #23 ) ;
#273 = VECTOR ( 'NONE', #1019, 1000.000000000000000 ) ;
#274 = VECTOR ( 'NONE', #597, 1000.000000000000000 ) ;
#275 = COLOUR_RGB ( '',0.1098039215686274495, 0.1098039215686274495, 0.1098039215686274495 ) ;
#276 = CARTESIAN_POINT ( 'NONE',  ( 0.8258777161042643034, 6.632728992648964387E-17, 0.9552264231633824654 ) ) ;
#277 = FACE_BOUND ( 'NONE', #795, .T. ) ;
#278 = EDGE_CURVE ( 'NONE', #136, #659, #337, .T. ) ;
#279 = UNCERTAINTY_MEASURE_WITH_UNIT (LENGTH_MEASURE( 1.000000000000000082E-05 ), #767, 'distance_accuracy_value', 'NONE');
#280 = CARTESIAN_POINT ( 'NONE',  ( -0.7500000000000000000, 0.4387499999999999734, 0.9990000000000001101 ) ) ;
#281 = CARTESIAN_POINT ( 'NONE',  ( -1.250000000000000000, 0.2000000000000000111, 0.0000000000000000000 ) ) ;
#282 = FILL_AREA_STYLE_COLOUR ( '', #607 ) ;
#283 = SURFACE_SIDE_STYLE ('',( #130 ) ) ;
#284 = CARTESIAN_POINT ( 'NONE',  ( 1.250000000000000000, 0.2000000000000000111, 0.0000000000000000000 ) ) ;
#285 = CARTESIAN_POINT ( 'NONE',  ( 1.250000000000000000, -0.2000000000000000111, 0.0000000000000000000 ) ) ;
#286 = LINE ( 'NONE', #772, #655 ) ;
#287 = UNCERTAINTY_MEASURE_WITH_UNIT (LENGTH_MEASURE( 1.000000000000000082E-05 ), #929, 'distance_accuracy_value', 'NONE');
#288 = EDGE_CURVE ( 'NONE', #431, #809, #977, .T. ) ;
#289 = COLOUR_RGB ( '',0.7686274509803920907, 0.7686274509803920907, 0.7686274509803920907 ) ;
#290 = SURFACE_STYLE_FILL_AREA ( #368 ) ;
#291 = FILL_AREA_STYLE ('',( #685 ) ) ;
#292 = PRESENTATION_LAYER_ASSIGNMENT (  '', '', ( #156 ) ) ;
#293 = DIRECTION ( 'NONE',  ( -0.0000000000000000000, -0.0000000000000000000, -1.000000000000000000 ) ) ;
#294 = EDGE_CURVE ( 'NONE', #431, #381, #838, .T. ) ;
#295 = FILL_AREA_STYLE_COLOUR ( '', #811 ) ;
#296 = FACE_OUTER_BOUND ( 'NONE', #396, .T. ) ;
#297 = VERTEX_POINT ( 'NONE', #120 ) ;
#298 =( NAMED_UNIT ( * ) PLANE_ANGLE_UNIT ( ) SI_UNIT ( $, .RADIAN. ) );
#299 = VECTOR ( 'NONE', #24, 1000.000000000000000 ) ;
#300 = AXIS2_PLACEMENT_3D ( 'NONE', #426, #578, #751 ) ;
#301 = EDGE_CURVE ( 'NONE', #822, #308, #208, .T. ) ;
#302 = ORIENTED_EDGE ( 'NONE', *, *, #149, .T. ) ;
#303 = VERTEX_POINT ( 'NONE', #842 ) ;
#304 = VECTOR ( 'NONE', #999, 1000.000000000000000 ) ;
#305 = CARTESIAN_POINT ( 'NONE',  ( -0.9000000000000000222, 0.6750000000000000444, 0.2499999999999750755 ) ) ;
#306 = FACE_OUTER_BOUND ( 'NONE', #340, .T. ) ;
#307 = CARTESIAN_POINT ( 'NONE',  ( -1.250000000000000000, 0.2000000000000000111, 0.0000000000000000000 ) ) ;
#308 = VERTEX_POINT ( 'NONE', #132 ) ;
#309 = SURFACE_STYLE_USAGE ( .BOTH. , #1023 ) ;
#310 = ORIENTED_EDGE ( 'NONE', *, *, #748, .F. ) ;
#311 = ORIENTED_EDGE ( 'NONE', *, *, #582, .F. ) ;
#312 = UNCERTAINTY_MEASURE_WITH_UNIT (LENGTH_MEASURE( 1.000000000000000082E-05 ), #157, 'distance_accuracy_value', 'NONE');
#313 = DIRECTION ( 'NONE',  ( -0.0000000000000000000, -0.0000000000000000000, 1.000000000000000000 ) ) ;
#314 = SURFACE_SIDE_STYLE ('',( #410 ) ) ;
#315 = VERTEX_POINT ( 'NONE', #284 ) ;
#316 = ORIENTED_EDGE ( 'NONE', *, *, #688, .T. ) ;
#317 = EDGE_CURVE ( 'NONE', #641, #822, #856, .T. ) ;
#318 = SURFACE_SIDE_STYLE ('',( #885 ) ) ;
#319 = PRESENTATION_STYLE_ASSIGNMENT (( #638 ) ) ;
#320 = VECTOR ( 'NONE', #691, 1000.000000000000000 ) ;
#321 = PRODUCT_DEFINITION_FORMATION_WITH_SPECIFIED_SOURCE ( 'ANY', '', #432, .NOT_KNOWN. ) ;
#322 = ORIENTED_EDGE ( 'NONE', *, *, #263, .T. ) ;
#323 = EDGE_LOOP ( 'NONE', ( #696, #699, #976, #666 ) ) ;
#324 = DIRECTION ( 'NONE',  ( -1.000000000000000000, -8.031127203596330602E-17, 0.0000000000000000000 ) ) ;
#325 = ORIENTED_EDGE ( 'NONE', *, *, #969, .F. ) ;
#326 =( LENGTH_UNIT ( ) NAMED_UNIT ( * ) SI_UNIT ( .MILLI., .METRE. ) );
#327 = CARTESIAN_POINT ( 'NONE',  ( 0.9000000000000000222, 0.2000000000000000111, 0.2500000000000000000 ) ) ;
#328 = CARTESIAN_POINT ( 'NONE',  ( 0.0000000000000000000, 0.0000000000000000000, 0.2500000000000000000 ) ) ;
#329 = CARTESIAN_POINT ( 'NONE',  ( -0.7761516213358502503, -0.5511516213358506056, 1.000000000000000000 ) ) ;
#330 = ORIENTED_EDGE ( 'NONE', *, *, #268, .F. ) ;
#331 = CARTESIAN_POINT ( 'NONE',  ( 0.0000000000000000000, 0.5511516213358506056, 1.000000000000000000 ) ) ;
#332 = CARTESIAN_POINT ( 'NONE',  ( 0.9000000000000001332, -0.6750000000000000444, 0.2499999999999750755 ) ) ;
#333 = VECTOR ( 'NONE', #439, 1000.000000000000000 ) ;
#334 = MECHANICAL_DESIGN_GEOMETRIC_PRESENTATION_REPRESENTATION (  '', ( #727 ), #636 ) ;
#335 = ORIENTED_EDGE ( 'NONE', *, *, #539, .T. ) ;
#336 = ADVANCED_FACE ( 'NONE', ( #363 ), #776, .F. ) ;
#337 = LINE ( 'NONE', #654, #274 ) ;
#338 = CARTESIAN_POINT ( 'NONE',  ( -0.6000000000000000888, 0.4387500000000000844, 1.000000000000000000 ) ) ;
#339 = CARTESIAN_POINT ( 'NONE',  ( -0.8999999999999998002, -0.6750000000000000444, 0.0000000000000000000 ) ) ;
#340 = EDGE_LOOP ( 'NONE', ( #460, #907, #186, #244 ) ) ;
#341 = SURFACE_STYLE_USAGE ( .BOTH. , #183 ) ;
#342 = DIRECTION ( 'NONE',  ( 1.000000000000000000, 1.606225440719266120E-16, -0.0000000000000000000 ) ) ;
#343 = SURFACE_STYLE_USAGE ( .BOTH. , #514 ) ;
#344 = FACE_OUTER_BOUND ( 'NONE', #1022, .T. ) ;
#345 = EDGE_CURVE ( 'NONE', #418, #1025, #372, .T. ) ;
#346 = SURFACE_STYLE_FILL_AREA ( #516 ) ;
#347 = DIRECTION ( 'NONE',  ( 0.0000000000000000000, -0.0000000000000000000, -1.000000000000000000 ) ) ;
#348 = LINE ( 'NONE', #810, #672 ) ;
#349 = STYLED_ITEM ( 'NONE', ( #77 ), #725 ) ;
#350 = PRESENTATION_LAYER_ASSIGNMENT (  '', '', ( #254 ) ) ;
#351 =( GEOMETRIC_REPRESENTATION_CONTEXT ( 3 ) GLOBAL_UNCERTAINTY_ASSIGNED_CONTEXT ( ( #279 ) ) GLOBAL_UNIT_ASSIGNED_CONTEXT ( ( #767, #1007, #604 ) ) REPRESENTATION_CONTEXT ( 'NONE', 'WORKASPACE' ) );
#352 = MECHANICAL_DESIGN_GEOMETRIC_PRESENTATION_REPRESENTATION (  '', ( #768 ), #43 ) ;
#353 = CARTESIAN_POINT ( 'NONE',  ( 0.9000000000000000222, 0.6750000000000000444, 0.0000000000000000000 ) ) ;
#354 = DIRECTION ( 'NONE',  ( -0.1039620511844943918, 0.1039620511844943779, -0.9891328443778545365 ) ) ;
#355 = EDGE_CURVE ( 'NONE', #431, #297, #138, .T. ) ;
#356 = FACE_OUTER_BOUND ( 'NONE', #482, .T. ) ;
#357 = LINE ( 'NONE', #677, #656 ) ;
#358 = FILL_AREA_STYLE_COLOUR ( '', #955 ) ;
#359 = ADVANCED_BREP_SHAPE_REPRESENTATION ( 'User Library-SOD323F-1', ( #417, #780 ), #510 ) ;
#360 = LINE ( 'NONE', #285, #441 ) ;
#361 = PLANE ( 'NONE',  #524 ) ;
#362 = CARTESIAN_POINT ( 'NONE',  ( -0.8999999999999999112, -0.1999999999999995393, 0.0000000000000000000 ) ) ;
#363 = FACE_OUTER_BOUND ( 'NONE', #323, .T. ) ;
#364 = PLANE ( 'NONE',  #633 ) ;
#365 = ADVANCED_FACE ( 'NONE', ( #1004 ), #770, .T. ) ;
#366 = VECTOR ( 'NONE', #1013, 1000.000000000000000 ) ;
#367 = AXIS2_PLACEMENT_3D ( 'NONE', #400, #150, #709 ) ;
#368 = FILL_AREA_STYLE ('',( #928 ) ) ;
#369 = DIRECTION ( 'NONE',  ( -0.1039620511844943779, -0.1039620511844943779, -0.9891328443778545365 ) ) ;
#370 = DIRECTION ( 'NONE',  ( -7.228014483236698528E-16, 1.000000000000000000, 0.0000000000000000000 ) ) ;
#371 = EDGE_CURVE ( 'NONE', #621, #787, #684, .T. ) ;
#372 = LINE ( 'NONE', #773, #705 ) ;
#373 = PLANE ( 'NONE',  #702 ) ;
#374 = ORIENTED_EDGE ( 'NONE', *, *, #268, .T. ) ;
#375 = DIRECTION ( 'NONE',  ( -0.0000000000000000000, -0.0000000000000000000, 1.000000000000000000 ) ) ;
#376 = DIRECTION ( 'NONE',  ( 1.000000000000000000, 0.0000000000000000000, 0.0000000000000000000 ) ) ;
#377 = ADVANCED_FACE ( 'NONE', ( #690 ), #58, .F. ) ;
#378 = ORIENTED_EDGE ( 'NONE', *, *, #719, .T. ) ;
#379 =( LENGTH_UNIT ( ) NAMED_UNIT ( * ) SI_UNIT ( .MILLI., .METRE. ) );
#380 = ORIENTED_EDGE ( 'NONE', *, *, #806, .F. ) ;
#381 = VERTEX_POINT ( 'NONE', #305 ) ;
#382 = CARTESIAN_POINT ( 'NONE',  ( -1.250000000000000000, 0.2000000000000000111, 0.2500000000000000000 ) ) ;
#383 = VECTOR ( 'NONE', #172, 1000.000000000000000 ) ;
#384 = COLOUR_RGB ( '',1.000000000000000000, 1.000000000000000000, 1.000000000000000000 ) ;
#385 = STYLED_ITEM ( 'NONE', ( #534 ), #1009 ) ;
#386 = CARTESIAN_POINT ( 'NONE',  ( 0.7761516213358506944, 0.5511516213358506056, 1.000000000000000000 ) ) ;
#387 = COLOUR_RGB ( '',0.7686274509803920907, 0.7686274509803920907, 0.7686274509803920907 ) ;
#388 = ADVANCED_FACE ( 'NONE', ( #547 ), #949, .F. ) ;
#389 = MECHANICAL_DESIGN_GEOMETRIC_PRESENTATION_REPRESENTATION (  '', ( #156 ), #107 ) ;
#390 = ORIENTED_EDGE ( 'NONE', *, *, #294, .T. ) ;
#391 = ORIENTED_EDGE ( 'NONE', *, *, #913, .T. ) ;
#392 = STYLED_ITEM ( 'NONE', ( #820 ), #480 ) ;
#393 = CARTESIAN_POINT ( 'NONE',  ( 0.9000000000000000222, 0.2000000000000002054, 0.0000000000000000000 ) ) ;
#394 = SURFACE_STYLE_FILL_AREA ( #477 ) ;
#395 = DIRECTION ( 'NONE',  ( 1.000000000000000000, 0.0000000000000000000, 0.0000000000000000000 ) ) ;
#396 = EDGE_LOOP ( 'NONE', ( #64, #481, #311, #715 ) ) ;
#397 = EDGE_CURVE ( 'NONE', #612, #788, #706, .T. ) ;
#398 = VERTEX_POINT ( 'NONE', #393 ) ;
#399 = CARTESIAN_POINT ( 'NONE',  ( -0.8230645606064248554, 0.5980645606064250996, 0.9819918098362258041 ) ) ;
#400 = CARTESIAN_POINT ( 'NONE',  ( -0.8211718235507424746, -1.318987074189034665E-16, 1.000000000000000000 ) ) ;
#401 = ORIENTED_EDGE ( 'NONE', *, *, #436, .T. ) ;
#402 = EDGE_LOOP ( 'NONE', ( #747, #35, #802, #475 ) ) ;
#403 =( NAMED_UNIT ( * ) PLANE_ANGLE_UNIT ( ) SI_UNIT ( $, .RADIAN. ) );
#404 = DIRECTION ( 'NONE',  ( -1.000000000000000000, 0.0000000000000000000, -0.0000000000000000000 ) ) ;
#405 =( NAMED_UNIT ( * ) SI_UNIT ( $, .STERADIAN. ) SOLID_ANGLE_UNIT ( ) );
#406 = AXIS2_PLACEMENT_3D ( 'NONE', #911, #831, #253 ) ;
#407 =( NAMED_UNIT ( * ) SI_UNIT ( $, .STERADIAN. ) SOLID_ANGLE_UNIT ( ) );
#408 = ORIENTED_EDGE ( 'NONE', *, *, #301, .T. ) ;
#409 = EDGE_CURVE ( 'NONE', #612, #876, #717, .T. ) ;
#410 = SURFACE_STYLE_FILL_AREA ( #813 ) ;
#411 = CARTESIAN_POINT ( 'NONE',  ( -0.9000000000000000222, 0.2000000000000000111, 0.2500000000000000000 ) ) ;
#412 = LINE ( 'NONE', #967, #491 ) ;
#413 = ORIENTED_EDGE ( 'NONE', *, *, #2, .T. ) ;
#414 = CARTESIAN_POINT ( 'NONE',  ( -0.7761516213358502503, -0.5511516213358506056, 1.000000000000000000 ) ) ;
#415 = EDGE_CURVE ( 'NONE', #75, #509, #1026, .T. ) ;
#416 = PLANE ( 'NONE',  #859 ) ;
#417 = MANIFOLD_SOLID_BREP ( 'Boss-Leads', #525 ) ;
#418 = VERTEX_POINT ( 'NONE', #93 ) ;
#419 = FILL_AREA_STYLE_COLOUR ( '', #289 ) ;
#420 = FACE_OUTER_BOUND ( 'NONE', #155, .T. ) ;
#421 = DIRECTION ( 'NONE',  ( 8.031127203596330602E-17, -1.000000000000000000, 0.0000000000000000000 ) ) ;
#422 = VECTOR ( 'NONE', #874, 1000.000000000000000 ) ;
#423 = VERTEX_POINT ( 'NONE', #730 ) ;
#424 = VECTOR ( 'NONE', #203, 1000.000000000000000 ) ;
#425 =( BOUNDED_CURVE ( )  B_SPLINE_CURVE ( 3, ( #515, #742, #908, #897 ),
 .UNSPECIFIED., .F., .T. ) 
 B_SPLINE_CURVE_WITH_KNOTS ( ( 4, 4 ),
 ( 4.712388980384689674, 6.178465552059927646 ),
 .UNSPECIFIED. ) 
 CURVE ( )  GEOMETRIC_REPRESENTATION_ITEM ( )  RATIONAL_B_SPLINE_CURVE ( ( 1.000000000000000000, 0.8287632169849291630, 0.8287632169849291630, 1.000000000000000000 ) ) 
 REPRESENTATION_ITEM ( '' )  );
#426 = CARTESIAN_POINT ( 'NONE',  ( 0.9000000000000000222, -0.2000000000000000111, 0.2500000000000000000 ) ) ;
#427 = FACE_OUTER_BOUND ( 'NONE', #99, .T. ) ;
#428 = VECTOR ( 'NONE', #438, 1000.000000000000000 ) ;
#429 = PLANE ( 'NONE',  #1001 ) ;
#430 = LINE ( 'NONE', #671, #472 ) ;
#431 = VERTEX_POINT ( 'NONE', #411 ) ;
#432 = PRODUCT ( 'User Library-SOD323F-1', 'User Library-SOD323F-1', '', ( #626 ) ) ;
#433 = CARTESIAN_POINT ( 'NONE',  ( 0.0000000000000000000, 0.0000000000000000000, 0.2500000000000000000 ) ) ;
#434 = LINE ( 'NONE', #586, #383 ) ;
#435 = SURFACE_STYLE_FILL_AREA ( #196 ) ;
#436 = EDGE_CURVE ( 'NONE', #953, #82, #585, .T. ) ;
#437 = LINE ( 'NONE', #760, #207 ) ;
#438 = DIRECTION ( 'NONE',  ( -0.0000000000000000000, 1.000000000000000000, -0.0000000000000000000 ) ) ;
#439 = DIRECTION ( 'NONE',  ( -1.000000000000000000, -0.0000000000000000000, -0.0000000000000000000 ) ) ;
#440 = DIRECTION ( 'NONE',  ( 1.000000000000000000, 1.606225440719267353E-16, 0.0000000000000000000 ) ) ;
#441 = VECTOR ( 'NONE', #125, 1000.000000000000000 ) ;
#442 = VECTOR ( 'NONE', #651, 1000.000000000000000 ) ;
#443 = MECHANICAL_DESIGN_GEOMETRIC_PRESENTATION_REPRESENTATION (  '', ( #385 ), #830 ) ;
#444 = AXIS2_PLACEMENT_3D ( 'NONE', #280, #520, #861 ) ;
#445 = DIRECTION ( 'NONE',  ( 8.031127203596330602E-17, -1.000000000000000000, 0.0000000000000000000 ) ) ;
#446 = DIRECTION ( 'NONE',  ( -1.000000000000000000, -0.0000000000000000000, -0.0000000000000000000 ) ) ;
#447 = VECTOR ( 'NONE', #591, 1000.000000000000000 ) ;
#448 = CARTESIAN_POINT ( 'NONE',  ( -0.6000000000000000888, 0.4387500000000000844, 0.9990000000000001101 ) ) ;
#449 = ADVANCED_FACE ( 'NONE', ( #752 ), #650, .T. ) ;
#450 = DIRECTION ( 'NONE',  ( -1.000000000000000000, -7.228014483236698528E-16, 0.0000000000000000000 ) ) ;
#451 = PRESENTATION_STYLE_ASSIGNMENT (( #613 ) ) ;
#452 = EDGE_CURVE ( 'NONE', #423, #948, #966, .T. ) ;
#453 = VECTOR ( 'NONE', #92, 1000.000000000000000 ) ;
#454 = CARTESIAN_POINT ( 'NONE',  ( -0.9000000000000000222, 0.2000000000000000111, 0.2500000000000000000 ) ) ;
#455 = DIRECTION ( 'NONE',  ( -0.0000000000000000000, -0.0000000000000000000, -1.000000000000000000 ) ) ;
#456 = CARTESIAN_POINT ( 'NONE',  ( -0.7500000000000000000, 0.4387499999999999734, 0.9990000000000001101 ) ) ;
#457 = EDGE_LOOP ( 'NONE', ( #1017, #485, #302, #461 ) ) ;
#458 = EDGE_CURVE ( 'NONE', #166, #653, #252, .T. ) ;
#459 =( NAMED_UNIT ( * ) PLANE_ANGLE_UNIT ( ) SI_UNIT ( $, .RADIAN. ) );
#460 = ORIENTED_EDGE ( 'NONE', *, *, #969, .T. ) ;
#461 = ORIENTED_EDGE ( 'NONE', *, *, #941, .T. ) ;
#462 = DIRECTION ( 'NONE',  ( 1.000000000000000000, 0.0000000000000000000, -0.0000000000000000000 ) ) ;
#463 = ADVANCED_FACE ( 'NONE', ( #420 ), #184, .F. ) ;
#464 = LINE ( 'NONE', #722, #508 ) ;
#465 = ORIENTED_EDGE ( 'NONE', *, *, #664, .F. ) ;
#466 = ORIENTED_EDGE ( 'NONE', *, *, #28, .F. ) ;
#467 = UNCERTAINTY_MEASURE_WITH_UNIT (LENGTH_MEASURE( 1.000000000000000082E-05 ), #33, 'distance_accuracy_value', 'NONE');
#468 = STYLED_ITEM ( 'NONE', ( #777 ), #643 ) ;
#469 = SURFACE_STYLE_USAGE ( .BOTH. , #873 ) ;
#470 = VECTOR ( 'NONE', #251, 1000.000000000000000 ) ;
#471 =( NAMED_UNIT ( * ) SI_UNIT ( $, .STERADIAN. ) SOLID_ANGLE_UNIT ( ) );
#472 = VECTOR ( 'NONE', #894, 1000.000000000000000 ) ;
#473 = CARTESIAN_POINT ( 'NONE',  ( -0.7500000000000000000, 0.4387499999999999734, 0.9990000000000001101 ) ) ;
#474 = VECTOR ( 'NONE', #944, 1000.000000000000000 ) ;
#475 = ORIENTED_EDGE ( 'NONE', *, *, #855, .T. ) ;
#476 = ORIENTED_EDGE ( 'NONE', *, *, #560, .F. ) ;
#477 = FILL_AREA_STYLE ('',( #295 ) ) ;
#478 = LINE ( 'NONE', #307, #828 ) ;
#479 = DIRECTION ( 'NONE',  ( 1.000000000000000000, 0.0000000000000000000, 0.0000000000000000000 ) ) ;
#480 = ADVANCED_FACE ( 'NONE', ( #427 ), #501, .F. ) ;
#481 = ORIENTED_EDGE ( 'NONE', *, *, #415, .F. ) ;
#482 = EDGE_LOOP ( 'NONE', ( #223, #316, #500, #938 ) ) ;
#483 = DIRECTION ( 'NONE',  ( -0.0000000000000000000, 1.000000000000000000, -0.0000000000000000000 ) ) ;
#484 =( BOUNDED_CURVE ( )  B_SPLINE_CURVE ( 3, ( #981, #915, #991, #96 ),
 .UNSPECIFIED., .F., .T. ) 
 B_SPLINE_CURVE_WITH_KNOTS ( ( 4, 4 ),
 ( 4.712388980384690562, 6.178465552059927646 ),
 .UNSPECIFIED. ) 
 CURVE ( )  GEOMETRIC_REPRESENTATION_ITEM ( )  RATIONAL_B_SPLINE_CURVE ( ( 1.000000000000000000, 0.8287632169849292740, 0.8287632169849292740, 1.000000000000000000 ) ) 
 REPRESENTATION_ITEM ( '' )  );
#485 = ORIENTED_EDGE ( 'NONE', *, *, #452, .T. ) ;
#486 = CARTESIAN_POINT ( 'NONE',  ( -0.7500000000000000000, 0.4387499999999999734, 0.9990000000000001101 ) ) ;
#487 = DIRECTION ( 'NONE',  ( -0.1039620511844941975, 0.1039620511844943918, 0.9891328443778546475 ) ) ;
#488 = LINE ( 'NONE', #733, #453 ) ;
#489 = MECHANICAL_DESIGN_GEOMETRIC_PRESENTATION_REPRESENTATION (  '', ( #21 ), #236 ) ;
#490 = CARTESIAN_POINT ( 'NONE',  ( -0.8999999999999998002, -0.6750000000000000444, 1.000000000000000000 ) ) ;
#491 = VECTOR ( 'NONE', #265, 1000.000000000000000 ) ;
#492 = VECTOR ( 'NONE', #764, 1000.000000000000000 ) ;
#493 = MECHANICAL_DESIGN_GEOMETRIC_PRESENTATION_REPRESENTATION (  '', ( #526 ), #177 ) ;
#494 = ORIENTED_EDGE ( 'NONE', *, *, #997, .T. ) ;
#495 = ORIENTED_EDGE ( 'NONE', *, *, #355, .T. ) ;
#496 = EDGE_CURVE ( 'NONE', #809, #190, #171, .T. ) ;
#497 = CARTESIAN_POINT ( 'NONE',  ( -0.8258777161042638593, -0.6008777161042642145, 0.9552264231633825764 ) ) ;
#498 = FACE_OUTER_BOUND ( 'NONE', #402, .T. ) ;
#499 = SURFACE_SIDE_STYLE ('',( #835 ) ) ;
#500 = ORIENTED_EDGE ( 'NONE', *, *, #592, .T. ) ;
#501 = PLANE ( 'NONE',  #914 ) ;
#502 = LINE ( 'NONE', #185, #442 ) ;
#503 = ORIENTED_EDGE ( 'NONE', *, *, #667, .F. ) ;
#504 = DIRECTION ( 'NONE',  ( -8.031127203596329369E-17, 1.000000000000000000, -0.0000000000000000000 ) ) ;
#505 = PLANE ( 'NONE',  #180 ) ;
#506 = PLANE ( 'NONE',  #406 ) ;
#507 =( GEOMETRIC_REPRESENTATION_CONTEXT ( 3 ) GLOBAL_UNCERTAINTY_ASSIGNED_CONTEXT ( ( #229 ) ) GLOBAL_UNIT_ASSIGNED_CONTEXT ( ( #635, #403, #246 ) ) REPRESENTATION_CONTEXT ( 'NONE', 'WORKASPACE' ) );
#508 = VECTOR ( 'NONE', #483, 1000.000000000000000 ) ;
#509 = VERTEX_POINT ( 'NONE', #338 ) ;
#510 =( GEOMETRIC_REPRESENTATION_CONTEXT ( 3 ) GLOBAL_UNCERTAINTY_ASSIGNED_CONTEXT ( ( #546 ) ) GLOBAL_UNIT_ASSIGNED_CONTEXT ( ( #682, #932, #609 ) ) REPRESENTATION_CONTEXT ( 'NONE', 'WORKASPACE' ) );
#511 = FACE_OUTER_BOUND ( 'NONE', #141, .T. ) ;
#512 = FACE_OUTER_BOUND ( 'NONE', #943, .T. ) ;
#513 = LINE ( 'NONE', #271, #909 ) ;
#514 = SURFACE_SIDE_STYLE ('',( #435 ) ) ;
#515 = CARTESIAN_POINT ( 'NONE',  ( 0.7761516213358506944, 0.5511516213358506056, 1.000000000000000000 ) ) ;
#516 = FILL_AREA_STYLE ('',( #665 ) ) ;
#517 = CARTESIAN_POINT ( 'NONE',  ( 0.9000000000000000222, 0.2000000000000000111, 0.2500000000000000000 ) ) ;
#518 = DIRECTION ( 'NONE',  ( 1.606225440719266120E-16, -1.000000000000000000, 0.0000000000000000000 ) ) ;
#519 = PRESENTATION_STYLE_ASSIGNMENT (( #606 ) ) ;
#520 = DIRECTION ( 'NONE',  ( -1.000000000000000000, -1.235558031322512305E-16, 0.0000000000000000000 ) ) ;
#521 = SURFACE_SIDE_STYLE ('',( #346 ) ) ;
#522 = DIRECTION ( 'NONE',  ( 8.031127203596330602E-17, -1.000000000000000000, 0.0000000000000000000 ) ) ;
#523 = CARTESIAN_POINT ( 'NONE',  ( 1.250000000000000000, -0.2000000000000000111, 0.2500000000000000000 ) ) ;
#524 = AXIS2_PLACEMENT_3D ( 'NONE', #599, #37, #996 ) ;
#525 = CLOSED_SHELL ( 'NONE', ( #866, #882, #956, #90, #463, #528, #927, #388, #791, #111, #449, #204, #365, #611, #50, #678, #689, #919, #336, #1009, #643, #982, #725, #228, #80, #377, #480, #16, #576 ) ) ;
#526 = STYLED_ITEM ( 'NONE', ( #1028 ), #359 ) ;
#527 = SURFACE_STYLE_FILL_AREA ( #1008 ) ;
#528 = ADVANCED_FACE ( 'NONE', ( #498 ), #505, .F. ) ;
#529 =( LENGTH_UNIT ( ) NAMED_UNIT ( * ) SI_UNIT ( .MILLI., .METRE. ) );
#530 = PRESENTATION_LAYER_ASSIGNMENT (  '', '', ( #975 ) ) ;
#531 = FILL_AREA_STYLE ('',( #358 ) ) ;
#532 = UNCERTAINTY_MEASURE_WITH_UNIT (LENGTH_MEASURE( 1.000000000000000082E-05 ), #379, 'distance_accuracy_value', 'NONE');
#533 = CARTESIAN_POINT ( 'NONE',  ( 0.7761516213358506944, 6.233372400225749231E-17, 0.9499999999999999556 ) ) ;
#534 = PRESENTATION_STYLE_ASSIGNMENT (( #852 ) ) ;
#535 =( LENGTH_UNIT ( ) NAMED_UNIT ( * ) SI_UNIT ( .MILLI., .METRE. ) );
#536 =( NAMED_UNIT ( * ) SI_UNIT ( $, .STERADIAN. ) SOLID_ANGLE_UNIT ( ) );
#537 = ORIENTED_EDGE ( 'NONE', *, *, #345, .T. ) ;
#538 = LINE ( 'NONE', #205, #153 ) ;
#539 = EDGE_CURVE ( 'NONE', #1025, #876, #25, .T. ) ;
#540 =( NAMED_UNIT ( * ) PLANE_ANGLE_UNIT ( ) SI_UNIT ( $, .RADIAN. ) );
#541 = SURFACE_STYLE_USAGE ( .BOTH. , #803 ) ;
#542 = VECTOR ( 'NONE', #808, 1000.000000000000000 ) ;
#543 = EDGE_CURVE ( 'NONE', #146, #297, #910, .T. ) ;
#544 = ORIENTED_EDGE ( 'NONE', *, *, #397, .T. ) ;
#545 = ORIENTED_EDGE ( 'NONE', *, *, #57, .T. ) ;
#546 = UNCERTAINTY_MEASURE_WITH_UNIT (LENGTH_MEASURE( 1.000000000000000082E-05 ), #682, 'distance_accuracy_value', 'NONE');
#547 = FACE_OUTER_BOUND ( 'NONE', #110, .T. ) ;
#548 = LINE ( 'NONE', #707, #273 ) ;
#549 = ORIENTED_EDGE ( 'NONE', *, *, #249, .F. ) ;
#550 = ORIENTED_EDGE ( 'NONE', *, *, #755, .F. ) ;
#551 = ORIENTED_EDGE ( 'NONE', *, *, #496, .T. ) ;
#552 = EDGE_CURVE ( 'NONE', #659, #946, #608, .T. ) ;
#553 = SURFACE_STYLE_FILL_AREA ( #799 ) ;
#554 = DIRECTION ( 'NONE',  ( 0.0000000000000000000, 0.0000000000000000000, -1.000000000000000000 ) ) ;
#555 = DIRECTION ( 'NONE',  ( 0.0000000000000000000, -0.0000000000000000000, -1.000000000000000000 ) ) ;
#556 = EDGE_LOOP ( 'NONE', ( #476, #17, #503, #881 ) ) ;
#557 = ORIENTED_EDGE ( 'NONE', *, *, #858, .F. ) ;
#558 = VECTOR ( 'NONE', #446, 1000.000000000000000 ) ;
#559 = CARTESIAN_POINT ( 'NONE',  ( -0.8147283340436876076, -0.5897283340436878518, 1.061305707527079978 ) ) ;
#560 = EDGE_CURVE ( 'NONE', #659, #381, #41, .T. ) ;
#561 = PLANE ( 'NONE',  #192 ) ;
#562 = CARTESIAN_POINT ( 'NONE',  ( 0.0000000000000000000, 0.0000000000000000000, 0.0000000000000000000 ) ) ;
#563 = ORIENTED_EDGE ( 'NONE', *, *, #167, .T. ) ;
#564 = ORIENTED_EDGE ( 'NONE', *, *, #913, .F. ) ;
#565 = CARTESIAN_POINT ( 'NONE',  ( 0.9000000000000000222, 0.6750000000000000444, 0.2499999999999749090 ) ) ;
#566 = CARTESIAN_POINT ( 'NONE',  ( -0.9000000000000000222, 0.6750000000000000444, 1.000000000000000000 ) ) ;
#567 = EDGE_CURVE ( 'NONE', #621, #948, #194, .T. ) ;
#568 = APPLICATION_CONTEXT ( 'automotive_design' ) ;
#569 = VERTEX_POINT ( 'NONE', #916 ) ;
#570 = ORIENTED_EDGE ( 'NONE', *, *, #249, .T. ) ;
#571 = DIRECTION ( 'NONE',  ( 0.0000000000000000000, -1.000000000000000000, 0.0000000000000000000 ) ) ;
#572 = DIRECTION ( 'NONE',  ( -0.0000000000000000000, -1.000000000000000000, -0.0000000000000000000 ) ) ;
#573 = FILL_AREA_STYLE ('',( #829 ) ) ;
#574 = SURFACE_STYLE_USAGE ( .BOTH. , #499 ) ;
#575 = ORIENTED_EDGE ( 'NONE', *, *, #288, .T. ) ;
#576 = ADVANCED_FACE ( 'NONE', ( #512 ), #762, .F. ) ;
#577 = CARTESIAN_POINT ( 'NONE',  ( -0.7761516213358503613, -1.246674480045149107E-16, 0.9499999999999999556 ) ) ;
#578 = DIRECTION ( 'NONE',  ( 0.0000000000000000000, 1.000000000000000000, 0.0000000000000000000 ) ) ;
#579 = DIRECTION ( 'NONE',  ( -1.606225440719266120E-16, 1.000000000000000000, 0.0000000000000000000 ) ) ;
#580 = DIRECTION ( 'NONE',  ( -8.031127203596330602E-17, 1.000000000000000000, 0.0000000000000000000 ) ) ;
#581 = ORIENTED_EDGE ( 'NONE', *, *, #543, .F. ) ;
#582 = EDGE_CURVE ( 'NONE', #233, #75, #52, .T. ) ;
#583 = VECTOR ( 'NONE', #354, 1000.000000000000114 ) ;
#584 = CARTESIAN_POINT ( 'NONE',  ( -0.9000000000000000222, 0.2000000000000000111, 0.2500000000000000000 ) ) ;
#585 = LINE ( 'NONE', #905, #542 ) ;
#586 = CARTESIAN_POINT ( 'NONE',  ( -0.9000000000000000222, -0.2000000000000000111, 0.2500000000000000000 ) ) ;
#587 = ORIENTED_EDGE ( 'NONE', *, *, #28, .T. ) ;
#588 =( LENGTH_UNIT ( ) NAMED_UNIT ( * ) SI_UNIT ( .MILLI., .METRE. ) );
#589 = DIRECTION ( 'NONE',  ( 1.606225440719265874E-16, -1.000000000000000000, 0.0000000000000000000 ) ) ;
#590 = VERTEX_POINT ( 'NONE', #757 ) ;
#591 = DIRECTION ( 'NONE',  ( 1.000000000000000000, -0.0000000000000000000, -0.0000000000000000000 ) ) ;
#592 = EDGE_CURVE ( 'NONE', #398, #787, #211, .T. ) ;
#593 = CARTESIAN_POINT ( 'NONE',  ( 0.7761516213358506944, 6.233372400225749231E-17, 1.000000000000000000 ) ) ;
#594 =( NAMED_UNIT ( * ) SI_UNIT ( $, .STERADIAN. ) SOLID_ANGLE_UNIT ( ) );
#595 = AXIS2_PLACEMENT_3D ( 'NONE', #456, #370, #450 ) ;
#596 = PRESENTATION_LAYER_ASSIGNMENT (  '', '', ( #912 ) ) ;
#597 = DIRECTION ( 'NONE',  ( -1.606225440719266120E-16, 1.000000000000000000, -3.330107839087975226E-35 ) ) ;
#598 = CARTESIAN_POINT ( 'NONE',  ( -0.7499999999999998890, -0.4387499999999999734, 0.9990000000000001101 ) ) ;
#599 = CARTESIAN_POINT ( 'NONE',  ( 0.0000000000000000000, 0.0000000000000000000, 1.000000000000000000 ) ) ;
#600 = LINE ( 'NONE', #918, #687 ) ;
#601 =( NAMED_UNIT ( * ) PLANE_ANGLE_UNIT ( ) SI_UNIT ( $, .RADIAN. ) );
#602 = CARTESIAN_POINT ( 'NONE',  ( 0.0000000000000000000, -0.5511516213358506056, 0.9499999999999999556 ) ) ;
#603 = CARTESIAN_POINT ( 'NONE',  ( 0.9000000000000001332, -0.6750000000000000444, 0.2499999999999749645 ) ) ;
#604 =( NAMED_UNIT ( * ) SI_UNIT ( $, .STERADIAN. ) SOLID_ANGLE_UNIT ( ) );
#605 = DIRECTION ( 'NONE',  ( -1.000000000000000000, -8.031127203596330602E-17, 0.0000000000000000000 ) ) ;
#606 = SURFACE_STYLE_USAGE ( .BOTH. , #283 ) ;
#607 = COLOUR_RGB ( '',0.7686274509803920907, 0.7686274509803920907, 0.7686274509803920907 ) ;
#608 = LINE ( 'NONE', #116, #447 ) ;
#609 =( NAMED_UNIT ( * ) SI_UNIT ( $, .STERADIAN. ) SOLID_ANGLE_UNIT ( ) );
#610 = DIRECTION ( 'NONE',  ( 1.000000000000000000, 0.0000000000000000000, 0.0000000000000000000 ) ) ;
#611 = ADVANCED_FACE ( 'NONE', ( #669 ), #209, .T. ) ;
#612 = VERTEX_POINT ( 'NONE', #771 ) ;
#613 = SURFACE_STYLE_USAGE ( .BOTH. , #849 ) ;
#614 = DIRECTION ( 'NONE',  ( 0.0000000000000000000, 0.0000000000000000000, 1.000000000000000000 ) ) ;
#615 = ORIENTED_EDGE ( 'NONE', *, *, #121, .T. ) ;
#616 = VECTOR ( 'NONE', #487, 1000.000000000000000 ) ;
#617 = CARTESIAN_POINT ( 'NONE',  ( -0.7761516213358503613, -1.246674480045149107E-16, 1.000000000000000000 ) ) ;
#618 = ORIENTED_EDGE ( 'NONE', *, *, #988, .T. ) ;
#619 =( GEOMETRIC_REPRESENTATION_CONTEXT ( 3 ) GLOBAL_UNCERTAINTY_ASSIGNED_CONTEXT ( ( #27 ) ) GLOBAL_UNIT_ASSIGNED_CONTEXT ( ( #978, #85, #405 ) ) REPRESENTATION_CONTEXT ( 'NONE', 'WORKASPACE' ) );
#620 = ORIENTED_EDGE ( 'NONE', *, *, #436, .F. ) ;
#621 = VERTEX_POINT ( 'NONE', #675 ) ;
#622 = UNCERTAINTY_MEASURE_WITH_UNIT (LENGTH_MEASURE( 1.000000000000000082E-05 ), #231, 'distance_accuracy_value', 'NONE');
#623 = CARTESIAN_POINT ( 'NONE',  ( -0.8999999999999998002, -0.6750000000000000444, 1.000000000000000000 ) ) ;
#624 = PLANE ( 'NONE',  #935 ) ;
#625 = DIRECTION ( 'NONE',  ( 0.0000000000000000000, -1.000000000000000000, 0.0000000000000000000 ) ) ;
#626 = PRODUCT_CONTEXT ( 'NONE', #714, 'mechanical' ) ;
#627 = ORIENTED_EDGE ( 'NONE', *, *, #131, .F. ) ;
#628 = VERTEX_POINT ( 'NONE', #281 ) ;
#629 = EDGE_CURVE ( 'NONE', #82, #315, #360, .T. ) ;
#630 = DIRECTION ( 'NONE',  ( -1.606225440719266120E-16, 1.000000000000000000, 0.0000000000000000000 ) ) ;
#631 = ORIENTED_EDGE ( 'NONE', *, *, #415, .T. ) ;
#632 = ORIENTED_EDGE ( 'NONE', *, *, #188, .T. ) ;
#633 = AXIS2_PLACEMENT_3D ( 'NONE', #868, #950, #610 ) ;
#634 = VECTOR ( 'NONE', #189, 1000.000000000000000 ) ;
#635 =( LENGTH_UNIT ( ) NAMED_UNIT ( * ) SI_UNIT ( .MILLI., .METRE. ) );
#636 =( GEOMETRIC_REPRESENTATION_CONTEXT ( 3 ) GLOBAL_UNCERTAINTY_ASSIGNED_CONTEXT ( ( #683 ) ) GLOBAL_UNIT_ASSIGNED_CONTEXT ( ( #588, #819, #674 ) ) REPRESENTATION_CONTEXT ( 'NONE', 'WORKASPACE' ) );
#637 = PRESENTATION_LAYER_ASSIGNMENT (  '', '', ( #385 ) ) ;
#638 = SURFACE_STYLE_USAGE ( .BOTH. , #314 ) ;
#639 = SURFACE_STYLE_FILL_AREA ( #700 ) ;
#640 = ORIENTED_EDGE ( 'NONE', *, *, #719, .F. ) ;
#641 = VERTEX_POINT ( 'NONE', #598 ) ;
#642 = DIRECTION ( 'NONE',  ( 0.0000000000000000000, 1.000000000000000000, 0.0000000000000000000 ) ) ;
#643 = ADVANCED_FACE ( 'NONE', ( #774 ), #364, .T. ) ;
#644 = LINE ( 'NONE', #84, #744 ) ;
#645 = LINE ( 'NONE', #593, #174 ) ;
#646 = ORIENTED_EDGE ( 'NONE', *, *, #212, .T. ) ;
#647 = FACE_OUTER_BOUND ( 'NONE', #884, .T. ) ;
#648 = CARTESIAN_POINT ( 'NONE',  ( -0.8258777161042641923, 0.6008777161042641035, 0.9552264231633824654 ) ) ;
#649 = CARTESIAN_POINT ( 'NONE',  ( -0.9000000000000000222, 0.6750000000000000444, 0.0000000000000000000 ) ) ;
#650 = PLANE ( 'NONE',  #197 ) ;
#651 = DIRECTION ( 'NONE',  ( -0.0000000000000000000, 1.000000000000000000, -0.0000000000000000000 ) ) ;
#652 = EDGE_CURVE ( 'NONE', #653, #805, #72, .T. ) ;
#653 = VERTEX_POINT ( 'NONE', #1027 ) ;
#654 = CARTESIAN_POINT ( 'NONE',  ( -0.8258777161042640813, -1.326545798529792384E-16, 0.9552264231633824654 ) ) ;
#655 = VECTOR ( 'NONE', #42, 1000.000000000000000 ) ;
#656 = VECTOR ( 'NONE', #168, 1000.000000000000000 ) ;
#657 =( NAMED_UNIT ( * ) SI_UNIT ( $, .STERADIAN. ) SOLID_ANGLE_UNIT ( ) );
#658 = CARTESIAN_POINT ( 'NONE',  ( -1.250000000000000000, 0.2000000000000000111, 0.2500000000000000000 ) ) ;
#659 = VERTEX_POINT ( 'NONE', #148 ) ;
#660 = FILL_AREA_STYLE ('',( #419 ) ) ;
#661 = CARTESIAN_POINT ( 'NONE',  ( -0.9000000000000000222, 0.6750000000000000444, 0.0000000000000000000 ) ) ;
#662 = CARTESIAN_POINT ( 'NONE',  ( 0.9000000000000000222, -0.2000000000000000111, 0.2500000000000000000 ) ) ;
#663 = ORIENTED_EDGE ( 'NONE', *, *, #8, .T. ) ;
#664 = EDGE_CURVE ( 'NONE', #136, #612, #235, .T. ) ;
#665 = FILL_AREA_STYLE_COLOUR ( '', #260 ) ;
#666 = ORIENTED_EDGE ( 'NONE', *, *, #62, .T. ) ;
#667 = EDGE_CURVE ( 'NONE', #621, #946, #59, .T. ) ;
#668 = DIRECTION ( 'NONE',  ( -0.0000000000000000000, -0.0000000000000000000, -1.000000000000000000 ) ) ;
#669 = FACE_OUTER_BOUND ( 'NONE', #102, .T. ) ;
#670 = FACE_OUTER_BOUND ( 'NONE', #227, .T. ) ;
#671 = CARTESIAN_POINT ( 'NONE',  ( -0.9000000000000000222, 0.6750000000000000444, 0.0000000000000000000 ) ) ;
#672 = VECTOR ( 'NONE', #118, 1000.000000000000000 ) ;
#673 = UNCERTAINTY_MEASURE_WITH_UNIT (LENGTH_MEASURE( 1.000000000000000082E-05 ), #61, 'distance_accuracy_value', 'NONE');
#674 =( NAMED_UNIT ( * ) SI_UNIT ( $, .STERADIAN. ) SOLID_ANGLE_UNIT ( ) );
#675 = CARTESIAN_POINT ( 'NONE',  ( 0.9000000000000000222, 0.6750000000000000444, 0.2499999999999750755 ) ) ;
#676 = CARTESIAN_POINT ( 'NONE',  ( 0.9000000000000000222, 0.6750000000000000444, 1.000000000000000000 ) ) ;
#677 = CARTESIAN_POINT ( 'NONE',  ( 0.9000000000000001332, -0.6750000000000000444, 0.2499999999999749645 ) ) ;
#678 = ADVANCED_FACE ( 'NONE', ( #782 ), #225, .T. ) ;
#679 = DIRECTION ( 'NONE',  ( -0.0000000000000000000, -0.0000000000000000000, -1.000000000000000000 ) ) ;
#680 = DIRECTION ( 'NONE',  ( -8.031127203596329369E-17, 1.000000000000000000, -0.0000000000000000000 ) ) ;
#681 = CARTESIAN_POINT ( 'NONE',  ( 0.9000000000000000222, -0.2000000000000000111, 0.0000000000000000000 ) ) ;
#682 =( LENGTH_UNIT ( ) NAMED_UNIT ( * ) SI_UNIT ( .MILLI., .METRE. ) );
#683 = UNCERTAINTY_MEASURE_WITH_UNIT (LENGTH_MEASURE( 1.000000000000000082E-05 ), #588, 'distance_accuracy_value', 'NONE');
#684 = LINE ( 'NONE', #853, #847 ) ;
#685 = FILL_AREA_STYLE_COLOUR ( '', #923 ) ;
#686 = AXIS2_PLACEMENT_3D ( 'NONE', #1005, #695, #614 ) ;
#687 = VECTOR ( 'NONE', #202, 1000.000000000000000 ) ;
#688 = EDGE_CURVE ( 'NONE', #948, #398, #158, .T. ) ;
#689 = ADVANCED_FACE ( 'NONE', ( #296 ), #373, .F. ) ;
#690 = FACE_OUTER_BOUND ( 'NONE', #789, .T. ) ;
#691 = DIRECTION ( 'NONE',  ( 1.606225440719266120E-16, -1.000000000000000000, 0.0000000000000000000 ) ) ;
#692 = EDGE_LOOP ( 'NONE', ( #817, #63, #931, #413 ) ) ;
#693 = LINE ( 'NONE', #1010, #424 ) ;
#694 = DIRECTION ( 'NONE',  ( -0.0000000000000000000, -0.0000000000000000000, -1.000000000000000000 ) ) ;
#695 = DIRECTION ( 'NONE',  ( -1.000000000000000000, 0.0000000000000000000, 0.0000000000000000000 ) ) ;
#696 = ORIENTED_EDGE ( 'NONE', *, *, #131, .T. ) ;
#697 = DIRECTION ( 'NONE',  ( -1.606225440719266120E-16, 1.000000000000000000, 0.0000000000000000000 ) ) ;
#698 = CARTESIAN_POINT ( 'NONE',  ( -1.250000000000000000, -0.2000000000000000111, 0.2500000000000000000 ) ) ;
#699 = ORIENTED_EDGE ( 'NONE', *, *, #317, .F. ) ;
#700 = FILL_AREA_STYLE ('',( #711 ) ) ;
#701 = ORIENTED_EDGE ( 'NONE', *, *, #629, .T. ) ;
#702 = AXIS2_PLACEMENT_3D ( 'NONE', #800, #376, #554 ) ;
#703 = EDGE_LOOP ( 'NONE', ( #322, #716, #870, #6 ) ) ;
#704 = VECTOR ( 'NONE', #395, 1000.000000000000000 ) ;
#705 = VECTOR ( 'NONE', #218, 1000.000000000000000 ) ;
#706 = LINE ( 'NONE', #224, #848 ) ;
#707 = CARTESIAN_POINT ( 'NONE',  ( -0.9000000000000000222, 0.2000000000000000111, 0.0000000000000000000 ) ) ;
#708 = AXIS2_PLACEMENT_3D ( 'NONE', #382, #462, #65 ) ;
#709 = DIRECTION ( 'NONE',  ( -1.606225440719266120E-16, 1.000000000000000000, 0.0000000000000000000 ) ) ;
#710 =( GEOMETRIC_REPRESENTATION_CONTEXT ( 3 ) GLOBAL_UNCERTAINTY_ASSIGNED_CONTEXT ( ( #119 ) ) GLOBAL_UNIT_ASSIGNED_CONTEXT ( ( #535, #459, #940 ) ) REPRESENTATION_CONTEXT ( 'NONE', 'WORKASPACE' ) );
#711 = FILL_AREA_STYLE_COLOUR ( '', #275 ) ;
#712 = VECTOR ( 'NONE', #445, 1000.000000000000000 ) ;
#713 = EDGE_CURVE ( 'NONE', #190, #418, #862, .T. ) ;
#714 = APPLICATION_CONTEXT ( 'automotive_design' ) ;
#715 = ORIENTED_EDGE ( 'NONE', *, *, #900, .T. ) ;
#716 = ORIENTED_EDGE ( 'NONE', *, *, #552, .F. ) ;
#717 = LINE ( 'NONE', #623, #474 ) ;
#718 = CARTESIAN_POINT ( 'NONE',  ( 0.7761516213358508054, -0.5511516213358506056, 1.000000000000000000 ) ) ;
#719 = EDGE_CURVE ( 'NONE', #297, #628, #548, .T. ) ;
#720 = ORIENTED_EDGE ( 'NONE', *, *, #161, .T. ) ;
#721 = ORIENTED_EDGE ( 'NONE', *, *, #900, .F. ) ;
#722 = CARTESIAN_POINT ( 'NONE',  ( -0.9000000000000000222, 0.2000000000000000111, 0.2500000000000000000 ) ) ;
#723 = EDGE_LOOP ( 'NONE', ( #34, #545, #68, #646 ) ) ;
#724 = ORIENTED_EDGE ( 'NONE', *, *, #761, .F. ) ;
#725 = ADVANCED_FACE ( 'NONE', ( #306 ), #624, .F. ) ;
#726 = LINE ( 'NONE', #9, #221 ) ;
#727 = STYLED_ITEM ( 'NONE', ( #264 ), #228 ) ;
#728 = CARTESIAN_POINT ( 'NONE',  ( 0.9000000000000000222, -0.2000000000000000111, 0.2500000000000000000 ) ) ;
#729 = MECHANICAL_DESIGN_GEOMETRIC_PRESENTATION_REPRESENTATION (  '', ( #912 ), #710 ) ;
#730 = CARTESIAN_POINT ( 'NONE',  ( 1.250000000000000000, 0.2000000000000000111, 0.2500000000000000000 ) ) ;
#731 = ORIENTED_EDGE ( 'NONE', *, *, #582, .T. ) ;
#732 = EDGE_CURVE ( 'NONE', #1029, #423, #726, .T. ) ;
#733 = CARTESIAN_POINT ( 'NONE',  ( -0.7500000000000000000, 0.4387499999999999734, 0.9990000000000001101 ) ) ;
#734 = DIRECTION ( 'NONE',  ( 0.0000000000000000000, 1.000000000000000000, 0.0000000000000000000 ) ) ;
#735 =( NAMED_UNIT ( * ) SI_UNIT ( $, .STERADIAN. ) SOLID_ANGLE_UNIT ( ) );
#736 = ORIENTED_EDGE ( 'NONE', *, *, #732, .F. ) ;
#737 = CARTESIAN_POINT ( 'NONE',  ( -0.8030644392411130372, -0.5780644392411136145, 1.000000000000000000 ) ) ;
#738 = SURFACE_STYLE_FILL_AREA ( #573 ) ;
#739 = DIRECTION ( 'NONE',  ( -0.0000000000000000000, 0.9945218953682737340, 0.1045284632676501124 ) ) ;
#740 = ORIENTED_EDGE ( 'NONE', *, *, #930, .F. ) ;
#741 = MECHANICAL_DESIGN_GEOMETRIC_PRESENTATION_REPRESENTATION (  '', ( #468 ), #5 ) ;
#742 = CARTESIAN_POINT ( 'NONE',  ( 0.8030644392411135923, 0.5780644392411135035, 1.000000000000000000 ) ) ;
#743 = PRESENTATION_LAYER_ASSIGNMENT (  '', '', ( #151 ) ) ;
#744 = VECTOR ( 'NONE', #951, 1000.000000000000000 ) ;
#745 = DIRECTION ( 'NONE',  ( 0.0000000000000000000, 1.000000000000000000, -0.0000000000000000000 ) ) ;
#746 = CARTESIAN_POINT ( 'NONE',  ( 0.9000000000000000222, 0.6750000000000000444, 0.0000000000000000000 ) ) ;
#747 = ORIENTED_EDGE ( 'NONE', *, *, #198, .F. ) ;
#748 = EDGE_CURVE ( 'NONE', #801, #569, #889, .T. ) ;
#749 = AXIS2_PLACEMENT_3D ( 'NONE', #433, #839, #122 ) ;
#750 =( BOUNDED_CURVE ( )  B_SPLINE_CURVE ( 3, ( #497, #178, #737, #414 ),
 .UNSPECIFIED., .F., .T. ) 
 B_SPLINE_CURVE_WITH_KNOTS ( ( 4, 4 ),
 ( 0.1047197551196580451, 1.570796326794896558 ),
 .UNSPECIFIED. ) 
 CURVE ( )  GEOMETRIC_REPRESENTATION_ITEM ( )  RATIONAL_B_SPLINE_CURVE ( ( 1.000000000000000000, 0.8287632169849290520, 0.8287632169849290520, 1.000000000000000000 ) ) 
 REPRESENTATION_ITEM ( '' )  );
#751 = DIRECTION ( 'NONE',  ( 0.0000000000000000000, -0.0000000000000000000, 1.000000000000000000 ) ) ;
#752 = FACE_OUTER_BOUND ( 'NONE', #1011, .T. ) ;
#753 = LINE ( 'NONE', #486, #492 ) ;
#754 = ORIENTED_EDGE ( 'NONE', *, *, #567, .F. ) ;
#755 = EDGE_CURVE ( 'NONE', #1029, #82, #91, .T. ) ;
#756 = CARTESIAN_POINT ( 'NONE',  ( -0.6000000000000000888, -0.4387499999999999734, 0.9990000000000001101 ) ) ;
#757 = CARTESIAN_POINT ( 'NONE',  ( -0.7500000000000000000, 0.4387499999999999734, 1.000000000000000000 ) ) ;
#758 = LINE ( 'NONE', #117, #333 ) ;
#759 = CARTESIAN_POINT ( 'NONE',  ( -0.9000000000000000222, 0.2000000000000000111, 0.2500000000000000000 ) ) ;
#760 = CARTESIAN_POINT ( 'NONE',  ( -0.7500000000000000000, 0.4387499999999999734, 1.000000000000000000 ) ) ;
#761 = EDGE_CURVE ( 'NONE', #659, #653, #851, .T. ) ;
#762 = PLANE ( 'NONE',  #749 ) ;
#763 = FACE_OUTER_BOUND ( 'NONE', #1006, .T. ) ;
#764 = DIRECTION ( 'NONE',  ( -1.000000000000000000, -7.228014483236698528E-16, -0.0000000000000000000 ) ) ;
#765 = STYLED_ITEM ( 'NONE', ( #821 ), #919 ) ;
#766 = VECTOR ( 'NONE', #572, 1000.000000000000000 ) ;
#767 =( LENGTH_UNIT ( ) NAMED_UNIT ( * ) SI_UNIT ( .MILLI., .METRE. ) );
#768 = STYLED_ITEM ( 'NONE', ( #451 ), #336 ) ;
#769 = VECTOR ( 'NONE', #589, 1000.000000000000000 ) ;
#770 = CYLINDRICAL_SURFACE ( 'NONE', #781, 0.05000000000000002359 ) ;
#771 = CARTESIAN_POINT ( 'NONE',  ( -0.8999999999999998002, -0.6750000000000000444, 0.2499999999999750755 ) ) ;
#772 = CARTESIAN_POINT ( 'NONE',  ( -0.8999999999999998002, -0.6750000000000000444, 0.2499999999999749090 ) ) ;
#773 = CARTESIAN_POINT ( 'NONE',  ( -0.9000000000000000222, -0.2000000000000000111, 0.0000000000000000000 ) ) ;
#774 = FACE_OUTER_BOUND ( 'NONE', #60, .T. ) ;
#775 = CARTESIAN_POINT ( 'NONE',  ( 1.250000000000000000, -0.2000000000000000111, 0.2500000000000000000 ) ) ;
#776 = PLANE ( 'NONE',  #444 ) ;
#777 = PRESENTATION_STYLE_ASSIGNMENT (( #129 ) ) ;
#778 = VECTOR ( 'NONE', #455, 1000.000000000000000 ) ;
#779 = AXIS2_PLACEMENT_3D ( 'NONE', #18, #193, #904 ) ;
#780 = AXIS2_PLACEMENT_3D ( 'NONE', #562, #863, #479 ) ;
#781 = AXIS2_PLACEMENT_3D ( 'NONE', #602, #53, #214 ) ;
#782 = FACE_OUTER_BOUND ( 'NONE', #703, .T. ) ;
#783 = MECHANICAL_DESIGN_GEOMETRIC_PRESENTATION_REPRESENTATION (  '', ( #392 ), #619 ) ;
#784 = VERTEX_POINT ( 'NONE', #963 ) ;
#785 = DIRECTION ( 'NONE',  ( 1.000000000000000000, 0.0000000000000000000, 0.0000000000000000000 ) ) ;
#786 = CARTESIAN_POINT ( 'NONE',  ( 0.9000000000000000222, 0.2000000000000000111, 0.2500000000000000000 ) ) ;
#787 = VERTEX_POINT ( 'NONE', #746 ) ;
#788 = VERTEX_POINT ( 'NONE', #984 ) ;
#789 = EDGE_LOOP ( 'NONE', ( #632, #20, #81, #494 ) ) ;
#790 = DIRECTION ( 'NONE',  ( 1.000000000000000000, 0.0000000000000000000, 0.0000000000000000000 ) ) ;
#791 = ADVANCED_FACE ( 'NONE', ( #979 ), #416, .T. ) ;
#792 = LINE ( 'NONE', #728, #766 ) ;
#793 =( NAMED_UNIT ( * ) PLANE_ANGLE_UNIT ( ) SI_UNIT ( $, .RADIAN. ) );
#794 = AXIS2_PLACEMENT_3D ( 'NONE', #533, #987, #983 ) ;
#795 = EDGE_LOOP ( 'NONE', ( #893, #888, #627, #903 ) ) ;
#796 = AXIS2_PLACEMENT_3D ( 'NONE', #676, #605, #522 ) ;
#797 = ORIENTED_EDGE ( 'NONE', *, *, #941, .F. ) ;
#798 = MECHANICAL_DESIGN_GEOMETRIC_PRESENTATION_REPRESENTATION (  '', ( #222 ), #152 ) ;
#799 = FILL_AREA_STYLE ('',( #230 ) ) ;
#800 = CARTESIAN_POINT ( 'NONE',  ( -0.6000000000000000888, 0.4387500000000000844, 0.9990000000000001101 ) ) ;
#801 = VERTEX_POINT ( 'NONE', #332 ) ;
#802 = ORIENTED_EDGE ( 'NONE', *, *, #409, .T. ) ;
#803 = SURFACE_SIDE_STYLE ('',( #394 ) ) ;
#804 =( NAMED_UNIT ( * ) SI_UNIT ( $, .STERADIAN. ) SOLID_ANGLE_UNIT ( ) );
#805 = VERTEX_POINT ( 'NONE', #329 ) ;
#806 = EDGE_CURVE ( 'NONE', #423, #315, #974, .T. ) ;
#807 = ORIENTED_EDGE ( 'NONE', *, *, #592, .F. ) ;
#808 = DIRECTION ( 'NONE',  ( 1.000000000000000000, 0.0000000000000000000, 0.0000000000000000000 ) ) ;
#809 = VERTEX_POINT ( 'NONE', #658 ) ;
#810 = CARTESIAN_POINT ( 'NONE',  ( -0.9000000000000000222, -0.2000000000000000111, 0.2500000000000000000 ) ) ;
#811 = COLOUR_RGB ( '',1.000000000000000000, 1.000000000000000000, 1.000000000000000000 ) ;
#812 = CARTESIAN_POINT ( 'NONE',  ( 1.250000000000000000, -0.2000000000000000111, 0.2500000000000000000 ) ) ;
#813 = FILL_AREA_STYLE ('',( #10 ) ) ;
#814 = PRESENTATION_LAYER_ASSIGNMENT (  '', '', ( #768 ) ) ;
#815 = SURFACE_SIDE_STYLE ('',( #738 ) ) ;
#816 = CARTESIAN_POINT ( 'NONE',  ( -0.7761516213358504723, 0.5511516213358506056, 1.000000000000000000 ) ) ;
#817 = ORIENTED_EDGE ( 'NONE', *, *, #161, .F. ) ;
#818 = PRESENTATION_STYLE_ASSIGNMENT (( #343 ) ) ;
#819 =( NAMED_UNIT ( * ) PLANE_ANGLE_UNIT ( ) SI_UNIT ( $, .RADIAN. ) );
#820 = PRESENTATION_STYLE_ASSIGNMENT (( #11 ) ) ;
#821 = PRESENTATION_STYLE_ASSIGNMENT (( #574 ) ) ;
#822 = VERTEX_POINT ( 'NONE', #98 ) ;
#823 =( NAMED_UNIT ( * ) PLANE_ANGLE_UNIT ( ) SI_UNIT ( $, .RADIAN. ) );
#824 = EDGE_CURVE ( 'NONE', #805, #173, #902, .T. ) ;
#825 = CARTESIAN_POINT ( 'NONE',  ( 0.0000000000000000000, -0.5511516213358506056, 1.000000000000000000 ) ) ;
#826 = ORIENTED_EDGE ( 'NONE', *, *, #345, .F. ) ;
#827 = COLOUR_RGB ( '',0.7686274509803920907, 0.7686274509803920907, 0.7686274509803920907 ) ;
#828 = VECTOR ( 'NONE', #625, 1000.000000000000000 ) ;
#829 = FILL_AREA_STYLE_COLOUR ( '', #880 ) ;
#830 =( GEOMETRIC_REPRESENTATION_CONTEXT ( 3 ) GLOBAL_UNCERTAINTY_ASSIGNED_CONTEXT ( ( #939 ) ) GLOBAL_UNIT_ASSIGNED_CONTEXT ( ( #135, #601, #126 ) ) REPRESENTATION_CONTEXT ( 'NONE', 'WORKASPACE' ) );
#831 = DIRECTION ( 'NONE',  ( 1.000000000000000000, 1.606225440719266120E-16, -0.0000000000000000000 ) ) ;
#832 = ORIENTED_EDGE ( 'NONE', *, *, #560, .T. ) ;
#833 = COLOUR_RGB ( '',0.1098039215686274495, 0.1098039215686274495, 0.1098039215686274495 ) ;
#834 = VECTOR ( 'NONE', #680, 1000.000000000000000 ) ;
#835 = SURFACE_STYLE_FILL_AREA ( #181 ) ;
#836 =( NAMED_UNIT ( * ) PLANE_ANGLE_UNIT ( ) SI_UNIT ( $, .RADIAN. ) );
#837 = EDGE_CURVE ( 'NONE', #308, #509, #502, .T. ) ;
#838 = LINE ( 'NONE', #115, #925 ) ;
#839 = DIRECTION ( 'NONE',  ( -0.0000000000000000000, 0.0000000000000000000, -1.000000000000000000 ) ) ;
#840 = CARTESIAN_POINT ( 'NONE',  ( 0.0000000000000000000, -0.6008777161042642145, 0.9552264231633824654 ) ) ;
#841 = CYLINDRICAL_SURFACE ( 'NONE', #134, 0.05000000000000002359 ) ;
#842 = CARTESIAN_POINT ( 'NONE',  ( -0.7500000000000000000, 0.4387499999999999734, 0.9990000000000001101 ) ) ;
#843 = SURFACE_STYLE_USAGE ( .BOTH. , #521 ) ;
#844 = MECHANICAL_DESIGN_GEOMETRIC_PRESENTATION_REPRESENTATION (  '', ( #765 ), #1015 ) ;
#845 = CARTESIAN_POINT ( 'NONE',  ( -0.7499999999999998890, -0.4387499999999999734, 0.9990000000000001101 ) ) ;
#846 = VECTOR ( 'NONE', #375, 1000.000000000000000 ) ;
#847 = VECTOR ( 'NONE', #694, 1000.000000000000000 ) ;
#848 = VECTOR ( 'NONE', #630, 1000.000000000000000 ) ;
#849 = SURFACE_SIDE_STYLE ('',( #290 ) ) ;
#850 = CARTESIAN_POINT ( 'NONE',  ( 0.9000000000000000222, 0.6750000000000000444, 0.0000000000000000000 ) ) ;
#851 =( BOUNDED_CURVE ( )  B_SPLINE_CURVE ( 3, ( #648, #399, #1018, #816 ),
 .UNSPECIFIED., .F., .T. ) 
 B_SPLINE_CURVE_WITH_KNOTS ( ( 4, 4 ),
 ( 3.246312408709449038, 4.712388980384689674 ),
 .UNSPECIFIED. ) 
 CURVE ( )  GEOMETRIC_REPRESENTATION_ITEM ( )  RATIONAL_B_SPLINE_CURVE ( ( 1.000000000000000000, 0.8287632169849287189, 0.8287632169849287189, 1.000000000000000000 ) ) 
 REPRESENTATION_ITEM ( '' )  );
#852 = SURFACE_STYLE_USAGE ( .BOTH. , #857 ) ;
#853 = CARTESIAN_POINT ( 'NONE',  ( 0.9000000000000000222, 0.6750000000000000444, 1.000000000000000000 ) ) ;
#854 = SURFACE_SIDE_STYLE ('',( #270 ) ) ;
#855 = EDGE_CURVE ( 'NONE', #876, #784, #513, .T. ) ;
#856 = LINE ( 'NONE', #995, #846 ) ;
#857 = SURFACE_SIDE_STYLE ('',( #213 ) ) ;
#858 = EDGE_CURVE ( 'NONE', #788, #1025, #434, .T. ) ;
#859 = AXIS2_PLACEMENT_3D ( 'NONE', #19, #739, #906 ) ;
#860 =( GEOMETRIC_REPRESENTATION_CONTEXT ( 3 ) GLOBAL_UNCERTAINTY_ASSIGNED_CONTEXT ( ( #38 ) ) GLOBAL_UNIT_ASSIGNED_CONTEXT ( ( #160, #15, #804 ) ) REPRESENTATION_CONTEXT ( 'NONE', 'WORKASPACE' ) );
#861 = DIRECTION ( 'NONE',  ( 1.235558031322512305E-16, -1.000000000000000000, 0.0000000000000000000 ) ) ;
#862 = LINE ( 'NONE', #698, #366 ) ;
#863 = DIRECTION ( 'NONE',  ( 0.0000000000000000000, 0.0000000000000000000, 1.000000000000000000 ) ) ;
#864 = ORIENTED_EDGE ( 'NONE', *, *, #652, .T. ) ;
#865 = ORIENTED_EDGE ( 'NONE', *, *, #2, .F. ) ;
#866 = ADVANCED_FACE ( 'NONE', ( #114 ), #506, .F. ) ;
#867 = CARTESIAN_POINT ( 'NONE',  ( -0.6000000000000000888, 0.4387500000000000844, 0.9990000000000001101 ) ) ;
#868 = CARTESIAN_POINT ( 'NONE',  ( 0.0000000000000000000, 0.0000000000000000000, 0.9990000000000001101 ) ) ;
#869 = CARTESIAN_POINT ( 'NONE',  ( 1.250000000000000000, -0.2000000000000000111, 0.0000000000000000000 ) ) ;
#870 = ORIENTED_EDGE ( 'NONE', *, *, #761, .T. ) ;
#871 = ORIENTED_EDGE ( 'NONE', *, *, #278, .T. ) ;
#872 = ORIENTED_EDGE ( 'NONE', *, *, #355, .F. ) ;
#873 = SURFACE_SIDE_STYLE ('',( #553 ) ) ;
#874 = DIRECTION ( 'NONE',  ( -0.1039620511844941697, -0.1039620511844943918, 0.9891328443778546475 ) ) ;
#875 = LINE ( 'NONE', #890, #971 ) ;
#876 = VERTEX_POINT ( 'NONE', #339 ) ;
#877 = AXIS2_PLACEMENT_3D ( 'NONE', #101, #324, #421 ) ;
#878 = ORIENTED_EDGE ( 'NONE', *, *, #824, .T. ) ;
#879 = CARTESIAN_POINT ( 'NONE',  ( -0.8258777161042638593, -0.6008777161042642145, 0.9552264231633825764 ) ) ;
#880 = COLOUR_RGB ( '',0.7686274509803920907, 0.7686274509803920907, 0.7686274509803920907 ) ;
#881 = ORIENTED_EDGE ( 'NONE', *, *, #74, .F. ) ;
#882 = ADVANCED_FACE ( 'NONE', ( #248 ), #108, .F. ) ;
#883 = VERTEX_POINT ( 'NONE', #662 ) ;
#884 = EDGE_LOOP ( 'NONE', ( #570, #144, #724, #163 ) ) ;
#885 = SURFACE_STYLE_FILL_AREA ( #3 ) ;
#886 = CARTESIAN_POINT ( 'NONE',  ( 0.9000000000000000222, 0.2000000000000000111, 0.2500000000000000000 ) ) ;
#887 = APPLICATION_PROTOCOL_DEFINITION ( 'draft international standard', 'automotive_design', 1998, #714 ) ;
#888 = ORIENTED_EDGE ( 'NONE', *, *, #301, .F. ) ;
#889 = LINE ( 'NONE', #169, #616 ) ;
#890 = CARTESIAN_POINT ( 'NONE',  ( -0.9000000000000000222, 0.6750000000000000444, 1.000000000000000000 ) ) ;
#891 = CARTESIAN_POINT ( 'NONE',  ( -0.9000000000000000222, -0.2000000000000000111, 0.2500000000000000000 ) ) ;
#892 =( NAMED_UNIT ( * ) PLANE_ANGLE_UNIT ( ) SI_UNIT ( $, .RADIAN. ) );
#893 = ORIENTED_EDGE ( 'NONE', *, *, #837, .F. ) ;
#894 = DIRECTION ( 'NONE',  ( -1.000000000000000000, -0.0000000000000000000, -0.0000000000000000000 ) ) ;
#895 = VECTOR ( 'NONE', #785, 1000.000000000000000 ) ;
#896 = VECTOR ( 'NONE', #199, 1000.000000000000000 ) ;
#897 = CARTESIAN_POINT ( 'NONE',  ( 0.8258777161042641923, 0.6008777161042641035, 0.9552264231633825764 ) ) ;
#898 = FACE_OUTER_BOUND ( 'NONE', #226, .T. ) ;
#899 = EDGE_LOOP ( 'NONE', ( #465, #871, #832, #145, #959, #968 ) ) ;
#900 = EDGE_CURVE ( 'NONE', #233, #308, #412, .T. ) ;
#901 = LINE ( 'NONE', #353, #89 ) ;
#902 = LINE ( 'NONE', #825, #191 ) ;
#903 = ORIENTED_EDGE ( 'NONE', *, *, #215, .F. ) ;
#904 = DIRECTION ( 'NONE',  ( -1.000000000000000000, 0.0000000000000000000, 0.0000000000000000000 ) ) ;
#905 = CARTESIAN_POINT ( 'NONE',  ( 0.9000000000000000222, -0.2000000000000000111, 0.0000000000000000000 ) ) ;
#906 = DIRECTION ( 'NONE',  ( 1.000000000000000000, 0.0000000000000000000, 0.0000000000000000000 ) ) ;
#907 = ORIENTED_EDGE ( 'NONE', *, *, #688, .F. ) ;
#908 = CARTESIAN_POINT ( 'NONE',  ( 0.8230645606064250774, 0.5980645606064249886, 0.9819918098362259151 ) ) ;
#909 = VECTOR ( 'NONE', #26, 1000.000000000000000 ) ;
#910 = LINE ( 'NONE', #200, #304 ) ;
#911 = CARTESIAN_POINT ( 'NONE',  ( -0.9000000000000000222, 0.6750000000000000444, 1.000000000000000000 ) ) ;
#912 = STYLED_ITEM ( 'NONE', ( #124 ), #377 ) ;
#913 = EDGE_CURVE ( 'NONE', #173, #166, #645, .T. ) ;
#914 = AXIS2_PLACEMENT_3D ( 'NONE', #891, #745, #972 ) ;
#915 = CARTESIAN_POINT ( 'NONE',  ( 0.8030644392411134813, -0.5780644392411133925, 1.000000000000000000 ) ) ;
#916 = CARTESIAN_POINT ( 'NONE',  ( 0.8258777161042643034, -0.6008777161042641035, 0.9552264231633825764 ) ) ;
#917 = LINE ( 'NONE', #840, #558 ) ;
#918 = CARTESIAN_POINT ( 'NONE',  ( 0.9000000000000000222, -0.2000000000000000111, 0.2500000000000000000 ) ) ;
#919 = ADVANCED_FACE ( 'NONE', ( #898 ), #429, .F. ) ;
#920 = SURFACE_STYLE_USAGE ( .BOTH. , #128 ) ;
#921 = PLANE ( 'NONE',  #796 ) ;
#922 = CARTESIAN_POINT ( 'NONE',  ( -0.8122965097242281773, 0.5872965097242281995, 1.084442970391061634 ) ) ;
#923 = COLOUR_RGB ( '',1.000000000000000000, 1.000000000000000000, 1.000000000000000000 ) ;
#924 = DIRECTION ( 'NONE',  ( 1.000000000000000000, 0.0000000000000000000, 0.0000000000000000000 ) ) ;
#925 = VECTOR ( 'NONE', #697, 1000.000000000000000 ) ;
#926 = DIRECTION ( 'NONE',  ( 0.0000000000000000000, 0.0000000000000000000, 1.000000000000000000 ) ) ;
#927 = ADVANCED_FACE ( 'NONE', ( #277, #670 ), #361, .T. ) ;
#928 = FILL_AREA_STYLE_COLOUR ( '', #384 ) ;
#929 =( LENGTH_UNIT ( ) NAMED_UNIT ( * ) SI_UNIT ( .MILLI., .METRE. ) );
#930 = EDGE_CURVE ( 'NONE', #569, #136, #917, .T. ) ;
#931 = ORIENTED_EDGE ( 'NONE', *, *, #371, .T. ) ;
#932 =( NAMED_UNIT ( * ) PLANE_ANGLE_UNIT ( ) SI_UNIT ( $, .RADIAN. ) );
#933 = PRESENTATION_STYLE_ASSIGNMENT (( #541 ) ) ;
#934 = ORIENTED_EDGE ( 'NONE', *, *, #988, .F. ) ;
#935 = AXIS2_PLACEMENT_3D ( 'NONE', #327, #571, #83 ) ;
#936 = EDGE_CURVE ( 'NONE', #801, #612, #286, .T. ) ;
#937 = MECHANICAL_DESIGN_GEOMETRIC_PRESENTATION_REPRESENTATION (  '', ( #254 ), #860 ) ;
#938 = ORIENTED_EDGE ( 'NONE', *, *, #371, .F. ) ;
#939 = UNCERTAINTY_MEASURE_WITH_UNIT (LENGTH_MEASURE( 1.000000000000000082E-05 ), #135, 'distance_accuracy_value', 'NONE');
#940 =( NAMED_UNIT ( * ) SI_UNIT ( $, .STERADIAN. ) SOLID_ANGLE_UNIT ( ) );
#941 = EDGE_CURVE ( 'NONE', #883, #1029, #989, .T. ) ;
#942 = ORIENTED_EDGE ( 'NONE', *, *, #629, .F. ) ;
#943 = EDGE_LOOP ( 'NONE', ( #551, #587, #615, #575 ) ) ;
#944 = DIRECTION ( 'NONE',  ( -0.0000000000000000000, -0.0000000000000000000, -1.000000000000000000 ) ) ;
#945 = CARTESIAN_POINT ( 'NONE',  ( -1.250000000000000000, -0.2000000000000000111, 0.2500000000000000000 ) ) ;
#946 = VERTEX_POINT ( 'NONE', #201 ) ;
#947 = ORIENTED_EDGE ( 'NONE', *, *, #317, .T. ) ;
#948 = VERTEX_POINT ( 'NONE', #517 ) ;
#949 = PLANE ( 'NONE',  #257 ) ;
#950 = DIRECTION ( 'NONE',  ( -0.0000000000000000000, 0.0000000000000000000, 1.000000000000000000 ) ) ;
#951 = DIRECTION ( 'NONE',  ( 1.235558031322512305E-16, -1.000000000000000000, 0.0000000000000000000 ) ) ;
#952 = EDGE_LOOP ( 'NONE', ( #1, #154, #990, #631 ) ) ;
#953 = VERTEX_POINT ( 'NONE', #681 ) ;
#954 = PRESENTATION_LAYER_ASSIGNMENT (  '', '', ( #222 ) ) ;
#955 = COLOUR_RGB ( '',1.000000000000000000, 1.000000000000000000, 1.000000000000000000 ) ;
#956 = ADVANCED_FACE ( 'NONE', ( #356 ), #921, .F. ) ;
#957 = CARTESIAN_POINT ( 'NONE',  ( -0.9000000000000000222, 0.6750000000000000444, 1.000000000000000000 ) ) ;
#958 = DIRECTION ( 'NONE',  ( -1.000000000000000000, 0.0000000000000000000, 0.0000000000000000000 ) ) ;
#959 = ORIENTED_EDGE ( 'NONE', *, *, #121, .F. ) ;
#960 = ORIENTED_EDGE ( 'NONE', *, *, #188, .F. ) ;
#961 = SURFACE_STYLE_USAGE ( .BOTH. , #318 ) ;
#962 = FACE_OUTER_BOUND ( 'NONE', #457, .T. ) ;
#963 = CARTESIAN_POINT ( 'NONE',  ( 0.9000000000000001332, -0.6750000000000000444, 0.0000000000000000000 ) ) ;
#964 = ORIENTED_EDGE ( 'NONE', *, *, #713, .T. ) ;
#965 = CARTESIAN_POINT ( 'NONE',  ( -0.6000000000000000888, 0.4387500000000000844, 0.9990000000000001101 ) ) ;
#966 = LINE ( 'NONE', #886, #1020 ) ;
#967 = CARTESIAN_POINT ( 'NONE',  ( -0.6000000000000000888, -0.4387499999999999734, 0.9990000000000001101 ) ) ;
#968 = ORIENTED_EDGE ( 'NONE', *, *, #397, .F. ) ;
#969 = EDGE_CURVE ( 'NONE', #315, #398, #758, .T. ) ;
#970 = COLOUR_RGB ( '',1.000000000000000000, 1.000000000000000000, 1.000000000000000000 ) ;
#971 = VECTOR ( 'NONE', #232, 1000.000000000000000 ) ;
#972 = DIRECTION ( 'NONE',  ( 0.0000000000000000000, 0.0000000000000000000, 1.000000000000000000 ) ) ;
#973 = VECTOR ( 'NONE', #313, 1000.000000000000000 ) ;
#974 = LINE ( 'NONE', #12, #634 ) ;
#975 = STYLED_ITEM ( 'NONE', ( #48 ), #576 ) ;
#976 = ORIENTED_EDGE ( 'NONE', *, *, #167, .F. ) ;
#977 = LINE ( 'NONE', #584, #896 ) ;
#978 =( LENGTH_UNIT ( ) NAMED_UNIT ( * ) SI_UNIT ( .MILLI., .METRE. ) );
#979 = FACE_OUTER_BOUND ( 'NONE', #556, .T. ) ;
#980 = ORIENTED_EDGE ( 'NONE', *, *, #936, .F. ) ;
#981 = CARTESIAN_POINT ( 'NONE',  ( 0.7761516213358508054, -0.5511516213358506056, 1.000000000000000000 ) ) ;
#982 = ADVANCED_FACE ( 'NONE', ( #763 ), #993, .F. ) ;
#983 = DIRECTION ( 'NONE',  ( -1.000000000000000000, -8.031127203596336765E-17, 0.0000000000000000000 ) ) ;
#984 = CARTESIAN_POINT ( 'NONE',  ( -0.9000000000000000222, -0.2000000000000000111, 0.2500000000000000000 ) ) ;
#985 = LINE ( 'NONE', #276, #299 ) ;
#986 = MECHANICAL_DESIGN_GEOMETRIC_PRESENTATION_REPRESENTATION (  '', ( #349 ), #507 ) ;
#987 = DIRECTION ( 'NONE',  ( -8.031127203596330602E-17, 1.000000000000000000, 0.0000000000000000000 ) ) ;
#988 = EDGE_CURVE ( 'NONE', #641, #233, #693, .T. ) ;
#989 = LINE ( 'NONE', #49, #206 ) ;
#990 = ORIENTED_EDGE ( 'NONE', *, *, #8, .F. ) ;
#991 = CARTESIAN_POINT ( 'NONE',  ( 0.8230645606064250774, -0.5980645606064249886, 0.9819918098362255821 ) ) ;
#992 =( NAMED_UNIT ( * ) SI_UNIT ( $, .STERADIAN. ) SOLID_ANGLE_UNIT ( ) );
#993 = PLANE ( 'NONE',  #238 ) ;
#994 = DIRECTION ( 'NONE',  ( -1.000000000000000000, 0.0000000000000000000, 0.0000000000000000000 ) ) ;
#995 = CARTESIAN_POINT ( 'NONE',  ( -0.7499999999999998890, -0.4387499999999999734, 0.9990000000000001101 ) ) ;
#996 = DIRECTION ( 'NONE',  ( 1.000000000000000000, 0.0000000000000000000, 0.0000000000000000000 ) ) ;
#997 = EDGE_CURVE ( 'NONE', #809, #628, #538, .T. ) ;
#998 =( NAMED_UNIT ( * ) SI_UNIT ( $, .STERADIAN. ) SOLID_ANGLE_UNIT ( ) );
#999 = DIRECTION ( 'NONE',  ( 1.606225440719265874E-16, -1.000000000000000000, 0.0000000000000000000 ) ) ;
#1000 = PRESENTATION_LAYER_ASSIGNMENT (  '', '', ( #21 ) ) ;
#1001 = AXIS2_PLACEMENT_3D ( 'NONE', #845, #123, #347 ) ;
#1002 = COLOUR_RGB ( '',0.7686274509803920907, 0.7686274509803920907, 0.7686274509803920907 ) ;
#1003 = AXIS2_PLACEMENT_3D ( 'NONE', #566, #342, #579 ) ;
#1004 = FACE_OUTER_BOUND ( 'NONE', #182, .T. ) ;
#1005 = CARTESIAN_POINT ( 'NONE',  ( 0.0000000000000000000, 0.5511516213358506056, 0.9499999999999999556 ) ) ;
#1006 = EDGE_LOOP ( 'NONE', ( #701, #380, #736, #142 ) ) ;
#1007 =( NAMED_UNIT ( * ) PLANE_ANGLE_UNIT ( ) SI_UNIT ( $, .RADIAN. ) );
#1008 = FILL_AREA_STYLE ('',( #47 ) ) ;
#1009 = ADVANCED_FACE ( 'NONE', ( #45 ), #56, .F. ) ;
#1010 = CARTESIAN_POINT ( 'NONE',  ( -0.7499999999999998890, -0.4387499999999999734, 0.9990000000000001101 ) ) ;
#1011 = EDGE_LOOP ( 'NONE', ( #162, #374, #310, #139, #76, #754 ) ) ;
#1012 = PRESENTATION_STYLE_ASSIGNMENT (( #469 ) ) ;
#1013 = DIRECTION ( 'NONE',  ( -0.0000000000000000000, -0.0000000000000000000, -1.000000000000000000 ) ) ;
#1014 = PRESENTATION_LAYER_ASSIGNMENT (  '', '', ( #468 ) ) ;
#1015 =( GEOMETRIC_REPRESENTATION_CONTEXT ( 3 ) GLOBAL_UNCERTAINTY_ASSIGNED_CONTEXT ( ( #467 ) ) GLOBAL_UNIT_ASSIGNED_CONTEXT ( ( #33, #892, #735 ) ) REPRESENTATION_CONTEXT ( 'NONE', 'WORKASPACE' ) );
#1016 = ORIENTED_EDGE ( 'NONE', *, *, #930, .T. ) ;
#1017 = ORIENTED_EDGE ( 'NONE', *, *, #732, .T. ) ;
#1018 = CARTESIAN_POINT ( 'NONE',  ( -0.8030644392411133703, 0.5780644392411136145, 1.000000000000000000 ) ) ;
#1019 = DIRECTION ( 'NONE',  ( -1.000000000000000000, 0.0000000000000000000, 0.0000000000000000000 ) ) ;
#1020 = VECTOR ( 'NONE', #106, 1000.000000000000000 ) ;
#1021 = DIRECTION ( 'NONE',  ( 1.235558031322512305E-16, -1.000000000000000000, 0.0000000000000000000 ) ) ;
#1022 = EDGE_LOOP ( 'NONE', ( #401, #550, #797, #245 ) ) ;
#1023 = SURFACE_SIDE_STYLE ('',( #639 ) ) ;
#1024 = EDGE_LOOP ( 'NONE', ( #872, #390, #720, #88 ) ) ;
#1025 = VERTEX_POINT ( 'NONE', #362 ) ;
#1026 = LINE ( 'NONE', #867, #973 ) ;
#1027 = CARTESIAN_POINT ( 'NONE',  ( -0.7761516213358504723, 0.5511516213358506056, 1.000000000000000000 ) ) ;
#1028 = PRESENTATION_STYLE_ASSIGNMENT (( #309 ) ) ;
#1029 = VERTEX_POINT ( 'NONE', #775 ) ;
ENDSEC;
END-ISO-10303-21;
