(module ORH-0603 (layer F.Cu) (tedit 5F32EDB5)
  (fp_text reference REF** (at -0.925 0 90) (layer F.SilkS)
    (effects (font (size 0.6 0.6) (thickness 0.15)))
  )
  (fp_text value ORH-0603 (at 0.75 0 90) (layer F.Fab)
    (effects (font (size 0.25 0.25) (thickness 0.045)))
  )
  (fp_line (start -0.4 -0.8) (end -0.1 -0.8) (layer F.Fab) (width 0.01))
  (fp_line (start 0.4 -0.8) (end 0.4 0.8) (layer F.Fab) (width 0.01))
  (fp_line (start -0.1 0.8) (end -0.4 0.8) (layer F.Fab) (width 0.01))
  (fp_line (start -0.4 0.8) (end -0.4 -0.8) (layer F.Fab) (width 0.01))
  (fp_arc (start 0 -0.8) (end -0.1 -0.8) (angle -180) (layer F.Fab) (width 0.01))
  (fp_arc (start 0 0.8) (end 0.1 0.8) (angle -180) (layer F.Fab) (width 0.01))
  (fp_line (start 0.4 0.8) (end 0.1 0.8) (layer F.Fab) (width 0.01))
  (fp_line (start 0.1 -0.8) (end 0.4 -0.8) (layer F.Fab) (width 0.01))
  (fp_line (start -0.35 -0.425) (end 0.35 -0.425) (layer F.Fab) (width 0.01))
  (fp_line (start 0.35 -0.425) (end 0.35 0.425) (layer F.Fab) (width 0.01))
  (fp_line (start 0.35 0.425) (end -0.35 0.425) (layer F.Fab) (width 0.01))
  (fp_line (start -0.35 0.425) (end -0.35 -0.425) (layer F.Fab) (width 0.01))
  (fp_poly (pts (xy 0.3 0.25) (xy -0.3 0.25) (xy 0 -0.25)) (layer F.SilkS) (width 0.01))
  (fp_line (start -0.5 -1.05) (end 0.5 -1.05) (layer F.CrtYd) (width 0.01))
  (fp_line (start 0.5 -1.05) (end 0.5 1.05) (layer F.CrtYd) (width 0.01))
  (fp_line (start 0.5 1.05) (end -0.5 1.05) (layer F.CrtYd) (width 0.01))
  (fp_line (start -0.5 1.05) (end -0.5 -1.05) (layer F.CrtYd) (width 0.01))
  (pad 1 smd roundrect (at 0 -0.7) (size 0.85 0.55) (layers F.Cu F.Paste F.Mask) (roundrect_rratio 0.1)
    (solder_mask_margin 0.05) (solder_paste_margin -0.05))
  (pad 2 smd roundrect (at 0 0.7) (size 0.85 0.55) (layers F.Cu F.Paste F.Mask) (roundrect_rratio 0.1)
    (solder_mask_margin 0.05) (solder_paste_margin -0.05))
  (model ${MY3DMOD}/ORH-0603.STEP
    (at (xyz 0 0 0))
    (scale (xyz 1 1 1))
    (rotate (xyz 0 0 0))
  )
)
