(module WS2812B (layer F.Cu) (tedit 5B6ADDE8)
  (fp_text reference REF** (at 0 0) (layer F.SilkS)
    (effects (font (size 0.7 0.7) (thickness 0.15)))
  )
  (fp_text value WS2812B (at 0 0.75) (layer F.Fab)
    (effects (font (size 0.4 0.4) (thickness 0.075)))
  )
  (fp_line (start -3.95 -2.7) (end 3.95 -2.7) (layer F.CrtYd) (width 0.1))
  (fp_line (start 3.95 -2.7) (end 3.95 2.7) (layer F.CrtYd) (width 0.1))
  (fp_line (start 3.95 2.7) (end -3.95 2.7) (layer F.CrtYd) (width 0.1))
  (fp_line (start -3.95 2.7) (end -3.95 -2.7) (layer F.CrtYd) (width 0.1))
  (fp_line (start 1.5 2.5) (end 2.5 1.5) (layer F.Fab) (width 0.05))
  (fp_line (start 1.5 1.425) (end 0.25 2.675) (layer F.SilkS) (width 0.15))
  (fp_line (start 2.675 0.25) (end 2.125 0.8) (layer F.SilkS) (width 0.15))
  (fp_line (start 2.675 -0.8) (end 2.675 0.8) (layer F.SilkS) (width 0.15))
  (fp_line (start -2.675 -0.8) (end -2.675 0.8) (layer F.SilkS) (width 0.15))
  (fp_line (start 2.675 2.675) (end -2.675 2.675) (layer F.SilkS) (width 0.15))
  (fp_line (start 2.675 2.675) (end 2.675 2.5) (layer F.SilkS) (width 0.15))
  (fp_line (start -2.675 2.675) (end -2.675 2.5) (layer F.SilkS) (width 0.15))
  (fp_line (start 2.675 -2.675) (end -2.675 -2.675) (layer F.SilkS) (width 0.15))
  (fp_line (start 2.675 -2.675) (end 2.675 -2.5) (layer F.SilkS) (width 0.15))
  (fp_line (start -2.675 -2.675) (end -2.675 -2.5) (layer F.SilkS) (width 0.15))
  (fp_circle (center 0 0) (end 0 -2) (layer F.Fab) (width 0.05))
  (fp_line (start -2.5 -2.5) (end 2.5 -2.5) (layer F.Fab) (width 0.05))
  (fp_line (start 2.5 -2.5) (end 2.5 2.5) (layer F.Fab) (width 0.05))
  (fp_line (start 2.5 2.5) (end -2.5 2.5) (layer F.Fab) (width 0.05))
  (fp_line (start -2.5 2.5) (end -2.5 -2.5) (layer F.Fab) (width 0.05))
  (pad 1 smd rect (at -2.8 -1.65) (size 2.2 1.3) (layers F.Cu F.Paste F.Mask))
  (pad 2 smd rect (at -2.8 1.65) (size 2.2 1.3) (layers F.Cu F.Paste F.Mask))
  (pad 4 smd rect (at 2.8 -1.65) (size 2.2 1.3) (layers F.Cu F.Paste F.Mask))
  (pad 3 smd rect (at 2.8 1.65) (size 2.2 1.3) (layers F.Cu F.Paste F.Mask))
)
