(module SMD-8x1-2.54mm (layer F.Cu) (tedit 5922B771)
  (tags header)
  (fp_text reference REF (at 0 -3.6195) (layer F.SilkS)
    (effects (font (size 0.8 0.8) (thickness 0.15)))
  )
  (fp_text value VAL (at 0 3.556) (layer F.Fab)
    (effects (font (size 0.7 0.7) (thickness 0.1)))
  )
  (fp_line (start 2.159 -1.3335) (end 2.54 -0.9525) (layer F.SilkS) (width 0.15))
  (fp_line (start 2.54 0.9525) (end 2.159 1.3335) (layer F.SilkS) (width 0.15))
  (fp_line (start 2.2225 1.524) (end 2.54 1.2065) (layer F.CrtYd) (width 0.1))
  (fp_line (start 2.2225 -1.524) (end 2.54 -1.2065) (layer F.CrtYd) (width 0.1))
  (fp_line (start 2.159 -1.3335) (end 2.032 -1.3335) (layer F.SilkS) (width 0.15))
  (fp_line (start 0.381 -1.3335) (end 0.508 -1.3335) (layer F.SilkS) (width 0.15))
  (fp_line (start 0 -0.9525) (end 0.381 -1.3335) (layer F.SilkS) (width 0.15))
  (fp_line (start 0 0.9525) (end 0.381 1.3335) (layer F.SilkS) (width 0.15))
  (fp_line (start 0.3175 1.524) (end 0 1.2065) (layer F.CrtYd) (width 0.1))
  (fp_line (start 0.3175 -1.524) (end 0 -1.2065) (layer F.CrtYd) (width 0.1))
  (fp_line (start 0.0635 -0.8255) (end 0.0635 0.8255) (layer F.Fab) (width 0.05))
  (fp_line (start 0.4445 1.2065) (end 0.0635 0.8255) (layer F.Fab) (width 0.05))
  (fp_line (start 0.4445 1.2065) (end 2.0955 1.2065) (layer F.Fab) (width 0.05))
  (fp_line (start 2.4765 0.8255) (end 2.0955 1.2065) (layer F.Fab) (width 0.05))
  (fp_line (start 2.4765 0.8255) (end 2.4765 -0.8255) (layer F.Fab) (width 0.05))
  (fp_line (start 2.4765 -0.8255) (end 2.0955 -1.2065) (layer F.Fab) (width 0.05))
  (fp_line (start 2.0955 -1.2065) (end 0.4445 -1.2065) (layer F.Fab) (width 0.05))
  (fp_line (start 0.4445 -1.2065) (end 0.0635 -0.8255) (layer F.Fab) (width 0.05))
  (fp_line (start 2.159 1.3335) (end 0.381 1.3335) (layer F.SilkS) (width 0.15))
  (fp_line (start 0.3175 1.524) (end 2.2225 1.524) (layer F.CrtYd) (width 0.1))
  (fp_line (start 0.508 -1.524) (end 0.508 -2.8575) (layer F.CrtYd) (width 0.1))
  (fp_line (start 0.3175 -1.524) (end 0.508 -1.524) (layer F.CrtYd) (width 0.1))
  (fp_line (start 2.032 -1.524) (end 2.2225 -1.524) (layer F.CrtYd) (width 0.1))
  (fp_line (start 2.032 -2.8575) (end 2.032 -1.524) (layer F.CrtYd) (width 0.1))
  (fp_line (start 0.508 -2.8575) (end 2.032 -2.8575) (layer F.CrtYd) (width 0.1))
  (fp_line (start 2.921 1.3335) (end 3.048 1.3335) (layer F.SilkS) (width 0.15))
  (fp_line (start 4.699 1.3335) (end 4.572 1.3335) (layer F.SilkS) (width 0.15))
  (fp_line (start 4.699 -1.3335) (end 5.08 -0.9525) (layer F.SilkS) (width 0.15))
  (fp_line (start 4.699 1.3335) (end 5.08 0.9525) (layer F.SilkS) (width 0.15))
  (fp_line (start 4.7625 1.524) (end 5.08 1.2065) (layer F.CrtYd) (width 0.1))
  (fp_line (start 4.7625 -1.524) (end 5.08 -1.2065) (layer F.CrtYd) (width 0.1))
  (fp_line (start 3.048 1.524) (end 2.8575 1.524) (layer F.CrtYd) (width 0.1))
  (fp_line (start 4.572 1.524) (end 4.7625 1.524) (layer F.CrtYd) (width 0.1))
  (fp_line (start 3.048 1.524) (end 3.048 2.8575) (layer F.CrtYd) (width 0.1))
  (fp_line (start 3.048 2.8575) (end 4.572 2.8575) (layer F.CrtYd) (width 0.1))
  (fp_line (start 4.572 2.8575) (end 4.572 1.524) (layer F.CrtYd) (width 0.1))
  (fp_line (start 2.54 1.2065) (end 2.8575 1.524) (layer F.CrtYd) (width 0.1))
  (fp_line (start 4.7625 -1.524) (end 2.8575 -1.524) (layer F.CrtYd) (width 0.1))
  (fp_line (start 2.54 -1.2065) (end 2.8575 -1.524) (layer F.CrtYd) (width 0.1))
  (fp_line (start 2.921 -1.3335) (end 4.699 -1.3335) (layer F.SilkS) (width 0.15))
  (fp_line (start 2.54 -0.9525) (end 2.921 -1.3335) (layer F.SilkS) (width 0.15))
  (fp_line (start 2.54 0.9525) (end 2.921 1.3335) (layer F.SilkS) (width 0.15))
  (fp_line (start 2.6035 -0.8255) (end 2.6035 0.8255) (layer F.Fab) (width 0.05))
  (fp_line (start 2.9845 1.2065) (end 2.6035 0.8255) (layer F.Fab) (width 0.05))
  (fp_line (start 2.9845 1.2065) (end 4.6355 1.2065) (layer F.Fab) (width 0.05))
  (fp_line (start 5.0165 0.8255) (end 4.6355 1.2065) (layer F.Fab) (width 0.05))
  (fp_line (start 5.0165 0.8255) (end 5.0165 -0.8255) (layer F.Fab) (width 0.05))
  (fp_line (start 5.0165 -0.8255) (end 4.6355 -1.2065) (layer F.Fab) (width 0.05))
  (fp_line (start 4.6355 -1.2065) (end 2.9845 -1.2065) (layer F.Fab) (width 0.05))
  (fp_line (start 2.9845 -1.2065) (end 2.6035 -0.8255) (layer F.Fab) (width 0.05))
  (fp_line (start -2.0955 -1.2065) (end -2.4765 -0.8255) (layer F.Fab) (width 0.05))
  (fp_line (start -0.4445 -1.2065) (end -2.0955 -1.2065) (layer F.Fab) (width 0.05))
  (fp_line (start -0.0635 -0.8255) (end -0.4445 -1.2065) (layer F.Fab) (width 0.05))
  (fp_line (start -0.0635 0.8255) (end -0.0635 -0.8255) (layer F.Fab) (width 0.05))
  (fp_line (start -0.0635 0.8255) (end -0.4445 1.2065) (layer F.Fab) (width 0.05))
  (fp_line (start -2.0955 1.2065) (end -0.4445 1.2065) (layer F.Fab) (width 0.05))
  (fp_line (start -2.0955 1.2065) (end -2.4765 0.8255) (layer F.Fab) (width 0.05))
  (fp_line (start -2.4765 -0.8255) (end -2.4765 0.8255) (layer F.Fab) (width 0.05))
  (fp_line (start -2.54 0.9525) (end -2.159 1.3335) (layer F.SilkS) (width 0.15))
  (fp_line (start -2.54 -0.9525) (end -2.159 -1.3335) (layer F.SilkS) (width 0.15))
  (fp_line (start -2.159 -1.3335) (end -0.381 -1.3335) (layer F.SilkS) (width 0.15))
  (fp_line (start -2.54 -1.2065) (end -2.2225 -1.524) (layer F.CrtYd) (width 0.1))
  (fp_line (start -0.3175 -1.524) (end -2.2225 -1.524) (layer F.CrtYd) (width 0.1))
  (fp_line (start -2.54 1.2065) (end -2.2225 1.524) (layer F.CrtYd) (width 0.1))
  (fp_line (start -0.508 2.8575) (end -0.508 1.524) (layer F.CrtYd) (width 0.1))
  (fp_line (start -2.032 2.8575) (end -0.508 2.8575) (layer F.CrtYd) (width 0.1))
  (fp_line (start -2.032 1.524) (end -2.032 2.8575) (layer F.CrtYd) (width 0.1))
  (fp_line (start -0.508 1.524) (end -0.3175 1.524) (layer F.CrtYd) (width 0.1))
  (fp_line (start -2.032 1.524) (end -2.2225 1.524) (layer F.CrtYd) (width 0.1))
  (fp_line (start -0.3175 -1.524) (end 0 -1.2065) (layer F.CrtYd) (width 0.1))
  (fp_line (start -0.3175 1.524) (end 0 1.2065) (layer F.CrtYd) (width 0.1))
  (fp_line (start -0.381 1.3335) (end 0 0.9525) (layer F.SilkS) (width 0.15))
  (fp_line (start -0.381 -1.3335) (end 0 -0.9525) (layer F.SilkS) (width 0.15))
  (fp_line (start -0.381 1.3335) (end -0.508 1.3335) (layer F.SilkS) (width 0.15))
  (fp_line (start -2.159 1.3335) (end -2.032 1.3335) (layer F.SilkS) (width 0.15))
  (fp_line (start -4.572 -2.8575) (end -3.048 -2.8575) (layer F.CrtYd) (width 0.1))
  (fp_line (start -3.048 -2.8575) (end -3.048 -1.524) (layer F.CrtYd) (width 0.1))
  (fp_line (start -3.048 -1.524) (end -2.8575 -1.524) (layer F.CrtYd) (width 0.1))
  (fp_line (start -4.7625 -1.524) (end -4.572 -1.524) (layer F.CrtYd) (width 0.1))
  (fp_line (start -4.572 -1.524) (end -4.572 -2.8575) (layer F.CrtYd) (width 0.1))
  (fp_line (start -4.7625 1.524) (end -2.8575 1.524) (layer F.CrtYd) (width 0.1))
  (fp_line (start -2.921 1.3335) (end -4.699 1.3335) (layer F.SilkS) (width 0.15))
  (fp_line (start -4.6355 -1.2065) (end -5.0165 -0.8255) (layer F.Fab) (width 0.05))
  (fp_line (start -2.9845 -1.2065) (end -4.6355 -1.2065) (layer F.Fab) (width 0.05))
  (fp_line (start -2.6035 -0.8255) (end -2.9845 -1.2065) (layer F.Fab) (width 0.05))
  (fp_line (start -2.6035 0.8255) (end -2.6035 -0.8255) (layer F.Fab) (width 0.05))
  (fp_line (start -2.6035 0.8255) (end -2.9845 1.2065) (layer F.Fab) (width 0.05))
  (fp_line (start -4.6355 1.2065) (end -2.9845 1.2065) (layer F.Fab) (width 0.05))
  (fp_line (start -4.6355 1.2065) (end -5.0165 0.8255) (layer F.Fab) (width 0.05))
  (fp_line (start -5.0165 -0.8255) (end -5.0165 0.8255) (layer F.Fab) (width 0.05))
  (fp_line (start -4.7625 -1.524) (end -5.08 -1.2065) (layer F.CrtYd) (width 0.1))
  (fp_line (start -4.7625 1.524) (end -5.08 1.2065) (layer F.CrtYd) (width 0.1))
  (fp_line (start -5.08 0.9525) (end -4.699 1.3335) (layer F.SilkS) (width 0.15))
  (fp_line (start -5.08 -0.9525) (end -4.699 -1.3335) (layer F.SilkS) (width 0.15))
  (fp_line (start -4.699 -1.3335) (end -4.572 -1.3335) (layer F.SilkS) (width 0.15))
  (fp_line (start -2.921 -1.3335) (end -3.048 -1.3335) (layer F.SilkS) (width 0.15))
  (fp_line (start -2.8575 -1.524) (end -2.54 -1.2065) (layer F.CrtYd) (width 0.1))
  (fp_line (start -2.8575 1.524) (end -2.54 1.2065) (layer F.CrtYd) (width 0.1))
  (fp_line (start -2.54 0.9525) (end -2.921 1.3335) (layer F.SilkS) (width 0.15))
  (fp_line (start -2.921 -1.3335) (end -2.54 -0.9525) (layer F.SilkS) (width 0.15))
  (fp_line (start 7.239 -1.3335) (end 7.62 -0.9525) (layer F.SilkS) (width 0.15))
  (fp_line (start 7.62 0.9525) (end 7.239 1.3335) (layer F.SilkS) (width 0.15))
  (fp_line (start 7.3025 1.524) (end 7.62 1.2065) (layer F.CrtYd) (width 0.1))
  (fp_line (start 7.3025 -1.524) (end 7.62 -1.2065) (layer F.CrtYd) (width 0.1))
  (fp_line (start 9.8425 -1.524) (end 10.414 -0.9525) (layer F.CrtYd) (width 0.1))
  (fp_line (start 9.8425 1.524) (end 10.414 0.9525) (layer F.CrtYd) (width 0.1))
  (fp_line (start 10.414 -0.9525) (end 10.414 0.9525) (layer F.CrtYd) (width 0.1))
  (fp_line (start 10.2235 0.889) (end 9.779 1.3335) (layer F.SilkS) (width 0.15))
  (fp_line (start 9.779 -1.3335) (end 10.2235 -0.889) (layer F.SilkS) (width 0.15))
  (fp_line (start 10.2235 -0.889) (end 10.2235 0.889) (layer F.SilkS) (width 0.15))
  (fp_line (start 8.0645 -1.2065) (end 7.6835 -0.8255) (layer F.Fab) (width 0.05))
  (fp_line (start 9.7155 -1.2065) (end 8.0645 -1.2065) (layer F.Fab) (width 0.05))
  (fp_line (start 10.0965 -0.8255) (end 9.7155 -1.2065) (layer F.Fab) (width 0.05))
  (fp_line (start 10.0965 0.8255) (end 10.0965 -0.8255) (layer F.Fab) (width 0.05))
  (fp_line (start 10.0965 0.8255) (end 9.7155 1.2065) (layer F.Fab) (width 0.05))
  (fp_line (start 8.0645 1.2065) (end 9.7155 1.2065) (layer F.Fab) (width 0.05))
  (fp_line (start 8.0645 1.2065) (end 7.6835 0.8255) (layer F.Fab) (width 0.05))
  (fp_line (start 7.6835 -0.8255) (end 7.6835 0.8255) (layer F.Fab) (width 0.05))
  (fp_line (start 7.62 0.9525) (end 8.001 1.3335) (layer F.SilkS) (width 0.15))
  (fp_line (start 7.62 -0.9525) (end 8.001 -1.3335) (layer F.SilkS) (width 0.15))
  (fp_line (start 8.001 -1.3335) (end 9.779 -1.3335) (layer F.SilkS) (width 0.15))
  (fp_line (start 7.62 -1.2065) (end 7.9375 -1.524) (layer F.CrtYd) (width 0.1))
  (fp_line (start 9.8425 -1.524) (end 7.9375 -1.524) (layer F.CrtYd) (width 0.1))
  (fp_line (start 7.62 1.2065) (end 7.9375 1.524) (layer F.CrtYd) (width 0.1))
  (fp_line (start 9.652 2.8575) (end 9.652 1.524) (layer F.CrtYd) (width 0.1))
  (fp_line (start 8.128 2.8575) (end 9.652 2.8575) (layer F.CrtYd) (width 0.1))
  (fp_line (start 8.128 1.524) (end 8.128 2.8575) (layer F.CrtYd) (width 0.1))
  (fp_line (start 9.652 1.524) (end 9.8425 1.524) (layer F.CrtYd) (width 0.1))
  (fp_line (start 8.128 1.524) (end 7.9375 1.524) (layer F.CrtYd) (width 0.1))
  (fp_line (start 9.779 1.3335) (end 9.652 1.3335) (layer F.SilkS) (width 0.15))
  (fp_line (start 8.001 1.3335) (end 8.128 1.3335) (layer F.SilkS) (width 0.15))
  (fp_line (start 7.239 -1.3335) (end 7.112 -1.3335) (layer F.SilkS) (width 0.15))
  (fp_line (start 5.461 -1.3335) (end 5.588 -1.3335) (layer F.SilkS) (width 0.15))
  (fp_line (start -7.239 1.3335) (end -7.112 1.3335) (layer F.SilkS) (width 0.15))
  (fp_line (start -5.461 1.3335) (end -5.588 1.3335) (layer F.SilkS) (width 0.15))
  (fp_line (start -8.001 -1.3335) (end -8.128 -1.3335) (layer F.SilkS) (width 0.15))
  (fp_line (start -9.779 -1.3335) (end -9.652 -1.3335) (layer F.SilkS) (width 0.15))
  (fp_line (start -5.461 -1.3335) (end -5.08 -0.9525) (layer F.SilkS) (width 0.15))
  (fp_line (start 5.08 -0.9525) (end 5.461 -1.3335) (layer F.SilkS) (width 0.15))
  (fp_line (start -5.461 1.3335) (end -5.08 0.9525) (layer F.SilkS) (width 0.15))
  (fp_line (start 5.08 0.9525) (end 5.461 1.3335) (layer F.SilkS) (width 0.15))
  (fp_line (start 5.3975 1.524) (end 5.08 1.2065) (layer F.CrtYd) (width 0.1))
  (fp_line (start -5.3975 1.524) (end -5.08 1.2065) (layer F.CrtYd) (width 0.1))
  (fp_line (start 5.3975 -1.524) (end 5.08 -1.2065) (layer F.CrtYd) (width 0.1))
  (fp_line (start -5.3975 -1.524) (end -5.08 -1.2065) (layer F.CrtYd) (width 0.1))
  (fp_line (start 5.1435 -0.8255) (end 5.1435 0.8255) (layer F.Fab) (width 0.05))
  (fp_line (start 5.5245 1.2065) (end 5.1435 0.8255) (layer F.Fab) (width 0.05))
  (fp_line (start 5.5245 1.2065) (end 7.1755 1.2065) (layer F.Fab) (width 0.05))
  (fp_line (start 7.5565 0.8255) (end 7.1755 1.2065) (layer F.Fab) (width 0.05))
  (fp_line (start 7.5565 0.8255) (end 7.5565 -0.8255) (layer F.Fab) (width 0.05))
  (fp_line (start 7.5565 -0.8255) (end 7.1755 -1.2065) (layer F.Fab) (width 0.05))
  (fp_line (start 7.1755 -1.2065) (end 5.5245 -1.2065) (layer F.Fab) (width 0.05))
  (fp_line (start 5.5245 -1.2065) (end 5.1435 -0.8255) (layer F.Fab) (width 0.05))
  (fp_line (start 7.239 1.3335) (end 5.461 1.3335) (layer F.SilkS) (width 0.15))
  (fp_line (start 5.3975 1.524) (end 7.3025 1.524) (layer F.CrtYd) (width 0.1))
  (fp_line (start 5.588 -1.524) (end 5.588 -2.8575) (layer F.CrtYd) (width 0.1))
  (fp_line (start 5.3975 -1.524) (end 5.588 -1.524) (layer F.CrtYd) (width 0.1))
  (fp_line (start 7.112 -1.524) (end 7.3025 -1.524) (layer F.CrtYd) (width 0.1))
  (fp_line (start 7.112 -2.8575) (end 7.112 -1.524) (layer F.CrtYd) (width 0.1))
  (fp_line (start 5.588 -2.8575) (end 7.112 -2.8575) (layer F.CrtYd) (width 0.1))
  (fp_line (start -7.112 1.524) (end -7.3025 1.524) (layer F.CrtYd) (width 0.1))
  (fp_line (start -5.588 1.524) (end -5.3975 1.524) (layer F.CrtYd) (width 0.1))
  (fp_line (start -7.112 1.524) (end -7.112 2.8575) (layer F.CrtYd) (width 0.1))
  (fp_line (start -7.112 2.8575) (end -5.588 2.8575) (layer F.CrtYd) (width 0.1))
  (fp_line (start -5.588 2.8575) (end -5.588 1.524) (layer F.CrtYd) (width 0.1))
  (fp_line (start -9.652 -2.8575) (end -8.128 -2.8575) (layer F.CrtYd) (width 0.1))
  (fp_line (start -8.128 -2.8575) (end -8.128 -1.524) (layer F.CrtYd) (width 0.1))
  (fp_line (start -8.128 -1.524) (end -7.9375 -1.524) (layer F.CrtYd) (width 0.1))
  (fp_line (start -9.8425 -1.524) (end -9.652 -1.524) (layer F.CrtYd) (width 0.1))
  (fp_line (start -9.652 -1.524) (end -9.652 -2.8575) (layer F.CrtYd) (width 0.1))
  (fp_line (start -7.62 1.2065) (end -7.3025 1.524) (layer F.CrtYd) (width 0.1))
  (fp_line (start -5.3975 -1.524) (end -7.3025 -1.524) (layer F.CrtYd) (width 0.1))
  (fp_line (start -7.62 -1.2065) (end -7.3025 -1.524) (layer F.CrtYd) (width 0.1))
  (fp_line (start -9.8425 -1.524) (end -10.414 -0.9525) (layer F.CrtYd) (width 0.1))
  (fp_line (start -10.414 -0.9525) (end -10.414 0.9525) (layer F.CrtYd) (width 0.1))
  (fp_line (start -10.414 0.9525) (end -9.8425 1.524) (layer F.CrtYd) (width 0.1))
  (fp_line (start -9.8425 1.524) (end -7.9375 1.524) (layer F.CrtYd) (width 0.1))
  (fp_line (start -7.9375 1.524) (end -7.62 1.2065) (layer F.CrtYd) (width 0.1))
  (fp_line (start -7.62 -1.2065) (end -7.9375 -1.524) (layer F.CrtYd) (width 0.1))
  (fp_line (start -7.239 -1.3335) (end -5.461 -1.3335) (layer F.SilkS) (width 0.15))
  (fp_line (start -7.62 -0.9525) (end -7.239 -1.3335) (layer F.SilkS) (width 0.15))
  (fp_line (start -7.62 0.9525) (end -7.239 1.3335) (layer F.SilkS) (width 0.15))
  (fp_line (start -8.001 -1.3335) (end -7.62 -0.9525) (layer F.SilkS) (width 0.15))
  (fp_line (start -10.2235 -0.889) (end -9.779 -1.3335) (layer F.SilkS) (width 0.15))
  (fp_line (start -10.2235 0.889) (end -10.2235 -0.889) (layer F.SilkS) (width 0.15))
  (fp_line (start -9.779 1.3335) (end -10.2235 0.889) (layer F.SilkS) (width 0.15))
  (fp_line (start -8.001 1.3335) (end -9.779 1.3335) (layer F.SilkS) (width 0.15))
  (fp_line (start -7.62 0.9525) (end -8.001 1.3335) (layer F.SilkS) (width 0.15))
  (fp_line (start -7.5565 -0.8255) (end -7.5565 0.8255) (layer F.Fab) (width 0.05))
  (fp_line (start -7.1755 1.2065) (end -7.5565 0.8255) (layer F.Fab) (width 0.05))
  (fp_line (start -7.1755 1.2065) (end -5.5245 1.2065) (layer F.Fab) (width 0.05))
  (fp_line (start -5.1435 0.8255) (end -5.5245 1.2065) (layer F.Fab) (width 0.05))
  (fp_line (start -5.1435 0.8255) (end -5.1435 -0.8255) (layer F.Fab) (width 0.05))
  (fp_line (start -5.1435 -0.8255) (end -5.5245 -1.2065) (layer F.Fab) (width 0.05))
  (fp_line (start -5.5245 -1.2065) (end -7.1755 -1.2065) (layer F.Fab) (width 0.05))
  (fp_line (start -7.1755 -1.2065) (end -7.5565 -0.8255) (layer F.Fab) (width 0.05))
  (fp_line (start -9.7155 -1.2065) (end -10.0965 -0.8255) (layer F.Fab) (width 0.05))
  (fp_line (start -8.0645 -1.2065) (end -9.7155 -1.2065) (layer F.Fab) (width 0.05))
  (fp_line (start -7.6835 -0.8255) (end -8.0645 -1.2065) (layer F.Fab) (width 0.05))
  (fp_line (start -7.6835 0.8255) (end -7.6835 -0.8255) (layer F.Fab) (width 0.05))
  (fp_line (start -7.6835 0.8255) (end -8.0645 1.2065) (layer F.Fab) (width 0.05))
  (fp_line (start -9.7155 1.2065) (end -8.0645 1.2065) (layer F.Fab) (width 0.05))
  (fp_line (start -9.7155 1.2065) (end -10.0965 0.8255) (layer F.Fab) (width 0.05))
  (fp_line (start -10.0965 -0.8255) (end -10.0965 0.8255) (layer F.Fab) (width 0.05))
  (pad 5 smd rect (at 1.27 -1.65) (size 1.27 2.2) (layers F.Cu F.Paste F.Mask))
  (pad 6 smd rect (at 3.81 1.65) (size 1.27 2.2) (layers F.Cu F.Paste F.Mask))
  (pad 4 smd rect (at -1.27 1.65) (size 1.27 2.2) (layers F.Cu F.Paste F.Mask))
  (pad 3 smd rect (at -3.81 -1.65) (size 1.27 2.2) (layers F.Cu F.Paste F.Mask))
  (pad 8 smd rect (at 8.89 1.65) (size 1.27 2.2) (layers F.Cu F.Paste F.Mask))
  (pad 7 smd rect (at 6.35 -1.65) (size 1.27 2.2) (layers F.Cu F.Paste F.Mask))
  (pad 1 smd rect (at -8.89 -1.65) (size 1.27 2.2) (layers F.Cu F.Paste F.Mask))
  (pad 2 smd rect (at -6.35 1.65) (size 1.27 2.2) (layers F.Cu F.Paste F.Mask))
)
