(module THM-2x2-2.54mm (layer F.Cu) (tedit 5F58CE70)
  (tags "dupont header")
  (autoplace_cost90 10)
  (autoplace_cost180 10)
  (solder_mask_margin 0.05)
  (clearance 0.27)
  (fp_text reference X** (at 1.27 -4.54) (layer F.SilkS)
    (effects (font (size 0.6 0.6) (thickness 0.15)))
  )
  (fp_text value THM-2x2-2.54mm (at 1.27 2) (layer F.Fab)
    (effects (font (size 0.3 0.3) (thickness 0.05)))
  )
  (fp_line (start 1.27 0.762) (end 0.762 1.27) (layer F.Fab) (width 0.01))
  (fp_line (start 3.3782 1.4224) (end -0.8382 1.4224) (layer F.CrtYd) (width 0.01))
  (fp_line (start 3.8862 0.8001) (end 3.3401 1.3462) (layer F.SilkS) (width 0.15))
  (fp_line (start 1.27 -0.762) (end 0.762 -1.27) (layer F.Fab) (width 0.01))
  (fp_line (start 1.778 -1.27) (end 1.27 -0.762) (layer F.Fab) (width 0.01))
  (fp_line (start -1.27 -0.762) (end -1.27 0.762) (layer F.Fab) (width 0.01))
  (fp_line (start 3.81 0.762) (end 3.81 -0.762) (layer F.Fab) (width 0.01))
  (fp_line (start -0.762 1.27) (end -1.27 0.762) (layer F.Fab) (width 0.01))
  (fp_line (start -0.762 1.27) (end 0.762 1.27) (layer F.Fab) (width 0.01))
  (fp_line (start -0.762 -1.27) (end -1.27 -0.762) (layer F.Fab) (width 0.01))
  (fp_line (start 3.3401 1.3462) (end 2.6162 1.3462) (layer F.SilkS) (width 0.15))
  (fp_line (start 3.81 0.762) (end 3.302 1.27) (layer F.Fab) (width 0.01))
  (fp_line (start 1.27 0.762) (end 1.27 -0.762) (layer F.Fab) (width 0.01))
  (fp_line (start 0.762 -1.27) (end -0.762 -1.27) (layer F.Fab) (width 0.01))
  (fp_line (start 3.302 -1.27) (end 1.778 -1.27) (layer F.Fab) (width 0.01))
  (fp_line (start 1.778 1.27) (end 1.27 0.762) (layer F.Fab) (width 0.01))
  (fp_line (start 1.778 1.27) (end 3.302 1.27) (layer F.Fab) (width 0.01))
  (fp_line (start 3.9624 0.8382) (end 3.3782 1.4224) (layer F.CrtYd) (width 0.01))
  (fp_line (start -0.8001 1.3462) (end -1.3462 0.8001) (layer F.SilkS) (width 0.15))
  (fp_line (start -0.8382 1.4224) (end -1.4224 0.8382) (layer F.CrtYd) (width 0.01))
  (fp_line (start 3.81 -0.762) (end 3.302 -1.27) (layer F.Fab) (width 0.01))
  (fp_line (start -0.0762 1.3462) (end -0.8001 1.3462) (layer F.SilkS) (width 0.15))
  (fp_line (start -0.762 -3.81) (end -1.27 -3.302) (layer F.Fab) (width 0.01))
  (fp_line (start -1.3462 -3.3401) (end -0.8001 -3.8862) (layer F.SilkS) (width 0.15))
  (fp_line (start 1.27 -3.302) (end 0.762 -3.81) (layer F.Fab) (width 0.01))
  (fp_line (start 3.302 -3.81) (end 1.778 -3.81) (layer F.Fab) (width 0.01))
  (fp_line (start -1.27 -3.302) (end -1.27 -1.778) (layer F.Fab) (width 0.01))
  (fp_line (start 3.3782 -3.9624) (end -0.8382 -3.9624) (layer F.CrtYd) (width 0.01))
  (fp_line (start 3.3401 -3.8862) (end 3.8862 -3.3401) (layer F.SilkS) (width 0.15))
  (fp_line (start 1.778 -1.27) (end 3.302 -1.27) (layer F.Fab) (width 0.01))
  (fp_line (start 3.81 -1.778) (end 3.302 -1.27) (layer F.Fab) (width 0.01))
  (fp_line (start 3.81 -1.778) (end 3.81 -3.302) (layer F.Fab) (width 0.01))
  (fp_line (start 2.6162 -3.8862) (end 3.3401 -3.8862) (layer F.SilkS) (width 0.15))
  (fp_line (start -1.4224 -3.3782) (end -0.8382 -3.9624) (layer F.CrtYd) (width 0.01))
  (fp_line (start 3.9624 -3.3782) (end 3.9624 0.8382) (layer F.CrtYd) (width 0.01))
  (fp_line (start 1.778 -3.81) (end 1.27 -3.302) (layer F.Fab) (width 0.01))
  (fp_line (start 1.27 -1.778) (end 0.762 -1.27) (layer F.Fab) (width 0.01))
  (fp_line (start 1.27 -1.778) (end 1.27 -3.302) (layer F.Fab) (width 0.01))
  (fp_line (start 3.81 -3.302) (end 3.302 -3.81) (layer F.Fab) (width 0.01))
  (fp_line (start 1.778 -1.27) (end 1.27 -1.778) (layer F.Fab) (width 0.01))
  (fp_line (start 3.3782 -3.9624) (end 3.9624 -3.3782) (layer F.CrtYd) (width 0.01))
  (fp_line (start -0.762 -1.27) (end -1.27 -1.778) (layer F.Fab) (width 0.01))
  (fp_line (start 0.762 -3.81) (end -0.762 -3.81) (layer F.Fab) (width 0.01))
  (fp_line (start -1.4224 0.8382) (end -1.4224 -3.3782) (layer F.CrtYd) (width 0.01))
  (fp_line (start -0.8001 -3.8862) (end -0.0762 -3.8862) (layer F.SilkS) (width 0.15))
  (fp_line (start -1.3462 0.8001) (end -1.3462 0.0762) (layer F.SilkS) (width 0.15))
  (fp_line (start 3.8862 0.0762) (end 3.8862 0.8001) (layer F.SilkS) (width 0.15))
  (fp_line (start 3.8862 -3.3401) (end 3.8862 -2.6162) (layer F.SilkS) (width 0.15))
  (fp_line (start -1.3462 -2.6162) (end -1.3462 -3.3401) (layer F.SilkS) (width 0.15))
  (pad 1 thru_hole roundrect (at 0 0) (size 1.65 1.65) (drill 1) (layers *.Cu *.Mask) (roundrect_rratio 0.1))
  (pad 3 thru_hole oval (at 2.54 0) (size 1.65 1.65) (drill 1) (layers *.Cu *.Mask))
  (pad 4 thru_hole oval (at 2.54 -2.54) (size 1.65 1.65) (drill 1) (layers *.Cu *.Mask))
  (pad 2 thru_hole circle (at 0 -2.54) (size 1.65 1.65) (drill 1) (layers *.Cu *.Mask))
  (model ${MY3DMOD}/Dupont_2.54mm.STEP
    (at (xyz 0 0 0))
    (scale (xyz 1 1 1))
    (rotate (xyz 0 0 0))
  )
  (model ${MY3DMOD}/Dupont_2.54mm.STEP
    (offset (xyz 2.54 0 0))
    (scale (xyz 1 1 1))
    (rotate (xyz 0 0 0))
  )
  (model ${MY3DMOD}/Dupont_2.54mm.STEP
    (offset (xyz 0 2.54 0))
    (scale (xyz 1 1 1))
    (rotate (xyz 0 0 0))
  )
  (model ${MY3DMOD}/Dupont_2.54mm.STEP
    (offset (xyz 2.54 2.54 0))
    (scale (xyz 1 1 1))
    (rotate (xyz 0 0 0))
  )
)
