(module TC33X (layer F.Cu) (tedit 5C12C17D)
  (descr http://www.farnell.com/datasheets/2146212.pdf)
  (tags trimmer)
  (attr smd)
  (fp_text reference REF** (at 0 3.175) (layer F.SilkS)
    (effects (font (size 0.7 0.7) (thickness 0.15)))
  )
  (fp_text value TC33X (at 0 -2.725) (layer F.Fab)
    (effects (font (size 0.4 0.4) (thickness 0.075)))
  )
  (fp_circle (center 0 0) (end 0 -0.25) (layer F.Adhes) (width 0.5))
  (fp_line (start -0.75 -1.75) (end -0.75 -1.9) (layer F.Fab) (width 0.05))
  (fp_line (start -0.75 -1.9) (end -0.225 -1.9) (layer F.Fab) (width 0.05))
  (fp_line (start -0.225 -1.9) (end -0.225 -1.75) (layer F.Fab) (width 0.05))
  (fp_line (start -0.225 -1.75) (end 0.225 -1.75) (layer F.Fab) (width 0.05))
  (fp_line (start 0.225 -1.75) (end 0.225 -1.9) (layer F.Fab) (width 0.05))
  (fp_line (start 0.225 -1.9) (end 0.75 -1.9) (layer F.Fab) (width 0.05))
  (fp_line (start 0.75 -1.9) (end 0.75 -1.75) (layer F.Fab) (width 0.05))
  (fp_line (start 0.5 1.75) (end 0.5 1.9) (layer F.Fab) (width 0.05))
  (fp_line (start 0.5 1.9) (end 1.25 1.9) (layer F.Fab) (width 0.05))
  (fp_line (start 1.25 1.9) (end 1.25 1.75) (layer F.Fab) (width 0.05))
  (fp_line (start -1.25 1.9) (end -1.25 1.75) (layer F.Fab) (width 0.05))
  (fp_line (start -0.5 1.9) (end -0.5 1.75) (layer F.Fab) (width 0.05))
  (fp_line (start -1.25 1.9) (end -0.5 1.9) (layer F.Fab) (width 0.05))
  (fp_line (start 1.5 -1.55) (end 1.5 1.55) (layer F.Fab) (width 0.05))
  (fp_line (start -1.5 -1.55) (end -1.5 1.55) (layer F.Fab) (width 0.05))
  (fp_line (start -0.75 1.3) (end -0.75 1.55) (layer F.Fab) (width 0.05))
  (fp_line (start -0.75 1.55) (end 0.75 1.55) (layer F.Fab) (width 0.05))
  (fp_line (start 0.75 1.55) (end 0.75 1.3) (layer F.Fab) (width 0.05))
  (fp_circle (center 0 0) (end 0 -0.2) (layer F.Fab) (width 0.05))
  (fp_arc (start 0 0) (end -0.25 0.725) (angle 51) (layer F.Fab) (width 0.05))
  (fp_arc (start 0 0) (end 0.725 0.25) (angle 51) (layer F.Fab) (width 0.05))
  (fp_arc (start 0 0) (end 0.25 -0.725) (angle 51) (layer F.Fab) (width 0.05))
  (fp_arc (start 0 0) (end -0.725 -0.25) (angle 51) (layer F.Fab) (width 0.05))
  (fp_line (start -1.05 0.25) (end -1.05 -0.25) (layer F.Fab) (width 0.05))
  (fp_line (start -1.05 0.25) (end -0.725 0.25) (layer F.Fab) (width 0.05))
  (fp_line (start -1.05 -0.25) (end -0.725 -0.25) (layer F.Fab) (width 0.05))
  (fp_line (start -0.25 1.05) (end 0.25 1.05) (layer F.Fab) (width 0.05))
  (fp_line (start 0.25 1.05) (end 0.25 0.725) (layer F.Fab) (width 0.05))
  (fp_line (start -0.25 1.05) (end -0.25 0.725) (layer F.Fab) (width 0.05))
  (fp_line (start 1.05 -0.25) (end 1.05 0.25) (layer F.Fab) (width 0.05))
  (fp_line (start 1.05 0.25) (end 0.725 0.25) (layer F.Fab) (width 0.05))
  (fp_line (start 1.05 -0.25) (end 0.725 -0.25) (layer F.Fab) (width 0.05))
  (fp_line (start -0.25 -1.05) (end 0.25 -1.05) (layer F.Fab) (width 0.05))
  (fp_line (start 0.25 -1.05) (end 0.25 -0.725) (layer F.Fab) (width 0.05))
  (fp_line (start -0.25 -1.05) (end -0.25 -0.725) (layer F.Fab) (width 0.05))
  (fp_arc (start 0 0) (end 0.825 -1.25) (angle 116.5) (layer F.Fab) (width 0.05))
  (fp_arc (start 0 0) (end -0.75 1.3) (angle 116.5) (layer F.Fab) (width 0.05))
  (fp_line (start -0.25 -1.25) (end -0.825 -1.25) (layer F.Fab) (width 0.05))
  (fp_line (start 0.25 -1.25) (end 0.825 -1.25) (layer F.Fab) (width 0.05))
  (fp_line (start -1.3 1.75) (end 1.3 1.75) (layer F.Fab) (width 0.05))
  (fp_line (start 0.375 -1.75) (end 1.3 -1.75) (layer F.Fab) (width 0.05))
  (fp_line (start -0.375 -1.75) (end -1.3 -1.75) (layer F.Fab) (width 0.05))
  (fp_line (start -0.375 -1.6) (end -0.375 -1.75) (layer F.Fab) (width 0.05))
  (fp_line (start 0.375 -1.6) (end 0.375 -1.75) (layer F.Fab) (width 0.05))
  (fp_line (start -0.375 -1.6) (end 0.375 -1.6) (layer F.Fab) (width 0.05))
  (fp_arc (start 0 -1.25) (end -0.25 -1.25) (angle 180) (layer F.Fab) (width 0.05))
  (fp_arc (start -1.5 1.75) (end -1.5 1.55) (angle 90) (layer F.Fab) (width 0.05))
  (fp_arc (start 1.5 1.75) (end 1.3 1.75) (angle 90) (layer F.Fab) (width 0.05))
  (fp_arc (start 1.5 -1.75) (end 1.5 -1.55) (angle 90) (layer F.Fab) (width 0.05))
  (fp_arc (start -1.5 -1.75) (end -1.3 -1.75) (angle 90) (layer F.Fab) (width 0.05))
  (fp_line (start -1 -1.85) (end -1.4 -1.85) (layer F.SilkS) (width 0.15))
  (fp_line (start -1.6 1) (end -1.6 -1.65) (layer F.SilkS) (width 0.15))
  (fp_arc (start -1.5 -1.75) (end -1.5 -1.65) (angle -90) (layer F.SilkS) (width 0.15))
  (fp_line (start -1.5 -1.65) (end -1.6 -1.65) (layer F.SilkS) (width 0.15))
  (fp_line (start -1.4 -1.75) (end -1.4 -1.85) (layer F.SilkS) (width 0.15))
  (fp_line (start 1 -1.85) (end 1.4 -1.85) (layer F.SilkS) (width 0.15))
  (fp_line (start 1.6 1) (end 1.6 -1.65) (layer F.SilkS) (width 0.15))
  (fp_arc (start 1.5 -1.75) (end 1.4 -1.75) (angle -90) (layer F.SilkS) (width 0.15))
  (fp_line (start 1.4 -1.75) (end 1.4 -1.85) (layer F.SilkS) (width 0.15))
  (fp_line (start 1.6 -1.65) (end 1.5 -1.65) (layer F.SilkS) (width 0.15))
  (fp_arc (start 0 0) (end 1.724999 0.699999) (angle -44.17434321) (layer F.CrtYd) (width 0.1))
  (fp_arc (start 0 0) (end -1.724999 -0.699999) (angle -44.17434321) (layer F.CrtYd) (width 0.1))
  (fp_line (start -1.725 0.7) (end -1.725 2.45) (layer F.CrtYd) (width 0.1))
  (fp_line (start -1.725 2.45) (end 1.725 2.45) (layer F.CrtYd) (width 0.1))
  (fp_line (start 1.725 2.45) (end 1.725 0.7) (layer F.CrtYd) (width 0.1))
  (fp_line (start -1.725 -0.7) (end -1.725 -2.25) (layer F.CrtYd) (width 0.1))
  (fp_line (start -1.725 -2.25) (end 1.725 -2.25) (layer F.CrtYd) (width 0.1))
  (fp_line (start 1.725 -2.25) (end 1.725 -0.7) (layer F.CrtYd) (width 0.1))
  (pad 2 smd roundrect (at 0 -1.45) (size 1.6 1.5) (layers F.Cu F.Paste F.Mask) (roundrect_rratio 0.05)
    (solder_mask_margin 0.05) (solder_paste_margin -0.15) (clearance 0.1))
  (pad 1 smd roundrect (at -1 1.8) (size 1.2 1.2) (layers F.Cu F.Paste F.Mask) (roundrect_rratio 0.05)
    (solder_mask_margin 0.05) (solder_paste_margin -0.12) (clearance 0.1))
  (pad 3 smd roundrect (at 1 1.8) (size 1.2 1.2) (layers F.Cu F.Paste F.Mask) (roundrect_rratio 0.05)
    (solder_mask_margin 0.05) (solder_paste_margin -0.12) (clearance 0.1))
)
